elettronica/esperienza_07__shaper/oscilloscopio/seconda_presa_dati/7-shape in time/F0000CH1.CSV

Record Length,2.500000e+03,,  -0.000006720000,  -0.00080,
Sample Interval,4.000000e-09,,  -0.000006716000,  -0.00080,
Trigger Point,1.680000000000e+03,,  -0.000006712000,  -0.00080,
,,,  -0.000006708000,  -0.00080,
,,,  -0.000006704000,  -0.00080,
,,,  -0.000006700000,  -0.00080,
Source,CH1,,  -0.000006696000,  -0.00080,
Vertical Units,V,,  -0.000006692000,  -0.00080,
Vertical Scale,2.000000e-02,,  -0.000006688000,  -0.00080,
Vertical Offset,-1.600000e-03,,  -0.000006684000,  -0.00080,
Horizontal Units,s,,  -0.000006680000,  -0.00080,
Horizontal Scale,1.000000e-06,,  -0.000006676000,  -0.00080,
Pt Fmt,Y,,  -0.000006672000,  -0.00080,
Yzero,0.000000e+00,,  -0.000006668000,  -0.00080,
Probe Atten,1.000000e+01,,  -0.000006664000,  -0.00080,
Model Number,TBS1102B,,  -0.000006660000,  -0.00080,
Serial Number,C016277,,  -0.000006656000,  -0.00080,
Firmware Version,FV:v4.06,,  -0.000006652000,  -0.00080,
,,,-00.000006648000,  -0.00080,
,,,-00.000006644000,  -0.00080,
,,,-00.000006640000,  -0.00080,
,,,-00.000006636000,  -0.00080,
,,,-00.000006632000,  -0.00080,
,,,-00.000006628000,  -0.00080,
,,,-00.000006624000,  -0.00080,
,,,-00.000006620000,  -0.00080,
,,,-00.000006616000,  -0.00080,
,,,-00.000006612000,  -0.00080,
,,,-00.000006608000,  -0.00080,
,,,-00.000006604000,  -0.00080,
,,,-00.000006600000,  -0.00080,
,,,-00.000006596000,  -0.00080,
,,,-00.000006592000,  -0.00080,
,,,-00.000006588000,  -0.00080,
,,,-00.000006584000,  -0.00080,
,,,-00.000006580000,  -0.00080,
,,,-00.000006576000,  -0.00080,
,,,-00.000006572000,  -0.00080,
,,,-00.000006568000,  -0.00080,
,,,-00.000006564000,  -0.00080,
,,,-00.000006560000,  -0.00080,
,,,-00.000006556000,  -0.00080,
,,,-00.000006552000,  -0.00080,
,,,-00.000006548000,  -0.00080,
,,,-00.000006544000,  -0.00080,
,,,-00.000006540000,  -0.00080,
,,,-00.000006536000,  -0.00080,
,,,-00.000006532000,  -0.00080,
,,,-00.000006528000,  -0.00080,
,,,-00.000006524000,  -0.00080,
,,,-00.000006520000,  -0.00080,
,,,-00.000006516000,  -0.00080,
,,,-00.000006512000,  -0.00080,
,,,-00.000006508000,  -0.00080,
,,,-00.000006504000,  -0.00080,
,,,-00.000006500000,  -0.00080,
,,,-00.000006496000,  -0.00080,
,,,-00.000006492000,  -0.00080,
,,,-00.000006488000,  -0.00080,
,,,-00.000006484000,  -0.00080,
,,,-00.000006480000,  -0.00080,
,,,-00.000006476000,  -0.00080,
,,,-00.000006472000,  -0.00080,
,,,-00.000006468000,  -0.00080,
,,,-00.000006464000,  -0.00080,
,,,-00.000006460000,  -0.00080,
,,,-00.000006456000,  -0.00080,
,,,-00.000006452000,  -0.00080,
,,,-00.000006448000,  -0.00080,
,,,-00.000006444000,  -0.00080,
,,,-00.000006440000,  -0.00080,
,,,-00.000006436000,  -0.00080,
,,,-00.000006432000,  -0.00080,
,,,-00.000006428000,  -0.00080,
,,,-00.000006424000,  -0.00080,
,,,-00.000006420000,  -0.00080,
,,,-00.000006416000,  -0.00080,
,,,-00.000006412000,  -0.00080,
,,,-00.000006408000,  -0.00080,
,,,-00.000006404000,  -0.00080,
,,,-00.000006400000,  -0.00080,
,,,-00.000006396000,  -0.00080,
,,,-00.000006392000,  -0.00080,
,,,-00.000006388000,  -0.00080,
,,,-00.000006384000,  -0.00080,
,,,-00.000006380000,  -0.00080,
,,,-00.000006376000,  -0.00080,
,,,-00.000006372000,  -0.00080,
,,,-00.000006368000,  -0.00080,
,,,-00.000006364000,  -0.00080,
,,,-00.000006360000,  -0.00080,
,,,-00.000006356000,  -0.00080,
,,,-00.000006352000,  -0.00080,
,,,-00.000006348000,  -0.00080,
,,,-00.000006344000,  -0.00080,
,,,-00.000006340000,  -0.00080,
,,,-00.000006336000,  -0.00080,
,,,-00.000006332000,  -0.00080,
,,,-00.000006328000,  -0.00080,
,,,-00.000006324000,  -0.00080,
,,,-00.000006320000,  -0.00080,
,,,-00.000006316000,  -0.00080,
,,,-00.000006312000,  -0.00080,
,,,-00.000006308000,  -0.00080,
,,,-00.000006304000,  -0.00080,
,,,-00.000006300000,  -0.00080,
,,,-00.000006296000,  -0.00080,
,,,-00.000006292000,  -0.00080,
,,,-00.000006288000,  -0.00080,
,,,-00.000006284000,  -0.00080,
,,,-00.000006280000,  -0.00080,
,,,-00.000006276000,  -0.00080,
,,,-00.000006272000,  -0.00080,
,,,-00.000006268000,  -0.00080,
,,,-00.000006264000,  -0.00080,
,,,-00.000006260000,  -0.00080,
,,,-00.000006256000,  -0.00080,
,,,-00.000006252000,  -0.00080,
,,,-00.000006248000,  -0.00080,
,,,-00.000006244000,  -0.00080,
,,,-00.000006240000,  -0.00080,
,,,-00.000006236000,  -0.00080,
,,,-00.000006232000,  -0.00080,
,,,-00.000006228000,  -0.00080,
,,,-00.000006224000,  -0.00080,
,,,-00.000006220000,  -0.00080,
,,,-00.000006216000,  -0.00080,
,,,-00.000006212000,  -0.00080,
,,,-00.000006208000,  -0.00080,
,,,-00.000006204000,  -0.00080,
,,,-00.000006200000,  -0.00080,
,,,-00.000006196000,  -0.00080,
,,,-00.000006192000,  -0.00080,
,,,-00.000006188000,  -0.00080,
,,,-00.000006184000,  -0.00080,
,,,-00.000006180000,  -0.00080,
,,,-00.000006176000,  -0.00080,
,,,-00.000006172000,  -0.00080,
,,,-00.000006168000,  -0.00080,
,,,-00.000006164000,  -0.00080,
,,,-00.000006160000,  -0.00080,
,,,-00.000006156000,  -0.00080,
,,,-00.000006152000,  -0.00080,
,,,-00.000006148000,  -0.00080,
,,,-00.000006144000,  -0.00080,
,,,-00.000006140000,  -0.00080,
,,,-00.000006136000,  -0.00080,
,,,-00.000006132000,  -0.00080,
,,,-00.000006128000,  -0.00080,
,,,-00.000006124000,  -0.00080,
,,,-00.000006120000,  -0.00080,
,,,-00.000006116000,  -0.00080,
,,,-00.000006112000,  -0.00080,
,,,-00.000006108000,  -0.00080,
,,,-00.000006104000,  -0.00080,
,,,-00.000006100000,  -0.00080,
,,,-00.000006096000,  -0.00080,
,,,-00.000006092000,  -0.00080,
,,,-00.000006088000,  -0.00080,
,,,-00.000006084000,  -0.00080,
,,,-00.000006080000,  -0.00080,
,,,-00.000006076000,  -0.00080,
,,,-00.000006072000,  -0.00080,
,,,-00.000006068000,  -0.00080,
,,,-00.000006064000,  -0.00080,
,,,-00.000006060000,  -0.00080,
,,,-00.000006056000,  -0.00080,
,,,-00.000006052000,  -0.00080,
,,,-00.000006048000,  -0.00080,
,,,-00.000006044000,  -0.00080,
,,,-00.000006040000,  -0.00080,
,,,-00.000006036000,  -0.00080,
,,,-00.000006032000,  -0.00080,
,,,-00.000006028000,  -0.00080,
,,,-00.000006024000,  -0.00080,
,,,-00.000006020000,  -0.00080,
,,,-00.000006016000,  -0.00080,
,,,-00.000006012000,  -0.00080,
,,,-00.000006008000,  -0.00080,
,,,-00.000006004000,  -0.00080,
,,,-00.000006000000,  -0.00080,
,,,-00.000005996000,  -0.00080,
,,,-00.000005992000,  -0.00080,
,,,-00.000005988000,  -0.00080,
,,,-00.000005984000,  -0.00080,
,,,-00.000005980000,  -0.00080,
,,,-00.000005976000,  -0.00080,
,,,-00.000005972000,  -0.00080,
,,,-00.000005968000,  -0.00080,
,,,-00.000005964000,  -0.00080,
,,,-00.000005960000,  -0.00080,
,,,-00.000005956000,  -0.00080,
,,,-00.000005952000,  -0.00080,
,,,-00.000005948000,  -0.00080,
,,,-00.000005944000,  -0.00080,
,,,-00.000005940000,  -0.00080,
,,,-00.000005936000,  -0.00080,
,,,-00.000005932000,  -0.00080,
,,,-00.000005928000,  -0.00080,
,,,-00.000005924000,  -0.00080,
,,,-00.000005920000,  -0.00080,
,,,-00.000005916000,  -0.00080,
,,,-00.000005912000,  -0.00080,
,,,-00.000005908000,  -0.00080,
,,,-00.000005904000,  -0.00080,
,,,-00.000005900000,  -0.00080,
,,,-00.000005896000,  -0.00080,
,,,-00.000005892000,  -0.00080,
,,,-00.000005888000,  -0.00080,
,,,-00.000005884000,  -0.00080,
,,,-00.000005880000,  -0.00080,
,,,-00.000005876000,  -0.00080,
,,,-00.000005872000,  -0.00080,
,,,-00.000005868000,  -0.00080,
,,,-00.000005864000,  -0.00080,
,,,-00.000005860000,  -0.00080,
,,,-00.000005856000,  -0.00080,
,,,-00.000005852000,  -0.00080,
,,,-00.000005848000,  -0.00080,
,,,-00.000005844000,  -0.00080,
,,,-00.000005840000,  -0.00080,
,,,-00.000005836000,  -0.00080,
,,,-00.000005832000,  -0.00080,
,,,-00.000005828000,  -0.00080,
,,,-00.000005824000,  -0.00080,
,,,-00.000005820000,  -0.00080,
,,,-00.000005816000,  -0.00080,
,,,-00.000005812000,  -0.00080,
,,,-00.000005808000,  -0.00080,
,,,-00.000005804000,  -0.00080,
,,,-00.000005800000,  -0.00080,
,,,-00.000005796000,  -0.00080,
,,,-00.000005792000,  -0.00080,
,,,-00.000005788000,  -0.00080,
,,,-00.000005784000,  -0.00080,
,,,-00.000005780000,  -0.00080,
,,,-00.000005776000,  -0.00080,
,,,-00.000005772000,  -0.00080,
,,,-00.000005768000,  -0.00080,
,,,-00.000005764000,  -0.00080,
,,,-00.000005760000,  -0.00080,
,,,-00.000005756000,  -0.00080,
,,,-00.000005752000,  -0.00080,
,,,-00.000005748000,  -0.00080,
,,,-00.000005744000,  -0.00080,
,,,-00.000005740000,  -0.00080,
,,,-00.000005736000,  -0.00080,
,,,-00.000005732000,  -0.00080,
,,,-00.000005728000,  -0.00080,
,,,-00.000005724000,  -0.00080,
,,,-00.000005720000,  -0.00080,
,,,-00.000005716000,  -0.00080,
,,,-00.000005712000,  -0.00080,
,,,-00.000005708000,  -0.00080,
,,,-00.000005704000,  -0.00080,
,,,-00.000005700000,  -0.00080,
,,,-00.000005696000,  -0.00080,
,,,-00.000005692000,  -0.00080,
,,,-00.000005688000,  -0.00080,
,,,-00.000005684000,  -0.00080,
,,,-00.000005680000,  -0.00080,
,,,-00.000005676000,  -0.00080,
,,,-00.000005672000,  -0.00080,
,,,-00.000005668000,  -0.00080,
,,,-00.000005664000,  -0.00080,
,,,-00.000005660000,  -0.00080,
,,,-00.000005656000,  -0.00080,
,,,-00.000005652000,  -0.00080,
,,,-00.000005648000,  -0.00080,
,,,-00.000005644000,  -0.00080,
,,,-00.000005640000,  -0.00080,
,,,-00.000005636000,  -0.00080,
,,,-00.000005632000,  -0.00080,
,,,-00.000005628000,  -0.00080,
,,,-00.000005624000,  -0.00080,
,,,-00.000005620000,  -0.00080,
,,,-00.000005616000,  -0.00080,
,,,-00.000005612000,  -0.00080,
,,,-00.000005608000,  -0.00080,
,,,-00.000005604000,  -0.00080,
,,,-00.000005600000,  -0.00080,
,,,-00.000005596000,  -0.00080,
,,,-00.000005592000,  -0.00080,
,,,-00.000005588000,  -0.00080,
,,,-00.000005584000,  -0.00080,
,,,-00.000005580000,  -0.00080,
,,,-00.000005576000,  -0.00080,
,,,-00.000005572000,  -0.00080,
,,,-00.000005568000,  -0.00080,
,,,-00.000005564000,  -0.00080,
,,,-00.000005560000,  -0.00080,
,,,-00.000005556000,  -0.00080,
,,,-00.000005552000,  -0.00080,
,,,-00.000005548000,  -0.00080,
,,,-00.000005544000,  -0.00080,
,,,-00.000005540000,  -0.00080,
,,,-00.000005536000,  -0.00080,
,,,-00.000005532000,  -0.00080,
,,,-00.000005528000,  -0.00080,
,,,-00.000005524000,  -0.00080,
,,,-00.000005520000,  -0.00080,
,,,-00.000005516000,  -0.00080,
,,,-00.000005512000,  -0.00080,
,,,-00.000005508000,  -0.00080,
,,,-00.000005504000,  -0.00080,
,,,-00.000005500000,  -0.00080,
,,,-00.000005496000,  -0.00080,
,,,-00.000005492000,  -0.00080,
,,,-00.000005488000,  -0.00080,
,,,-00.000005484000,  -0.00080,
,,,-00.000005480000,  -0.00080,
,,,-00.000005476000,  -0.00080,
,,,-00.000005472000,  -0.00080,
,,,-00.000005468000,  -0.00080,
,,,-00.000005464000,  -0.00080,
,,,-00.000005460000,  -0.00080,
,,,-00.000005456000,  -0.00080,
,,,-00.000005452000,  -0.00080,
,,,-00.000005448000,  -0.00080,
,,,-00.000005444000,  -0.00080,
,,,-00.000005440000,  -0.00080,
,,,-00.000005436000,  -0.00080,
,,,-00.000005432000,  -0.00080,
,,,-00.000005428000,  -0.00080,
,,,-00.000005424000,  -0.00080,
,,,-00.000005420000,  -0.00080,
,,,-00.000005416000,  -0.00080,
,,,-00.000005412000,  -0.00080,
,,,-00.000005408000,  -0.00080,
,,,-00.000005404000,  -0.00080,
,,,-00.000005400000,  -0.00160,
,,,-00.000005396000,  -0.00080,
,,,-00.000005392000,  -0.00080,
,,,-00.000005388000,  -0.00080,
,,,-00.000005384000,  -0.00080,
,,,-00.000005380000,  -0.00080,
,,,-00.000005376000,  -0.00080,
,,,-00.000005372000,  -0.00080,
,,,-00.000005368000,  -0.00080,
,,,-00.000005364000,  -0.00080,
,,,-00.000005360000,  -0.00080,
,,,-00.000005356000,  -0.00080,
,,,-00.000005352000,  -0.00080,
,,,-00.000005348000,  -0.00080,
,,,-00.000005344000,  -0.00080,
,,,-00.000005340000,  -0.00080,
,,,-00.000005336000,  -0.00080,
,,,-00.000005332000,  -0.00080,
,,,-00.000005328000,  -0.00080,
,,,-00.000005324000,  -0.00080,
,,,-00.000005320000,  -0.00080,
,,,-00.000005316000,  -0.00080,
,,,-00.000005312000,  -0.00080,
,,,-00.000005308000,  -0.00080,
,,,-00.000005304000,  -0.00080,
,,,-00.000005300000,  -0.00080,
,,,-00.000005296000,  -0.00080,
,,,-00.000005292000,  -0.00080,
,,,-00.000005288000,  -0.00080,
,,,-00.000005284000,  -0.00080,
,,,-00.000005280000,  -0.00080,
,,,-00.000005276000,  -0.00080,
,,,-00.000005272000,  -0.00080,
,,,-00.000005268000,  -0.00080,
,,,-00.000005264000,  -0.00080,
,,,-00.000005260000,  -0.00080,
,,,-00.000005256000,  -0.00080,
,,,-00.000005252000,  -0.00080,
,,,-00.000005248000,  -0.00080,
,,,-00.000005244000,  -0.00080,
,,,-00.000005240000,  -0.00080,
,,,-00.000005236000,  -0.00080,
,,,-00.000005232000,  -0.00080,
,,,-00.000005228000,  -0.00080,
,,,-00.000005224000,  -0.00080,
,,,-00.000005220000,  -0.00080,
,,,-00.000005216000,  -0.00080,
,,,-00.000005212000,  -0.00080,
,,,-00.000005208000,  -0.00080,
,,,-00.000005204000,  -0.00080,
,,,-00.000005200000,  -0.00080,
,,,-00.000005196000,  -0.00080,
,,,-00.000005192000,  -0.00080,
,,,-00.000005188000,  -0.00080,
,,,-00.000005184000,  -0.00080,
,,,-00.000005180000,  -0.00080,
,,,-00.000005176000,  -0.00080,
,,,-00.000005172000,  -0.00080,
,,,-00.000005168000,  -0.00080,
,,,-00.000005164000,  -0.00080,
,,,-00.000005160000,  -0.00080,
,,,-00.000005156000,  -0.00080,
,,,-00.000005152000,  -0.00080,
,,,-00.000005148000,  -0.00080,
,,,-00.000005144000,  -0.00080,
,,,-00.000005140000,  -0.00080,
,,,-00.000005136000,  -0.00080,
,,,-00.000005132000,  -0.00080,
,,,-00.000005128000,  -0.00080,
,,,-00.000005124000,  -0.00080,
,,,-00.000005120000,  -0.00080,
,,,-00.000005116000,  -0.00080,
,,,-00.000005112000,  -0.00080,
,,,-00.000005108000,  -0.00080,
,,,-00.000005104000,  -0.00080,
,,,-00.000005100000,  -0.00080,
,,,-00.000005096000,  -0.00080,
,,,-00.000005092000,  -0.00080,
,,,-00.000005088000,  -0.00080,
,,,-00.000005084000,  -0.00080,
,,,-00.000005080000,  -0.00080,
,,,-00.000005076000,  -0.00080,
,,,-00.000005072000,  -0.00080,
,,,-00.000005068000,  -0.00080,
,,,-00.000005064000,  -0.00080,
,,,-00.000005060000,  -0.00080,
,,,-00.000005056000,  -0.00080,
,,,-00.000005052000,  -0.00080,
,,,-00.000005048000,  -0.00080,
,,,-00.000005044000,  -0.00080,
,,,-00.000005040000,  -0.00080,
,,,-00.000005036000,  -0.00080,
,,,-00.000005032000,  -0.00080,
,,,-00.000005028000,  -0.00080,
,,,-00.000005024000,  -0.00080,
,,,-00.000005020000,  -0.00080,
,,,-00.000005016000,  -0.00080,
,,,-00.000005012000,  -0.00080,
,,,-00.000005008000,  -0.00080,
,,,-00.000005004000,  -0.00080,
,,,-00.000005000000,  -0.00080,
,,,-00.000004996000,  -0.00080,
,,,-00.000004992000,   0.00080,
,,,-00.000004988000,   0.00400,
,,,-00.000004984000,   0.00320,
,,,-00.000004980000,  -0.00160,
,,,-00.000004976000,  -0.00400,
,,,-00.000004972000,  -0.00480,
,,,-00.000004968000,  -0.00480,
,,,-00.000004964000,  -0.00480,
,,,-00.000004960000,  -0.00320,
,,,-00.000004956000,  -0.00320,
,,,-00.000004952000,  -0.00080,
,,,-00.000004948000,   0.00080,
,,,-00.000004944000,   0.00160,
,,,-00.000004940000,   0.00000,
,,,-00.000004936000,  -0.00160,
,,,-00.000004932000,  -0.00320,
,,,-00.000004928000,  -0.00400,
,,,-00.000004924000,  -0.00400,
,,,-00.000004920000,  -0.00160,
,,,-00.000004916000,   0.00000,
,,,-00.000004912000,  -0.00160,
,,,-00.000004908000,  -0.00240,
,,,-00.000004904000,  -0.00160,
,,,-00.000004900000,  -0.00160,
,,,-00.000004896000,  -0.00240,
,,,-00.000004892000,  -0.00320,
,,,-00.000004888000,  -0.00240,
,,,-00.000004884000,  -0.00240,
,,,-00.000004880000,  -0.00160,
,,,-00.000004876000,  -0.00160,
,,,-00.000004872000,  -0.00240,
,,,-00.000004868000,  -0.00320,
,,,-00.000004864000,  -0.00240,
,,,-00.000004860000,  -0.00080,
,,,-00.000004856000,   0.00000,
,,,-00.000004852000,   0.00000,
,,,-00.000004848000,  -0.00080,
,,,-00.000004844000,  -0.00160,
,,,-00.000004840000,  -0.00160,
,,,-00.000004836000,  -0.00240,
,,,-00.000004832000,  -0.00320,
,,,-00.000004828000,  -0.00240,
,,,-00.000004824000,   0.00000,
,,,-00.000004820000,   0.00160,
,,,-00.000004816000,   0.00160,
,,,-00.000004812000,   0.00080,
,,,-00.000004808000,   0.00000,
,,,-00.000004804000,  -0.00080,
,,,-00.000004800000,  -0.00160,
,,,-00.000004796000,  -0.00160,
,,,-00.000004792000,  -0.00080,
,,,-00.000004788000,   0.00000,
,,,-00.000004784000,   0.00160,
,,,-00.000004780000,   0.00240,
,,,-00.000004776000,   0.00240,
,,,-00.000004772000,   0.00160,
,,,-00.000004768000,   0.00080,
,,,-00.000004764000,   0.00000,
,,,-00.000004760000,  -0.00080,
,,,-00.000004756000,   0.00000,
,,,-00.000004752000,   0.00080,
,,,-00.000004748000,   0.00160,
,,,-00.000004744000,   0.00240,
,,,-00.000004740000,   0.00240,
,,,-00.000004736000,   0.00240,
,,,-00.000004732000,   0.00160,
,,,-00.000004728000,   0.00160,
,,,-00.000004724000,   0.00160,
,,,-00.000004720000,   0.00160,
,,,-00.000004716000,   0.00160,
,,,-00.000004712000,   0.00240,
,,,-00.000004708000,   0.00240,
,,,-00.000004704000,   0.00240,
,,,-00.000004700000,   0.00240,
,,,-00.000004696000,   0.00320,
,,,-00.000004692000,   0.00320,
,,,-00.000004688000,   0.00320,
,,,-00.000004684000,   0.00320,
,,,-00.000004680000,   0.00320,
,,,-00.000004676000,   0.00320,
,,,-00.000004672000,   0.00320,
,,,-00.000004668000,   0.00320,
,,,-00.000004664000,   0.00320,
,,,-00.000004660000,   0.00400,
,,,-00.000004656000,   0.00400,
,,,-00.000004652000,   0.00480,
,,,-00.000004648000,   0.00480,
,,,-00.000004644000,   0.00480,
,,,-00.000004640000,   0.00400,
,,,-00.000004636000,   0.00400,
,,,-00.000004632000,   0.00400,
,,,-00.000004628000,   0.00400,
,,,-00.000004624000,   0.00480,
,,,-00.000004620000,   0.00480,
,,,-00.000004616000,   0.00560,
,,,-00.000004612000,   0.00560,
,,,-00.000004608000,   0.00560,
,,,-00.000004604000,   0.00480,
,,,-00.000004600000,   0.00480,
,,,-00.000004596000,   0.00480,
,,,-00.000004592000,   0.00480,
,,,-00.000004588000,   0.00480,
,,,-00.000004584000,   0.00560,
,,,-00.000004580000,   0.00640,
,,,-00.000004576000,   0.00640,
,,,-00.000004572000,   0.00640,
,,,-00.000004568000,   0.00640,
,,,-00.000004564000,   0.00640,
,,,-00.000004560000,   0.00560,
,,,-00.000004556000,   0.00560,
,,,-00.000004552000,   0.00560,
,,,-00.000004548000,   0.00640,
,,,-00.000004544000,   0.00640,
,,,-00.000004540000,   0.00720,
,,,-00.000004536000,   0.00720,
,,,-00.000004532000,   0.00720,
,,,-00.000004528000,   0.00720,
,,,-00.000004524000,   0.00720,
,,,-00.000004520000,   0.00720,
,,,-00.000004516000,   0.00720,
,,,-00.000004512000,   0.00720,
,,,-00.000004508000,   0.00720,
,,,-00.000004504000,   0.00800,
,,,-00.000004500000,   0.00800,
,,,-00.000004496000,   0.00800,
,,,-00.000004492000,   0.00800,
,,,-00.000004488000,   0.00800,
,,,-00.000004484000,   0.00800,
,,,-00.000004480000,   0.00800,
,,,-00.000004476000,   0.00800,
,,,-00.000004472000,   0.00800,
,,,-00.000004468000,   0.00800,
,,,-00.000004464000,   0.00800,
,,,-00.000004460000,   0.00800,
,,,-00.000004456000,   0.00880,
,,,-00.000004452000,   0.00880,
,,,-00.000004448000,   0.00880,
,,,-00.000004444000,   0.00960,
,,,-00.000004440000,   0.00960,
,,,-00.000004436000,   0.00880,
,,,-00.000004432000,   0.00880,
,,,-00.000004428000,   0.00880,
,,,-00.000004424000,   0.00960,
,,,-00.000004420000,   0.00960,
,,,-00.000004416000,   0.00960,
,,,-00.000004412000,   0.01040,
,,,-00.000004408000,   0.01040,
,,,-00.000004404000,   0.01040,
,,,-00.000004400000,   0.01040,
,,,-00.000004396000,   0.00960,
,,,-00.000004392000,   0.00960,
,,,-00.000004388000,   0.00960,
,,,-00.000004384000,   0.01040,
,,,-00.000004380000,   0.01040,
,,,-00.000004376000,   0.01040,
,,,-00.000004372000,   0.01120,
,,,-00.000004368000,   0.01120,
,,,-00.000004364000,   0.01120,
,,,-00.000004360000,   0.01120,
,,,-00.000004356000,   0.01040,
,,,-00.000004352000,   0.01040,
,,,-00.000004348000,   0.01120,
,,,-00.000004344000,   0.01120,
,,,-00.000004340000,   0.01120,
,,,-00.000004336000,   0.01120,
,,,-00.000004332000,   0.01120,
,,,-00.000004328000,   0.01120,
,,,-00.000004324000,   0.01120,
,,,-00.000004320000,   0.01120,
,,,-00.000004316000,   0.01120,
,,,-00.000004312000,   0.01120,
,,,-00.000004308000,   0.01120,
,,,-00.000004304000,   0.01120,
,,,-00.000004300000,   0.01120,
,,,-00.000004296000,   0.01200,
,,,-00.000004292000,   0.01200,
,,,-00.000004288000,   0.01200,
,,,-00.000004284000,   0.01200,
,,,-00.000004280000,   0.01200,
,,,-00.000004276000,   0.01200,
,,,-00.000004272000,   0.01200,
,,,-00.000004268000,   0.01200,
