spettroscopia/haynes-shockley/presa-dati-1-dconst/run2/TEK00000.CSV

Model,TBS1102C
Firmware Version,v2015-08-04-prequal4ch70_v1.3

Point Format,Y
Horizontal Units,S
Horizontal Scale,2e-05
Sample Interval,1.6e-07
Filter Frequency,2e+08
Record Length,2000
Gating,0.0% to 100.0%
Probe Attenuation,1
Vertical Units,V
Vertical Offset,0
Vertical Scale,0.02
Label,
TIME,CH1
-1.664e-04,0.000384375
-1.662e-04,0.000278125
-1.661e-04,0.0003
-1.659e-04,0.000178125
-1.658e-04,0.000240625
-1.656e-04,0.000203125
-1.654e-04,0.00014375
-1.653e-04,0.000184375
-1.651e-04,0.000165625
-1.650e-04,0.00026875
-1.648e-04,0.00029375
-1.646e-04,0.000390625
-1.645e-04,0.000378125
-1.643e-04,0.00021875
-1.642e-04,0.000265625
-1.640e-04,8.75e-05
-1.638e-04,0.0003125
-1.637e-04,0.0003875
-1.635e-04,0.0003375
-1.634e-04,0.000290625
-1.632e-04,0.000221875
-1.630e-04,0.000375
-1.629e-04,0.000221875
-1.627e-04,0.00013125
-1.626e-04,-6.5625e-05
-1.624e-04,-3.75e-05
-1.622e-04,8.4375e-05
-1.621e-04,0.00033125
-1.619e-04,0.000334375
-1.618e-04,0.0003875
-1.616e-04,0.000359375
-1.614e-04,0.000403125
-1.613e-04,0.000234375
-1.611e-04,0.000384375
-1.610e-04,0.000228125
-1.608e-04,0.00014375
-1.606e-04,0.000409375
-1.605e-04,0.000171875
-1.603e-04,0.000240625
-1.602e-04,0.00021875
-1.600e-04,0.000190625
-1.598e-04,0.000303125
-1.597e-04,0.000196875
-1.595e-04,0.000296875
-1.594e-04,0.00030625
-1.592e-04,0.00028125
-1.590e-04,0.000328125
-1.589e-04,0.000321875
-1.587e-04,0.00018125
-1.586e-04,7.1875e-05
-1.584e-04,0.0003125
-1.582e-04,0.0005125
-1.581e-04,0.000546875
-1.579e-04,0.000478125
-1.578e-04,0.000128125
-1.576e-04,7.1875e-05
-1.574e-04,8.125e-05
-1.573e-04,6.875e-05
-1.571e-04,3.4375e-05
-1.570e-04,0.00015625
-1.568e-04,0.0001875
-1.566e-04,0.00013125
-1.565e-04,0.000178125
-1.563e-04,0.00026875
-1.562e-04,0.000265625
-1.560e-04,0.000396875
-1.558e-04,0.000259375
-1.557e-04,0.000221875
-1.555e-04,0.00028125
-1.554e-04,0.00011875
-1.552e-04,0.000246875
-1.550e-04,0.00025625
-1.549e-04,0.00010625
-1.547e-04,0.000334375
-1.546e-04,0.000346875
-1.544e-04,0.000228125
-1.542e-04,0.000153125
-1.541e-04,0.00026875
-1.539e-04,0.000209375
-1.538e-04,8.125e-05
-1.536e-04,0.0001625
-1.534e-04,0.000128125
-1.533e-04,0.0001875
-1.531e-04,0.00020625
-1.530e-04,0.000209375
-1.528e-04,0.00028125
-1.526e-04,0.000203125
-1.525e-04,-0.000103125
-1.523e-04,0.000175
-1.522e-04,0.000284375
-1.520e-04,-0.000125
-1.518e-04,-0.00111875
-1.517e-04,-0.00162187
-1.515e-04,-0.00206875
-1.514e-04,-0.00138125
-1.512e-04,0.0269562
-1.510e-04,0.0706062
-1.509e-04,0.0808
-1.507e-04,0.0808
-1.506e-04,0.0808
-1.504e-04,0.0808
-1.502e-04,0.0808
-1.501e-04,0.0808
-1.499e-04,0.0808
-1.498e-04,0.0808
-1.496e-04,0.0808
-1.494e-04,0.0797031
-1.493e-04,0.0578375
-1.491e-04,0.0323625
-1.490e-04,0.0168375
-1.488e-04,0.0121344
-1.486e-04,0.0143531
-1.485e-04,0.019425
-1.483e-04,0.0240375
-1.482e-04,0.0266437
-1.480e-04,0.0274812
-1.478e-04,0.0263031
-1.477e-04,0.0248094
-1.475e-04,0.0230687
-1.474e-04,0.0218562
-1.472e-04,0.0209937
-1.470e-04,0.0207094
-1.469e-04,0.0204125
-1.467e-04,0.0204187
-1.466e-04,0.0203437
-1.464e-04,0.0201844
-1.462e-04,0.0201156
-1.461e-04,0.0197844
-1.459e-04,0.0195406
-1.458e-04,0.0193812
-1.456e-04,0.0194312
-1.454e-04,0.0193344
-1.453e-04,0.0192875
-1.451e-04,0.0192406
-1.450e-04,0.0193937
-1.448e-04,0.0194625
-1.446e-04,0.01935
-1.445e-04,0.019575
-1.443e-04,0.0194594
-1.442e-04,0.0195594
-1.440e-04,0.0195531
-1.438e-04,0.0196875
-1.437e-04,0.0197969
-1.435e-04,0.0196656
-1.434e-04,0.0197531
-1.432e-04,0.0197594
-1.430e-04,0.0196844
-1.429e-04,0.0198125
-1.427e-04,0.0199531
-1.426e-04,0.0197719
-1.424e-04,0.0199062
-1.422e-04,0.0198375
-1.421e-04,0.0197594
-1.419e-04,0.0199031
-1.418e-04,0.0198687
-1.416e-04,0.0199875
-1.414e-04,0.0199531
-1.413e-04,0.0198656
-1.411e-04,0.0199437
-1.410e-04,0.0199094
-1.408e-04,0.0198969
-1.406e-04,0.0198312
-1.405e-04,0.0198094
-1.403e-04,0.0198812
-1.402e-04,0.0200969
-1.400e-04,0.0199531
-1.398e-04,0.0200469
-1.397e-04,0.0198062
-1.395e-04,0.0198
-1.394e-04,0.0198062
-1.392e-04,0.0197937
-1.390e-04,0.0197281
-1.389e-04,0.0196156
-1.387e-04,0.0195094
-1.386e-04,0.0197
-1.384e-04,0.0197562
-1.382e-04,0.0198187
-1.381e-04,0.0197469
-1.379e-04,0.0195812
-1.378e-04,0.0195031
-1.376e-04,0.0197156
-1.374e-04,0.0196312
-1.373e-04,0.0196875
-1.371e-04,0.0197125
-1.370e-04,0.0196437
-1.368e-04,0.019525
-1.366e-04,0.019575
-1.365e-04,0.0197312
-1.363e-04,0.0199594
-1.362e-04,0.0197312
-1.360e-04,0.0196937
-1.358e-04,0.0196906
-1.357e-04,0.0197094
-1.355e-04,0.0196219
-1.354e-04,0.0196281
-1.352e-04,0.0197719
-1.350e-04,0.0197281
-1.349e-04,0.0198156
-1.347e-04,0.0197656
-1.346e-04,0.0198219
-1.344e-04,0.0198375
-1.342e-04,0.0199531
-1.341e-04,0.0199156
-1.339e-04,0.0199187
-1.338e-04,0.0198531
-1.336e-04,0.0200719
-1.334e-04,0.0201031
-1.333e-04,0.0200812
-1.331e-04,0.0201469
-1.330e-04,0.0201156
-1.328e-04,0.0201375
-1.326e-04,0.0203031
-1.325e-04,0.0201687
-1.323e-04,0.0203031
-1.322e-04,0.0202875
-1.320e-04,0.0201969
-1.318e-04,0.0202062
-1.317e-04,0.020175
-1.315e-04,0.0202156
-1.314e-04,0.0203156
-1.312e-04,0.0202594
-1.310e-04,0.0203781
-1.309e-04,0.0203531
-1.307e-04,0.0201812
-1.306e-04,0.0204562
-1.304e-04,0.0203781
-1.302e-04,0.0202906
-1.301e-04,0.0204
-1.299e-04,0.0202312
-1.298e-04,0.0204875
-1.296e-04,0.0203344
-1.294e-04,0.0202375
-1.293e-04,0.0203281
-1.291e-04,0.0203719
-1.290e-04,0.0203437
-1.288e-04,0.0204906
-1.286e-04,0.0204844
-1.285e-04,0.0205437
-1.283e-04,0.020475
-1.282e-04,0.0205312
-1.280e-04,0.020575
-1.278e-04,0.0205312
-1.277e-04,0.0204687
-1.275e-04,0.0203656
-1.274e-04,0.0204062
-1.272e-04,0.0201531
-1.270e-04,0.020325
-1.269e-04,0.0204375
-1.267e-04,0.0202187
-1.266e-04,0.0202969
-1.264e-04,0.0204812
-1.262e-04,0.0204594
-1.261e-04,0.0202781
-1.259e-04,0.0204937
-1.258e-04,0.0202437
-1.256e-04,0.02015
-1.254e-04,0.0203531
-1.253e-04,0.0202781
-1.251e-04,0.0201687
-1.250e-04,0.0202062
-1.248e-04,0.0203062
-1.246e-04,0.0202625
-1.245e-04,0.0202281
-1.243e-04,0.0201594
-1.242e-04,0.0200781
-1.240e-04,0.0201937
-1.238e-04,0.0201719
-1.237e-04,0.0202156
-1.235e-04,0.0201062
-1.234e-04,0.0199969
-1.232e-04,0.0201562
-1.230e-04,0.0201781
-1.229e-04,0.0200781
-1.227e-04,0.019975
-1.226e-04,0.019975
-1.224e-04,0.0202094
-1.222e-04,0.0201812
-1.221e-04,0.0198937
-1.219e-04,0.0200062
-1.218e-04,0.0198687
-1.216e-04,0.0198719
-1.214e-04,0.0198687
-1.213e-04,0.0199281
-1.211e-04,0.0199344
-1.210e-04,0.0198562
-1.208e-04,0.0198219
-1.206e-04,0.0196656
-1.205e-04,0.0196812
-1.203e-04,0.01965
-1.202e-04,0.0196625
-1.200e-04,0.0196406
-1.198e-04,0.0196875
-1.197e-04,0.0195812
-1.195e-04,0.0196312
-1.194e-04,0.0197062
-1.192e-04,0.0196375
-1.190e-04,0.0196406
-1.189e-04,0.0196437
-1.187e-04,0.0194812
-1.186e-04,0.0196187
-1.184e-04,0.0195687
-1.182e-04,0.0195625
-1.181e-04,0.0195781
-1.179e-04,0.0196281
-1.178e-04,0.0196687
-1.176e-04,0.0195719
-1.174e-04,0.0194781
-1.173e-04,0.0195344
-1.171e-04,0.0193969
-1.170e-04,0.0193781
-1.168e-04,0.0193625
-1.166e-04,0.0194781
-1.165e-04,0.0194531
-1.163e-04,0.0194719
-1.162e-04,0.019225
-1.160e-04,0.0193719
-1.158e-04,0.0191969
-1.157e-04,0.0192125
-1.155e-04,0.0191437
-1.154e-04,0.0190625
-1.152e-04,0.0192562
-1.150e-04,0.0191187
-1.149e-04,0.0191531
-1.147e-04,0.0191875
-1.146e-04,0.0191687
-1.144e-04,0.0191531
-1.142e-04,0.0192187
-1.141e-04,0.0191562
-1.139e-04,0.0192437
-1.138e-04,0.0189156
-1.136e-04,0.0189906
-1.134e-04,0.0191906
-1.133e-04,0.0191719
-1.131e-04,0.0189969
-1.130e-04,0.019225
-1.128e-04,0.0190812
-1.126e-04,0.0191437
-1.125e-04,0.0190562
-1.123e-04,0.019025
-1.122e-04,0.0190875
-1.120e-04,0.0190187
-1.118e-04,0.0188625
-1.117e-04,0.0189469
-1.115e-04,0.0189031
-1.114e-04,0.0188562
-1.112e-04,0.0187187
-1.110e-04,0.018875
-1.109e-04,0.0188281
-1.107e-04,0.0187156
-1.106e-04,0.0187781
-1.104e-04,0.01865
-1.102e-04,0.0187969
-1.101e-04,0.0187
-1.099e-04,0.018725
-1.098e-04,0.0188531
-1.096e-04,0.0186594
-1.094e-04,0.0187625
-1.093e-04,0.0187594
-1.091e-04,0.0186594
-1.090e-04,0.0184937
-1.088e-04,0.0184219
-1.086e-04,0.0185656
-1.085e-04,0.01855
-1.083e-04,0.0185781
-1.082e-04,0.0183875
-1.080e-04,0.018475
-1.078e-04,0.0184406
-1.077e-04,0.0183437
-1.075e-04,0.0184031
-1.074e-04,0.0185219
-1.072e-04,0.0184844
-1.070e-04,0.0185375
-1.069e-04,0.0186844
-1.067e-04,0.0184687
-1.066e-04,0.0184656
-1.064e-04,0.0183969
-1.062e-04,0.0184312
-1.061e-04,0.018525
-1.059e-04,0.0184594
-1.058e-04,0.0184312
-1.056e-04,0.0185125
-1.054e-04,0.0184219
-1.053e-04,0.0183719
-1.051e-04,0.018525
-1.050e-04,0.0183969
-1.048e-04,0.0183844
-1.046e-04,0.0185687
-1.045e-04,0.01855
-1.043e-04,0.0184469
-1.042e-04,0.0183281
-1.040e-04,0.0183031
-1.038e-04,0.0183031
-1.037e-04,0.0183906
-1.035e-04,0.0182562
-1.034e-04,0.0183844
-1.032e-04,0.0184219
-1.030e-04,0.0183125
-1.029e-04,0.0182969
-1.027e-04,0.0183812
-1.026e-04,0.0182656
-1.024e-04,0.0183594
-1.022e-04,0.0183219
-1.021e-04,0.0182531
-1.019e-04,0.0182969
-1.018e-04,0.0183031
-1.016e-04,0.0184656
-1.014e-04,0.0182594
-1.013e-04,0.0183156
-1.011e-04,0.0183031
-1.010e-04,0.0183969
-1.008e-04,0.0184406
-1.006e-04,0.0183031
-1.005e-04,0.0183656
-1.003e-04,0.0184
-1.002e-04,0.0183187
-1.000e-04,0.0184094
-9.984e-05,0.0183125
-9.968e-05,0.0183687
-9.952e-05,0.01845
-9.936e-05,0.0185156
-9.920e-05,0.0185344
-9.904e-05,0.0185031
-9.888e-05,0.0185187
-9.872e-05,0.0184312
-9.856e-05,0.0184906
-9.840e-05,0.0183969
-9.824e-05,0.0183031
-9.808e-05,0.0183625
-9.792e-05,0.0185875
-9.776e-05,0.0184062
-9.760e-05,0.0183062
-9.744e-05,0.0183312
-9.728e-05,0.0181875
-9.712e-05,0.0183719
-9.696e-05,0.0185
-9.680e-05,0.0182406
-9.664e-05,0.0184687
-9.648e-05,0.0183094
-9.632e-05,0.0184094
-9.616e-05,0.0181969
-9.600e-05,0.0182562
-9.584e-05,0.0184969
-9.568e-05,0.0183562
-9.552e-05,0.0184469
-9.536e-05,0.0183156
-9.520e-05,0.0183469
-9.504e-05,0.018425
-9.488e-05,0.0183344
-9.472e-05,0.0183812
-9.456e-05,0.0183531
-9.440e-05,0.0183031
-9.424e-05,0.0183094
-9.408e-05,0.0181906
-9.392e-05,0.018275
-9.376e-05,0.0182562
-9.360e-05,0.0182375
-9.344e-05,0.0183187
-9.328e-05,0.0182562
-9.312e-05,0.0182812
-9.296e-05,0.0182625
-9.280e-05,0.0180969
-9.264e-05,0.0180969
-9.248e-05,0.0182031
-9.232e-05,0.0182219
-9.216e-05,0.0181469
-9.200e-05,0.0181781
-9.184e-05,0.0181281
-9.168e-05,0.01815
-9.152e-05,0.0180594
-9.136e-05,0.0180156
-9.120e-05,0.0181719
-9.104e-05,0.0183687
-9.088e-05,0.0181781
-9.072e-05,0.01805
-9.056e-05,0.0181031
-9.040e-05,0.0181469
-9.024e-05,0.0179906
-9.008e-05,0.018025
-8.992e-05,0.0181031
-8.976e-05,0.0179031
-8.960e-05,0.0180156
-8.944e-05,0.018075
-8.928e-05,0.0180375
-8.912e-05,0.0179719
-8.896e-05,0.0179844
-8.880e-05,0.0179031
-8.864e-05,0.0178812
-8.848e-05,0.0181031
-8.832e-05,0.0180437
-8.816e-05,0.0181375
-8.800e-05,0.0179281
-8.784e-05,0.017875
-8.768e-05,0.0179969
-8.752e-05,0.0180875
-8.736e-05,0.0179687
-8.720e-05,0.0179281
-8.704e-05,0.0179469
-8.688e-05,0.0179281
-8.672e-05,0.017775
-8.656e-05,0.0181281
-8.640e-05,0.0180281
-8.624e-05,0.01795
-8.608e-05,0.018075
-8.592e-05,0.0179469
-8.576e-05,0.0181875
-8.560e-05,0.0181187
-8.544e-05,0.0179625
-8.528e-05,0.0178875
-8.512e-05,0.0178844
-8.496e-05,0.0180187
-8.480e-05,0.017975
-8.464e-05,0.0181156
-8.448e-05,0.0179594
-8.432e-05,0.0179812
-8.416e-05,0.0179937
-8.400e-05,0.0178781
-8.384e-05,0.0180687
-8.368e-05,0.017975
-8.352e-05,0.018025
-8.336e-05,0.0180406
-8.320e-05,0.0179281
-8.304e-05,0.0179437
-8.288e-05,0.0177875
-8.272e-05,0.0178812
-8.256e-05,0.0179656
-8.240e-05,0.0179625
-8.224e-05,0.0181187
-8.208e-05,0.0179719
-8.192e-05,0.0180219
-8.176e-05,0.0180406
-8.160e-05,0.0180156
-8.144e-05,0.017975
-8.128e-05,0.0178875
-8.112e-05,0.0179875
-8.096e-05,0.0178844
-8.080e-05,0.0178625
-8.064e-05,0.0178
-8.048e-05,0.0179969
-8.032e-05,0.0178437
-8.016e-05,0.0178406
-8.000e-05,0.0178594
-7.984e-05,0.0176625
-7.968e-05,0.0176625
-7.952e-05,0.0177531
-7.936e-05,0.0178094
-7.920e-05,0.0176125
-7.904e-05,0.0178094
-7.888e-05,0.017825
-7.872e-05,0.0177812
-7.856e-05,0.0177531
-7.840e-05,0.0176906
-7.824e-05,0.0176094
-7.808e-05,0.017775
-7.792e-05,0.0178062
-7.776e-05,0.0176781
-7.760e-05,0.0175469
-7.744e-05,0.0176781
-7.728e-05,0.0178062
-7.712e-05,0.0177656
-7.696e-05,0.0177406
-7.680e-05,0.0177031
-7.664e-05,0.0177125
-7.648e-05,0.0177469
-7.632e-05,0.0177531
-7.616e-05,0.0175781
-7.600e-05,0.0175875
-7.584e-05,0.0175781
-7.568e-05,0.0176125
-7.552e-05,0.0177906
-7.536e-05,0.0177594
-7.520e-05,0.0176125
-7.504e-05,0.0177656
-7.488e-05,0.0177969
-7.472e-05,0.0176812
-7.456e-05,0.0176812
-7.440e-05,0.0175594
-7.424e-05,0.0176437
-7.408e-05,0.0176906
-7.392e-05,0.0176281
-7.376e-05,0.0175719
-7.360e-05,0.0176187
-7.344e-05,0.0175344
-7.328e-05,0.0177
-7.312e-05,0.0177906
-7.296e-05,0.0177531
-7.280e-05,0.0176687
-7.264e-05,0.0175
-7.248e-05,0.0176562
-7.232e-05,0.0175
-7.216e-05,0.0175031
-7.200e-05,0.0176062
-7.184e-05,0.017725
-7.168e-05,0.0176844
-7.152e-05,0.0176844
-7.136e-05,0.0175656
-7.120e-05,0.0176687
-7.104e-05,0.0177094
-7.088e-05,0.0174406
-7.072e-05,0.0175
-7.056e-05,0.01755
-7.040e-05,0.0175687
-7.024e-05,0.0175406
-7.008e-05,0.0176156
-6.992e-05,0.01765
-6.976e-05,0.0176844
-6.960e-05,0.0176531
-6.944e-05,0.0176406
-6.928e-05,0.0176406
-6.912e-05,0.0175031
-6.896e-05,0.0174344
-6.880e-05,0.0174156
-6.864e-05,0.0174156
-6.848e-05,0.0175687
-6.832e-05,0.0174187
-6.816e-05,0.0175094
-6.800e-05,0.0175969
-6.784e-05,0.0175312
-6.768e-05,0.0174062
-6.752e-05,0.0175562
-6.736e-05,0.0176031
-6.720e-05,0.0174594
-6.704e-05,0.0175906
-6.688e-05,0.0175562
-6.672e-05,0.0176156
-6.656e-05,0.0174656
-6.640e-05,0.0175062
-6.624e-05,0.0176187
-6.608e-05,0.0174094
-6.592e-05,0.0174844
-6.576e-05,0.0175344
-6.560e-05,0.0172812
-6.544e-05,0.0173437
-6.528e-05,0.0174562
-6.512e-05,0.0173844
-6.496e-05,0.0174906
-6.480e-05,0.0175031
-6.464e-05,0.0173375
-6.448e-05,0.0174219
-6.432e-05,0.0173594
-6.416e-05,0.0174469
-6.400e-05,0.0175
-6.384e-05,0.0175031
-6.368e-05,0.0175594
-6.352e-05,0.0175344
-6.336e-05,0.0175031
-6.320e-05,0.017575
-6.304e-05,0.0175031
-6.288e-05,0.0174531
-6.272e-05,0.0176062
-6.256e-05,0.0175219
-6.240e-05,0.0176156
-6.224e-05,0.0176156
-6.208e-05,0.0176562
-6.192e-05,0.0176344
-6.176e-05,0.0176406
-6.160e-05,0.0175406
-6.144e-05,0.0177187
-6.128e-05,0.0175562
-6.112e-05,0.0175719
-6.096e-05,0.0176312
-6.080e-05,0.0174625
-6.064e-05,0.0174219
-6.048e-05,0.0175594
-6.032e-05,0.0176375
-6.016e-05,0.0177969
-6.000e-05,0.0177281
-5.984e-05,0.0176687
-5.968e-05,0.0174437
-5.952e-05,0.0175687
-5.936e-05,0.0176375
-5.920e-05,0.0176187
-5.904e-05,0.0176219
-5.888e-05,0.0176594
-5.872e-05,0.01765
-5.856e-05,0.0176875
-5.840e-05,0.0177562
-5.824e-05,0.0176844
-5.808e-05,0.0176
-5.792e-05,0.0177469
-5.776e-05,0.0177625
-5.760e-05,0.0175594
-5.744e-05,0.0176594
-5.728e-05,0.0176344
-5.712e-05,0.0176906
-5.696e-05,0.0177094
-5.680e-05,0.0177406
-5.664e-05,0.0178812
-5.648e-05,0.0177937
-5.632e-05,0.0177531
-5.616e-05,0.0178906
-5.600e-05,0.0177062
-5.584e-05,0.0177656
-5.568e-05,0.0176656
-5.552e-05,0.0176531
-5.536e-05,0.0177437
-5.520e-05,0.0177687
-5.504e-05,0.0178469
-5.488e-05,0.0177781
-5.472e-05,0.0177719
-5.456e-05,0.0180062
-5.440e-05,0.0179375
-5.424e-05,0.0176969
-5.408e-05,0.0178125
-5.392e-05,0.0177656
-5.376e-05,0.0176969
-5.360e-05,0.0178062
-5.344e-05,0.0177969
-5.328e-05,0.0180125
-5.312e-05,0.017825
-5.296e-05,0.0175937
-5.280e-05,0.0177687
-5.264e-05,0.017625
-5.248e-05,0.0176594
-5.232e-05,0.0175906
-5.216e-05,0.0176687
-5.200e-05,0.0175937
-5.184e-05,0.0175406
-5.168e-05,0.0175094
-5.152e-05,0.0174656
-5.136e-05,0.0175594
-5.120e-05,0.0174531
-5.104e-05,0.0175406
-5.088e-05,0.0175
-5.072e-05,0.0173469
-5.056e-05,0.0175031
-5.040e-05,0.0173781
-5.024e-05,0.0173594
-5.008e-05,0.0174656
-4.992e-05,0.0173781
-4.976e-05,0.0173281
-4.960e-05,0.0173969
-4.944e-05,0.0173219
-4.928e-05,0.0171312
-4.912e-05,0.017325
-4.896e-05,0.0171531
-4.880e-05,0.0171406
-4.864e-05,0.0171344
-4.848e-05,0.0170187
-4.832e-05,0.0169969
-4.816e-05,0.0169719
-4.800e-05,0.0166594
-4.784e-05,0.0168594
-4.768e-05,0.0168844
-4.752e-05,0.0166719
-4.736e-05,0.0166656
-4.720e-05,0.016525
-4.704e-05,0.0165406
-4.688e-05,0.0164937
-4.672e-05,0.0164594
-4.656e-05,0.0164594
-4.640e-05,0.0163187
-4.624e-05,0.0164312
-4.608e-05,0.0162875
-4.592e-05,0.0162687
-4.576e-05,0.0161594
-4.560e-05,0.0161094
-4.544e-05,0.0159094
-4.528e-05,0.016
-4.512e-05,0.0158906
-4.496e-05,0.0158219
-4.480e-05,0.0156875
-4.464e-05,0.0155562
-4.448e-05,0.0155094
-4.432e-05,0.0154094
-4.416e-05,0.0156375
-4.400e-05,0.0155156
-4.384e-05,0.0154
-4.368e-05,0.0153656
-4.352e-05,0.015225
-4.336e-05,0.0152156
-4.320e-05,0.0151781
-4.304e-05,0.0150094
-4.288e-05,0.01505
-4.272e-05,0.0149
-4.256e-05,0.0149812
-4.240e-05,0.0148219
-4.224e-05,0.0146875
-4.208e-05,0.0145656
-4.192e-05,0.0146594
-4.176e-05,0.0144687
-4.160e-05,0.0145406
-4.144e-05,0.0143969
-4.128e-05,0.0142594
-4.112e-05,0.0142625
-4.096e-05,0.014075
-4.080e-05,0.0142625
-4.064e-05,0.0141187
-4.048e-05,0.0141344
-4.032e-05,0.0140469
-4.016e-05,0.0139219
-4.000e-05,0.013925
-3.984e-05,0.0138656
-3.968e-05,0.0138094
-3.952e-05,0.0137156
-3.936e-05,0.0137531
-3.920e-05,0.0136406
-3.904e-05,0.0136844
-3.888e-05,0.0136156
-3.872e-05,0.0135937
-3.856e-05,0.0134187
-3.840e-05,0.0135094
-3.824e-05,0.0135219
-3.808e-05,0.0133906
-3.792e-05,0.0132812
-3.776e-05,0.013225
-3.760e-05,0.0130375
-3.744e-05,0.013325
-3.728e-05,0.0131062
-3.712e-05,0.013175
-3.696e-05,0.01315
-3.680e-05,0.01295
-3.664e-05,0.0131344
-3.648e-05,0.0130937
-3.632e-05,0.0130656
-3.616e-05,0.0129437
-3.600e-05,0.012725
-3.584e-05,0.0128969
-3.568e-05,0.0129375
-3.552e-05,0.0128469
-3.536e-05,0.0127875
-3.520e-05,0.0128656
-3.504e-05,0.0128625
-3.488e-05,0.0127531
-3.472e-05,0.0126687
-3.456e-05,0.012675
-3.440e-05,0.0125719
-3.424e-05,0.012475
-3.408e-05,0.0125094
-3.392e-05,0.0124906
-3.376e-05,0.0125125
-3.360e-05,0.0124531
-3.344e-05,0.0122969
-3.328e-05,0.0124781
-3.312e-05,0.0123437
-3.296e-05,0.0125187
-3.280e-05,0.0125375
-3.264e-05,0.0122656
-3.248e-05,0.0125375
-3.232e-05,0.0124125
-3.216e-05,0.0123344
-3.200e-05,0.0123469
-3.184e-05,0.0121344
-3.168e-05,0.0123375
-3.152e-05,0.0122656
-3.136e-05,0.0122156
-3.120e-05,0.0123187
-3.104e-05,0.0122687
-3.088e-05,0.01235
-3.072e-05,0.0123656
-3.056e-05,0.0121781
-3.040e-05,0.0125531
-3.024e-05,0.0122156
-3.008e-05,0.0123969
-2.992e-05,0.01225
-2.976e-05,0.012175
-2.960e-05,0.0123094
-2.944e-05,0.0122094
-2.928e-05,0.0120406
-2.912e-05,0.0122187
-2.896e-05,0.0122125
-2.880e-05,0.0123844
-2.864e-05,0.0124219
-2.848e-05,0.0122656
-2.832e-05,0.0122219
-2.816e-05,0.01225
-2.800e-05,0.0122125
-2.784e-05,0.012175
-2.768e-05,0.0121562
-2.752e-05,0.0123219
-2.736e-05,0.0122375
-2.720e-05,0.0122937
-2.704e-05,0.0122469
-2.688e-05,0.0122781
-2.672e-05,0.012425
-2.656e-05,0.0122094
-2.640e-05,0.0123125
-2.624e-05,0.0123094
-2.608e-05,0.012275
-2.592e-05,0.0120906
-2.576e-05,0.012425
-2.560e-05,0.0122031
-2.544e-05,0.0122094
-2.528e-05,0.0122312
-2.512e-05,0.0122625
-2.496e-05,0.0123094
-2.480e-05,0.0122031
-2.464e-05,0.0122406
-2.448e-05,0.0121094
-2.432e-05,0.0122469
-2.416e-05,0.0123625
-2.400e-05,0.0123531
-2.384e-05,0.0123875
-2.368e-05,0.0124844
-2.352e-05,0.0123187
-2.336e-05,0.0122906
-2.320e-05,0.0123437
-2.304e-05,0.0123
-2.288e-05,0.0123469
-2.272e-05,0.0122844
-2.256e-05,0.0120437
-2.240e-05,0.0122937
-2.224e-05,0.0121406
-2.208e-05,0.0123531
-2.192e-05,0.0122312
-2.176e-05,0.012375
-2.160e-05,0.0123781
-2.144e-05,0.0122437
-2.128e-05,0.0124406
-2.112e-05,0.0124219
-2.096e-05,0.0123969
-2.080e-05,0.0124312
-2.064e-05,0.0123281
-2.048e-05,0.0124812
-2.032e-05,0.0125531
-2.016e-05,0.0124156
-2.000e-05,0.0123594
-1.984e-05,0.0124062
-1.968e-05,0.012425
-1.952e-05,0.0124906
-1.936e-05,0.0124781
-1.920e-05,0.012475
-1.904e-05,0.0124406
-1.888e-05,0.0124094
-1.872e-05,0.0124687
-1.856e-05,0.0122656
-1.840e-05,0.0124906
-1.824e-05,0.0123875
-1.808e-05,0.0125125
-1.792e-05,0.0125906
-1.776e-05,0.0123312
-1.760e-05,0.0122781
-1.744e-05,0.0123312
-1.728e-05,0.0123094
-1.712e-05,0.0124562
-1.696e-05,0.0124437
-1.680e-05,0.0124094
-1.664e-05,0.0124156
-1.648e-05,0.0124344
-1.632e-05,0.0124094
-1.616e-05,0.0123875
