spettroscopia/haynes-shockley/code/data/vconst/run7.CSV

Model,TBS1102C
Firmware Version,v2015-08-04-prequal4ch70_v1.3

Point Format,Y
Horizontal Units,S
Horizontal Scale,4e-06
Sample Interval,3.2e-08
Filter Frequency,2e+08
Record Length,2000
Gating,0.0% to 100.0%
Probe Attenuation,1
Vertical Units,V
Vertical Offset,0
Vertical Scale,0.00412
Label,
TIME,CH1
-2.358e-05,-0.00176259
-2.355e-05,-0.00174907
-2.352e-05,-0.00174971
-2.349e-05,-0.00183018
-2.346e-05,-0.00181538
-2.342e-05,-0.0016583
-2.339e-05,-0.00185529
-2.336e-05,-0.00178705
-2.333e-05,-0.00181666
-2.330e-05,-0.00187524
-2.326e-05,-0.00170208
-2.323e-05,-0.00180636
-2.320e-05,-0.00185529
-2.317e-05,-0.00168469
-2.314e-05,-0.00179928
-2.310e-05,-0.00187524
-2.307e-05,-0.00175551
-2.304e-05,-0.00179413
-2.301e-05,-0.00182954
-2.298e-05,-0.00171817
-2.294e-05,-0.00176452
-2.291e-05,-0.00183211
-2.288e-05,-0.00162096
-2.285e-05,-0.00171173
-2.282e-05,-0.00174778
-2.278e-05,-0.00166216
-2.275e-05,-0.00169499
-2.272e-05,-0.00169564
-2.269e-05,-0.00165315
-2.266e-05,-0.00164607
-2.262e-05,-0.00157333
-2.259e-05,-0.00161453
-2.256e-05,-0.00165444
-2.253e-05,-0.00150831
-2.250e-05,-0.0015656
-2.246e-05,-0.0016171
-2.243e-05,-0.00152054
-2.240e-05,-0.00149865
-2.237e-05,-0.00150959
-2.234e-05,-0.00137763
-2.230e-05,-0.00145552
-2.227e-05,-0.00160101
-2.224e-05,-0.00147612
-2.221e-05,-0.00156624
-2.218e-05,-0.00153406
-2.214e-05,-0.00141432
-2.211e-05,-0.00151603
-2.208e-05,-0.00156367
-2.205e-05,-0.00141883
-2.202e-05,-0.00155594
-2.198e-05,-0.00145745
-2.195e-05,-0.00148449
-2.192e-05,-0.00161259
-2.189e-05,-0.00146196
-2.186e-05,-0.00155401
-2.182e-05,-0.00152891
-2.179e-05,-0.00143878
-2.176e-05,-0.00156238
-2.173e-05,-0.00153728
-2.170e-05,-0.00152118
-2.166e-05,-0.00156238
-2.163e-05,-0.00150509
-2.160e-05,-0.00154822
-2.157e-05,-0.00161259
-2.154e-05,-0.00147869
-2.150e-05,-0.0015244
-2.147e-05,-0.00156303
-2.144e-05,-0.00159328
-2.141e-05,-0.00151281
-2.138e-05,-0.00155401
-2.134e-05,-0.00159006
-2.131e-05,-0.00151732
-2.128e-05,-0.00162998
-2.125e-05,-0.001648
-2.122e-05,-0.00166924
-2.118e-05,-0.00158684
-2.115e-05,-0.0016583
-2.112e-05,-0.00163319
-2.109e-05,-0.00160101
-2.106e-05,-0.00161581
-2.102e-05,-0.0015965
-2.099e-05,-0.00171302
-2.096e-05,-0.00160423
-2.093e-05,-0.00169049
-2.090e-05,-0.00164543
-2.086e-05,-0.00161581
-2.083e-05,-0.0016274
-2.080e-05,-0.00175229
-2.077e-05,-0.00168019
-2.074e-05,-0.00162418
-2.070e-05,-0.00157783
-2.067e-05,-0.00170851
-2.064e-05,-0.0016686
-2.061e-05,-0.0015965
-2.058e-05,-0.00169564
-2.054e-05,-0.00170143
-2.051e-05,-0.00162611
-2.048e-05,-0.00184177
-2.045e-05,-0.00164607
-2.042e-05,-0.00161066
-2.038e-05,-0.00172654
-2.035e-05,-0.00166474
-2.032e-05,-0.00170014
-2.029e-05,-0.00165251
-2.026e-05,-0.00164864
-2.022e-05,-0.00150766
-2.019e-05,-0.00170465
-2.016e-05,-0.00151603
-2.013e-05,-0.00153534
-2.010e-05,-0.00169693
-2.006e-05,-0.00150509
-2.003e-05,-0.00162225
-2.000e-05,-0.0015141
-1.997e-05,-0.00158041
-1.994e-05,-0.00151796
-1.990e-05,-0.00150316
-1.987e-05,-0.00149929
-1.984e-05,-0.00157719
-1.981e-05,-0.00148706
-1.978e-05,-0.00162869
-1.974e-05,-0.00151989
-1.971e-05,-0.00143943
-1.968e-05,-0.00157139
-1.965e-05,-0.001545
-1.962e-05,-0.001442
-1.958e-05,-0.00148513
-1.955e-05,-0.00158491
-1.952e-05,-0.00142977
-1.949e-05,-0.00144458
-1.946e-05,-0.00153856
-1.942e-05,-0.00148384
-1.939e-05,-0.00139308
-1.936e-05,-0.00158234
-1.933e-05,-0.00155981
-1.930e-05,-0.00139951
-1.926e-05,-0.00147998
-1.923e-05,-0.00149414
-1.920e-05,-0.00145874
-1.917e-05,-0.0014729
-1.914e-05,-0.001545
-1.910e-05,-0.00148964
-1.907e-05,-0.00141174
-1.904e-05,-0.0015965
-1.901e-05,-0.00142076
-1.898e-05,-0.00139694
-1.894e-05,-0.00162676
-1.891e-05,-0.0014523
-1.888e-05,-0.00153985
-1.885e-05,-0.00152054
-1.882e-05,-0.00148384
-1.878e-05,-0.00165894
-1.875e-05,-0.0015347
-1.872e-05,-0.00156238
-1.869e-05,-0.00171495
-1.866e-05,-0.00161259
-1.862e-05,-0.00163963
-1.859e-05,-0.00180443
-1.856e-05,-0.00179156
-1.853e-05,-0.00189713
-1.850e-05,-0.00187009
-1.846e-05,-0.00180121
-1.843e-05,-0.00190293
-1.840e-05,-0.00186173
-1.837e-05,-0.00200721
-1.834e-05,-0.0019467
-1.830e-05,-0.00187138
-1.827e-05,-0.00204391
-1.824e-05,-0.00198339
-1.821e-05,-0.00197052
-1.818e-05,-0.00202009
-1.814e-05,-0.00201043
-1.811e-05,-0.00199691
-1.808e-05,-0.00200593
-1.805e-05,-0.00198211
-1.802e-05,-0.0019879
-1.798e-05,-0.00193511
-1.795e-05,-0.00195314
-1.792e-05,-0.00197631
-1.789e-05,-0.00182825
-1.786e-05,-0.00197181
-1.782e-05,-0.00200078
-1.779e-05,-0.00191902
-1.776e-05,-0.00187589
-1.773e-05,-0.00185722
-1.770e-05,-0.00184821
-1.766e-05,-0.00184949
-1.763e-05,-0.00182503
-1.760e-05,-0.0018231
-1.757e-05,-0.0018643
-1.754e-05,-0.00174585
-1.750e-05,-0.00178705
-1.747e-05,-0.00165959
-1.744e-05,-0.00168469
-1.741e-05,-0.00171817
-1.738e-05,-0.00167954
-1.734e-05,-0.00179864
-1.731e-05,-0.00165894
-1.728e-05,-0.00170272
-1.725e-05,-0.00167246
-1.722e-05,-0.00162483
-1.718e-05,-0.00173877
-1.715e-05,-0.00164929
-1.712e-05,-0.00166152
-1.709e-05,-0.00174392
-1.706e-05,-0.00177546
-1.702e-05,-0.00165315
-1.699e-05,-0.00166474
-1.696e-05,-0.00178512
-1.693e-05,-0.00166667
-1.690e-05,-0.00167504
-1.686e-05,-0.00166989
-1.683e-05,-0.00169886
-1.680e-05,-0.00176581
-1.677e-05,-0.00164414
-1.674e-05,-0.00171366
-1.670e-05,-0.00165959
-1.667e-05,-0.00158427
-1.664e-05,-0.00160101
-1.661e-05,-0.00171817
-1.658e-05,-0.00174521
-1.654e-05,-0.00161903
-1.651e-05,-0.00172203
-1.648e-05,-0.00165379
-1.645e-05,-0.00165058
-1.642e-05,-0.00164736
-1.638e-05,-0.00174006
-1.635e-05,-0.00169371
-1.632e-05,-0.00168791
-1.629e-05,-0.00158684
-1.626e-05,-0.00168083
-1.622e-05,-0.00158749
-1.619e-05,-0.0017201
-1.616e-05,-0.00159586
-1.613e-05,-0.00164092
-1.610e-05,-0.00169371
-1.606e-05,-0.00152504
-1.603e-05,-0.00171109
-1.600e-05,-0.00157526
-1.597e-05,-0.00160036
-1.594e-05,-0.00167697
-1.590e-05,-0.00160551
-1.587e-05,-0.00161002
-1.584e-05,-0.00154049
-1.581e-05,-0.00154951
-1.578e-05,-0.00161195
-1.574e-05,-0.00162225
-1.571e-05,-0.00164285
-1.568e-05,-0.00160294
-1.565e-05,-0.00168534
-1.562e-05,-0.00162289
-1.558e-05,-0.00161968
-1.555e-05,-0.0017098
-1.552e-05,-0.00167568
-1.549e-05,-0.00160616
-1.546e-05,-0.0016068
-1.542e-05,-0.00165508
-1.539e-05,-0.00162804
-1.536e-05,-0.00163255
-1.533e-05,-0.00161839
-1.530e-05,-0.00160229
-1.526e-05,-0.00168212
-1.523e-05,-0.00171109
-1.520e-05,-0.00168276
-1.517e-05,-0.00163577
-1.514e-05,-0.00172332
-1.510e-05,-0.00166088
-1.507e-05,-0.00158234
-1.504e-05,-0.00160744
-1.501e-05,-0.00165766
-1.498e-05,-0.00168148
-1.494e-05,-0.00171173
-1.491e-05,-0.0015553
-1.488e-05,-0.00157333
-1.485e-05,-0.00159457
-1.482e-05,-0.00156431
-1.478e-05,-0.00151024
-1.475e-05,-0.0016171
-1.472e-05,-0.00153341
-1.469e-05,-0.00155015
-1.466e-05,-0.00165637
-1.462e-05,-0.00153663
-1.459e-05,-0.00151346
-1.456e-05,-0.00155401
-1.453e-05,-0.00144136
-1.450e-05,-0.00151024
-1.446e-05,-0.00156882
-1.443e-05,-0.00149157
-1.440e-05,-0.00155401
-1.437e-05,-0.00146646
-1.434e-05,-0.00144264
-1.430e-05,-0.00153277
-1.427e-05,-0.00150251
-1.424e-05,-0.00153406
-1.421e-05,-0.00152376
-1.418e-05,-0.00149286
-1.414e-05,-0.0014832
-1.411e-05,-0.0014523
-1.408e-05,-0.0015553
-1.405e-05,-0.00151925
-1.402e-05,-0.00143299
-1.398e-05,-0.00152311
-1.395e-05,-0.00155401
-1.392e-05,-0.00146003
-1.389e-05,-0.00160616
-1.386e-05,-0.001442
-1.382e-05,-0.00152247
-1.379e-05,-0.00149028
-1.376e-05,-0.00144007
-1.373e-05,-0.00154049
-1.370e-05,-0.00151217
-1.366e-05,-0.00151024
-1.363e-05,-0.00156882
-1.360e-05,-0.00153213
-1.357e-05,-0.00149157
-1.354e-05,-0.00155015
-1.350e-05,-0.00147998
-1.347e-05,-0.00152698
-1.344e-05,-0.00156946
-1.341e-05,-0.00154307
-1.338e-05,-0.00155401
-1.334e-05,-0.00149479
-1.331e-05,-0.00156367
-1.328e-05,-0.00151925
-1.325e-05,-0.0015862
-1.322e-05,-0.00151217
-1.318e-05,-0.00149929
-1.315e-05,-0.00164156
-1.312e-05,-0.00160423
-1.309e-05,-0.00165058
-1.306e-05,-0.00169499
-1.302e-05,-0.00161131
-1.299e-05,-0.00160744
-1.296e-05,-0.00164221
-1.293e-05,-0.00165251
-1.290e-05,-0.00157011
-1.286e-05,-0.00180121
-1.283e-05,-0.00166796
-1.280e-05,-0.00165508
-1.277e-05,-0.00175293
-1.274e-05,-0.00169821
-1.270e-05,-0.00173813
-1.267e-05,-0.00176838
-1.264e-05,-0.0018128
-1.261e-05,-0.00182568
-1.258e-05,-0.00183984
-1.254e-05,-0.00186881
-1.251e-05,-0.0017922
-1.248e-05,-0.00184628
-1.245e-05,-0.00186752
-1.242e-05,-0.00190035
-1.238e-05,-0.00189842
-1.235e-05,-0.00187718
-1.232e-05,-0.00194155
-1.229e-05,-0.00195249
-1.226e-05,-0.00187911
-1.222e-05,-0.00199176
-1.219e-05,-0.0018849
-1.216e-05,-0.00195571
-1.213e-05,-0.00206708
-1.210e-05,-0.00198404
-1.206e-05,-0.00195571
-1.203e-05,-0.00202202
-1.200e-05,-0.00189906
-1.197e-05,-0.00190743
-1.194e-05,-0.00191709
-1.190e-05,-0.00188812
-1.187e-05,-0.00197374
-1.184e-05,-0.00190486
-1.181e-05,-0.0018437
-1.178e-05,-0.00181859
-1.174e-05,-0.00186173
-1.171e-05,-0.00180314
-1.168e-05,-0.00177739
-1.165e-05,-0.00198726
-1.162e-05,-0.00183404
-1.158e-05,-0.00176645
-1.155e-05,-0.00188297
-1.152e-05,-0.00182954
-1.149e-05,-0.00178126
-1.146e-05,-0.00177997
-1.142e-05,-0.00181924
-1.139e-05,-0.00180057
-1.136e-05,-0.00179864
-1.133e-05,-0.00183726
-1.130e-05,-0.00191773
-1.126e-05,-0.00182503
-1.123e-05,-0.00188426
-1.120e-05,-0.00184885
-1.117e-05,-0.0018231
-1.114e-05,-0.00195378
-1.110e-05,-0.00183018
-1.107e-05,-0.00191129
-1.104e-05,-0.00195443
-1.101e-05,-0.00181344
-1.098e-05,-0.00186881
-1.094e-05,-0.00184306
-1.091e-05,-0.00183276
-1.088e-05,-0.00180508
-1.085e-05,-0.00180572
-1.082e-05,-0.00180829
-1.078e-05,-0.00190614
-1.075e-05,-0.00176774
-1.072e-05,-0.0018231
-1.069e-05,-0.00176838
-1.066e-05,-0.00181666
-1.062e-05,-0.00172718
-1.059e-05,-0.00176645
-1.056e-05,-0.00168469
-1.053e-05,-0.00171946
-1.050e-05,-0.00182954
-1.046e-05,-0.00175873
-1.043e-05,-0.00177997
-1.040e-05,-0.00169371
-1.037e-05,-0.00163062
-1.034e-05,-0.00166667
-1.030e-05,-0.00179284
-1.027e-05,-0.00164285
-1.024e-05,-0.0016583
-1.021e-05,-0.00174714
-1.018e-05,-0.00160487
-1.014e-05,-0.0016377
-1.011e-05,-0.00155594
-1.008e-05,-0.00158684
-1.005e-05,-0.00174971
-1.002e-05,-0.00160165
-9.984e-06,-0.00165959
-9.952e-06,-0.0015656
-9.920e-06,-0.00145745
-9.888e-06,-0.00161581
-9.856e-06,-0.00162933
-9.824e-06,-0.00152118
-9.792e-06,-0.00149028
-9.760e-06,-0.00148964
-9.728e-06,-0.00148706
-9.696e-06,-0.00155337
-9.664e-06,-0.00147805
-9.632e-06,-0.00137956
-9.600e-06,-0.00146968
-9.568e-06,-0.00142848
-9.536e-06,-0.00142977
-9.504e-06,-0.00153921
-9.472e-06,-0.00144908
-9.440e-06,-0.00149093
-9.408e-06,-0.00144458
-9.376e-06,-0.00138793
-9.344e-06,-0.00140531
-9.312e-06,-0.00145488
-9.280e-06,-0.00152891
-9.248e-06,-0.00147934
-9.216e-06,-0.00150766
-9.184e-06,-0.0014832
-9.152e-06,-0.0013802
-9.120e-06,-0.0014523
-9.088e-06,-0.0014729
-9.056e-06,-0.00145488
-9.024e-06,-0.00157654
-8.992e-06,-0.00158298
-8.960e-06,-0.00156882
-8.928e-06,-0.00155788
-8.896e-06,-0.0015965
-8.864e-06,-0.00159972
-8.832e-06,-0.00170272
-8.800e-06,-0.00170143
-8.768e-06,-0.00170336
-8.736e-06,-0.00178512
-8.704e-06,-0.00168791
-8.672e-06,-0.00187396
-8.640e-06,-0.0017407
-8.608e-06,-0.00180572
-8.576e-06,-0.00187911
-8.544e-06,-0.00194219
-8.512e-06,-0.00182181
-8.480e-06,-0.00187138
-8.448e-06,-0.00195249
-8.416e-06,-0.0019467
-8.384e-06,-0.00203811
-8.352e-06,-0.00189069
-8.320e-06,-0.00193704
-8.288e-06,-0.00199176
-8.256e-06,-0.00191451
-8.224e-06,-0.0019673
-8.192e-06,-0.00214047
-8.160e-06,-0.00197889
-8.128e-06,-0.00200013
-8.096e-06,-0.00204455
-8.064e-06,-0.00189198
-8.032e-06,-0.00199369
-8.000e-06,-0.00193898
-7.968e-06,-0.00208446
-7.936e-06,-0.00207159
-7.904e-06,-0.00194026
-7.872e-06,-0.00193061
-7.840e-06,-0.00197696
-7.808e-06,-0.00192288
-7.776e-06,-0.00202202
-7.744e-06,-0.00195571
-7.712e-06,-0.00185658
-7.680e-06,-0.00194026
-7.648e-06,-0.00198018
-7.616e-06,-0.00192417
-7.584e-06,-0.00189842
-7.552e-06,-0.00192288
-7.520e-06,-0.00185979
-7.488e-06,-0.00184628
-7.456e-06,-0.00193383
-7.424e-06,-0.00183018
-7.392e-06,-0.0018231
-7.360e-06,-0.00190872
-7.328e-06,-0.00172976
-7.296e-06,-0.00177739
-7.264e-06,-0.00178641
-7.232e-06,-0.0016789
-7.200e-06,-0.00173941
-7.168e-06,-0.00165637
-7.136e-06,-0.00171688
-7.104e-06,-0.00176066
-7.072e-06,-0.0016274
-7.040e-06,-0.00165251
-7.008e-06,-0.00161388
-6.976e-06,-0.00171238
-6.944e-06,-0.0015759
-6.912e-06,-0.00166023
-6.880e-06,-0.00176001
-6.848e-06,-0.00154049
-6.816e-06,-0.00164993
-6.784e-06,-0.00159328
-6.752e-06,-0.00156238
-6.720e-06,-0.00158749
-6.688e-06,-0.00160358
-6.656e-06,-0.00161839
-6.624e-06,-0.00169886
-6.592e-06,-0.00163448
-6.560e-06,-0.00166216
-6.528e-06,-0.00159393
-6.496e-06,-0.00170079
-6.464e-06,-0.00174649
-6.432e-06,-0.00169435
-6.400e-06,-0.00174134
-6.368e-06,-0.00170272
-6.336e-06,-0.00174199
-6.304e-06,-0.00181023
-6.272e-06,-0.00177418
-6.240e-06,-0.00173491
-6.208e-06,-0.00182439
-6.176e-06,-0.00187718
-6.144e-06,-0.00186752
-6.112e-06,-0.00190164
-6.080e-06,-0.00182181
-6.048e-06,-0.00187524
-6.016e-06,-0.00195829
-5.984e-06,-0.00186816
-5.952e-06,-0.00193511
-5.920e-06,-0.00195185
-5.888e-06,-0.00199434
-5.856e-06,-0.00192353
-5.824e-06,-0.00190035
-5.792e-06,-0.00192159
-5.760e-06,-0.00193447
-5.728e-06,-0.00187975
-5.696e-06,-0.00193511
-5.664e-06,-0.00183791
-5.632e-06,-0.00194928
-5.600e-06,-0.00185915
-5.568e-06,-0.00193576
-5.536e-06,-0.00192739
-5.504e-06,-0.00189134
-5.472e-06,-0.001957
-5.440e-06,-0.00189842
-5.408e-06,-0.0018746
-5.376e-06,-0.00180443
-5.344e-06,-0.00186752
-5.312e-06,-0.00191387
-5.280e-06,-0.00191258
-5.248e-06,-0.00181731
-5.216e-06,-0.00180701
-5.184e-06,-0.00181087
-5.152e-06,-0.00177804
-5.120e-06,-0.00182503
-5.088e-06,-0.00187718
-5.056e-06,-0.00174714
-5.024e-06,-0.00189391
-4.992e-06,-0.00183919
-4.960e-06,-0.00177224
-4.928e-06,-0.00180829
-4.896e-06,-0.00173619
-4.864e-06,-0.00187524
-4.832e-06,-0.00183469
-4.800e-06,-0.00187524
-4.768e-06,-0.00194155
-4.736e-06,-0.00179091
-4.704e-06,-0.00177031
-4.672e-06,-0.00193576
-4.640e-06,-0.00187009
-4.608e-06,-0.00181988
-4.576e-06,-0.00188683
-4.544e-06,-0.00186945
-4.512e-06,-0.00194155
-4.480e-06,-0.00192739
-4.448e-06,-0.00184177
-4.416e-06,-0.00181023
-4.384e-06,-0.00187718
-4.352e-06,-0.00189198
-4.320e-06,-0.00184434
-4.288e-06,-0.00183984
-4.256e-06,-0.00177804
-4.224e-06,-0.00182568
-4.192e-06,-0.00190164
-4.160e-06,-0.00179671
-4.128e-06,-0.00177804
-4.096e-06,-0.00184113
-4.064e-06,-0.00179799
-4.032e-06,-0.00178898
-4.000e-06,-0.00190936
-3.968e-06,-0.00183598
-3.936e-06,-0.00174521
-3.904e-06,-0.00178834
-3.872e-06,-0.00179671
-3.840e-06,-0.00178898
-3.808e-06,-0.00185336
-3.776e-06,-0.00183662
-3.744e-06,-0.00176967
-3.712e-06,-0.00180701
-3.680e-06,-0.00180186
-3.648e-06,-0.00175808
-3.616e-06,-0.00177675
-3.584e-06,-0.00181859
-3.552e-06,-0.00173877
-3.520e-06,-0.00177031
-3.488e-06,-0.00192739
-3.456e-06,-0.00172332
-3.424e-06,-0.00178319
-3.392e-06,-0.00174714
-3.360e-06,-0.00177933
-3.328e-06,-0.00179671
-3.296e-06,-0.00175422
-3.264e-06,-0.00183469
-3.232e-06,-0.00177418
-3.200e-06,-0.00187331
-3.168e-06,-0.00177997
-3.136e-06,-0.00177031
-3.104e-06,-0.00189649
-3.072e-06,-0.00186237
-3.040e-06,-0.00186816
-3.008e-06,-0.00192417
-2.976e-06,-0.00184563
-2.944e-06,-0.00195507
-2.912e-06,-0.00207416
-2.880e-06,-0.00195056
-2.848e-06,-0.00209412
-2.816e-06,-0.00193769
-2.784e-06,-0.00202331
-2.752e-06,-0.00213339
-2.720e-06,-0.00216236
-2.688e-06,-0.00213274
-2.656e-06,-0.00210764
-2.624e-06,-0.00222287
-2.592e-06,-0.00223446
-2.560e-06,-0.00206644
-2.528e-06,-0.00231428
-2.496e-06,-0.00224411
-2.464e-06,-0.00215206
-2.432e-06,-0.00230527
-2.400e-06,-0.0022042
-2.368e-06,-0.00219583
-2.336e-06,-0.00223059
-2.304e-06,-0.00214047
-2.272e-06,-0.00216364
-2.240e-06,-0.0022145
-2.208e-06,-0.00209219
-2.176e-06,-0.00214111
-2.144e-06,-0.00214691
-2.112e-06,-0.00200271
-2.080e-06,-0.00200142
-2.048e-06,-0.00200593
-2.016e-06,-0.00199112
-1.984e-06,-0.00193576
-1.952e-06,-0.00195443
-1.920e-06,-0.00190293
-1.888e-06,-0.00193898
-1.856e-06,-0.00180894
-1.824e-06,-0.00177868
-1.792e-06,-0.00185593
-1.760e-06,-0.00184563
-1.728e-06,-0.00186044
-1.696e-06,-0.00192932
-1.664e-06,-0.00177868
-1.632e-06,-0.00185529
-1.600e-06,-0.00177739
-1.568e-06,-0.00176323
-1.536e-06,-0.00202459
-1.504e-06,-0.00187396
-1.472e-06,-0.00181151
-1.440e-06,-0.00200528
-1.408e-06,-0.0019879
-1.376e-06,-0.0018746
-1.344e-06,-0.00191709
-1.312e-06,-0.00192803
-1.280e-06,-0.00194413
-1.248e-06,-0.00191902
-1.216e-06,-0.00201236
-1.184e-06,-0.00193898
-1.152e-06,-0.00191516
-1.120e-06,-0.00199691
-1.088e-06,-0.00191194
-1.056e-06,-0.00185786
-1.024e-06,-0.00202073
-9.920e-07,-0.00193254
-9.600e-07,-0.00196151
-9.280e-07,-0.00200464
-8.960e-07,-0.00191001
-8.640e-07,-0.00197181
-8.320e-07,-0.00195958
-8.000e-07,-0.00190228
-7.680e-07,-0.00192868
-7.360e-07,-0.00192031
-7.040e-07,-0.00195829
-6.720e-07,-0.00192224
-6.400e-07,-0.00199884
-6.080e-07,-0.00184241
-5.760e-07,-0.00198919
-5.440e-07,-0.00201429
-5.120e-07,-0.00194413
-4.800e-07,-0.00193189
-4.480e-07,-0.00200721
-4.160e-07,-0.00203425
-3.840e-07,-0.00202073
-3.520e-07,-0.00205485
-3.200e-07,-0.00196537
-2.880e-07,-0.00202459
-2.560e-07,-0.0021424
-2.240e-07,-0.00204519
-1.920e-07,-0.00198919
-1.600e-07,-0.00208511
-1.280e-07,-0.00211086
-9.600e-08,-0.00220034
-6.400e-08,-0.00303914
-3.200e-08,-0.00479723
-1.161e-19,-0.00506116
3.200e-08,-0.00269989
6.400e-08,-0.00235934
9.600e-08,-0.0020085
1.280e-07,-0.00197438
1.600e-07,-0.00222995
1.920e-07,-0.00192996
2.240e-07,-0.00212695
2.560e-07,-0.00206515
2.880e-07,-0.00206773
3.200e-07,-0.00202588
3.520e-07,-0.00213081
3.840e-07,-0.00208446
4.160e-07,-0.00210571
4.480e-07,-0.00219454
4.800e-07,-0.00223253
5.120e-07,-0.0021527
5.440e-07,-0.00238831
5.760e-07,-0.00228853
6.080e-07,-0.00229304
6.400e-07,-0.00249582
6.720e-07,-0.00252028
7.040e-07,-0.0026059
7.360e-07,-0.00241149
7.680e-07,-0.00262972
8.000e-07,-0.00255698
8.320e-07,-0.00266834
8.640e-07,-0.00281319
8.960e-07,-0.00267543
9.280e-07,-0.00280997
9.600e-07,-0.00276362
9.920e-07,-0.00272178
1.024e-06,-0.00287306
1.056e-06,-0.00279259
1.088e-06,-0.0028428
1.120e-06,-0.00290911
1.152e-06,-0.00277521
1.184e-06,-0.00279967
1.216e-06,-0.00280997
1.248e-06,-0.00280096
1.280e-06,-0.00292649
1.312e-06,-0.00282027
1.344e-06,-0.00273336
1.376e-06,-0.00287048
1.408e-06,-0.00277134
1.440e-06,-0.00276813
1.472e-06,-0.00272886
1.504e-06,-0.0027707
1.536e-06,-0.00277521
1.568e-06,-0.00270118
1.600e-06,-0.00275074
1.632e-06,-0.00273658
1.664e-06,-0.00259174
1.696e-06,-0.00268251
1.728e-06,-0.00270182
1.760e-06,-0.0026471
1.792e-06,-0.00265225
1.824e-06,-0.00257629
1.856e-06,-0.00256341
1.888e-06,-0.00262071
1.920e-06,-0.00254217
1.952e-06,-0.0025544
1.984e-06,-0.00258723
2.016e-06,-0.00258723
2.048e-06,-0.00251964
2.080e-06,-0.00259818
2.112e-06,-0.00263938
2.144e-06,-0.00246556
2.176e-06,-0.00264388
2.208e-06,-0.00257436
2.240e-06,-0.00254989
2.272e-06,-0.00263358
2.304e-06,-0.00247779
2.336e-06,-0.00249518
2.368e-06,-0.00256341
2.400e-06,-0.00260526
2.432e-06,-0.00250805
2.464e-06,-0.00264002
2.496e-06,-0.00251256
2.528e-06,-0.002472
2.560e-06,-0.00251063
2.592e-06,-0.00259753
2.624e-06,-0.00255698
2.656e-06,-0.00246749
2.688e-06,-0.00249067
2.720e-06,-0.00263101
2.752e-06,-0.00249582
2.784e-06,-0.00250998
2.816e-06,-0.00255247
2.848e-06,-0.00250612
2.880e-06,-0.00253509
2.912e-06,-0.00256985
2.944e-06,-0.00250741
2.976e-06,-0.00259431
3.008e-06,-0.00249646
3.040e-06,-0.00259624
3.072e-06,-0.00249324
3.104e-06,-0.00254281
3.136e-06,-0.00257886
3.168e-06,-0.00254088
3.200e-06,-0.00266319
3.232e-06,-0.00252929
3.264e-06,-0.00260139
3.296e-06,-0.00255826
3.328e-06,-0.00253831
3.360e-06,-0.0025544
3.392e-06,-0.00256148
3.424e-06,-0.00248294
3.456e-06,-0.00254539
3.488e-06,-0.00256406
3.520e-06,-0.00255311
3.552e-06,-0.00246621
3.584e-06,-0.00262135
3.616e-06,-0.00244947
3.648e-06,-0.00257564
3.680e-06,-0.00255054
3.712e-06,-0.00242243
3.744e-06,-0.00250354
3.776e-06,-0.00247264
3.808e-06,-0.00238123
3.840e-06,-0.00249904
3.872e-06,-0.00242823
3.904e-06,-0.00248423
3.936e-06,-0.00249582
3.968e-06,-0.00239861
4.000e-06,-0.00236643
4.032e-06,-0.00247136
4.064e-06,-0.00250097
