elettronica/esperienza_07__shaper/oscilloscopio/2.1 - verifica della baseline/F0003CH1.CSV

Record Length,2.500000e+03,,  -0.000018000000,  -0.00400,
Sample Interval,1.000000e-07,,  -0.000017900000,  -0.00400,
Trigger Point,1.800000000000e+02,,  -0.000017800000,  -0.00400,
,,,  -0.000017700000,  -0.00400,
,,,  -0.000017600000,  -0.00400,
,,,  -0.000017500000,  -0.00400,
Source,CH1,,  -0.000017400000,  -0.00400,
Vertical Units,V,,  -0.000017300000,  -0.00400,
Vertical Scale,1.000000e-01,,  -0.000017200000,  -0.00400,
Vertical Offset,-9.600000e-02,,  -0.000017100000,  -0.00400,
Horizontal Units,s,,  -0.000017000000,  -0.00400,
Horizontal Scale,2.500000e-05,,  -0.000016900000,  -0.00400,
Pt Fmt,Y,,  -0.000016800000,  -0.00400,
Yzero,0.000000e+00,,  -0.000016700000,  -0.00400,
Probe Atten,1.000000e+01,,  -0.000016600000,  -0.00400,
Model Number,TBS1102B-EDU,,  -0.000016500000,  -0.00400,
Serial Number,C021597,,  -0.000016400000,  -0.00400,
Firmware Version,FV:v4.06,,  -0.000016300000,  -0.00400,
,,,-00.000016200000,  -0.00400,
,,,-00.000016100000,  -0.00400,
,,,-00.000016000000,  -0.00400,
,,,-00.000015900000,  -0.00400,
,,,-00.000015800000,  -0.00400,
,,,-00.000015700000,  -0.00400,
,,,-00.000015600000,  -0.00400,
,,,-00.000015500000,  -0.00400,
,,,-00.000015400000,  -0.00400,
,,,-00.000015300000,  -0.00400,
,,,-00.000015200000,  -0.00400,
,,,-00.000015100000,  -0.00400,
,,,-00.000015000000,  -0.00400,
,,,-00.000014900000,  -0.00400,
,,,-00.000014800000,  -0.00400,
,,,-00.000014700000,  -0.00400,
,,,-00.000014600000,  -0.00400,
,,,-00.000014500000,  -0.00400,
,,,-00.000014400000,  -0.00400,
,,,-00.000014300000,  -0.00400,
,,,-00.000014200000,  -0.00400,
,,,-00.000014100000,  -0.00400,
,,,-00.000014000000,  -0.00400,
,,,-00.000013900000,  -0.00400,
,,,-00.000013800000,  -0.00400,
,,,-00.000013700000,  -0.00400,
,,,-00.000013600000,  -0.00400,
,,,-00.000013500000,  -0.00400,
,,,-00.000013400000,  -0.00400,
,,,-00.000013300000,  -0.00400,
,,,-00.000013200000,  -0.00400,
,,,-00.000013100000,  -0.00400,
,,,-00.000013000000,  -0.00400,
,,,-00.000012900000,  -0.00400,
,,,-00.000012800000,  -0.00400,
,,,-00.000012700000,  -0.00400,
,,,-00.000012600000,  -0.00400,
,,,-00.000012500000,  -0.00400,
,,,-00.000012400000,  -0.00400,
,,,-00.000012300000,  -0.00400,
,,,-00.000012200000,  -0.00400,
,,,-00.000012100000,  -0.00400,
,,,-00.000012000000,  -0.00400,
,,,-00.000011900000,  -0.00400,
,,,-00.000011800000,  -0.00400,
,,,-00.000011700000,  -0.00400,
,,,-00.000011600000,  -0.00400,
,,,-00.000011500000,  -0.00400,
,,,-00.000011400000,  -0.00400,
,,,-00.000011300000,  -0.00400,
,,,-00.000011200000,  -0.00400,
,,,-00.000011100000,  -0.00400,
,,,-00.000011000000,  -0.00400,
,,,-00.000010900000,  -0.00400,
,,,-00.000010800000,  -0.00400,
,,,-00.000010700000,  -0.00400,
,,,-00.000010600000,  -0.00400,
,,,-00.000010500000,  -0.00400,
,,,-00.000010400000,  -0.00400,
,,,-00.000010300000,  -0.00400,
,,,-00.000010200000,  -0.00400,
,,,-00.000010100000,  -0.00400,
,,,-00.000010000000,  -0.00400,
,,,-00.000009900000,  -0.00400,
,,,-00.000009800000,  -0.00400,
,,,-00.000009700000,  -0.00400,
,,,-00.000009600000,  -0.00400,
,,,-00.000009500000,  -0.00400,
,,,-00.000009400000,  -0.00400,
,,,-00.000009300000,  -0.00400,
,,,-00.000009200000,  -0.00400,
,,,-00.000009100000,  -0.00400,
,,,-00.000009000000,  -0.00400,
,,,-00.000008900000,  -0.00400,
,,,-00.000008800000,  -0.00400,
,,,-00.000008700000,  -0.00400,
,,,-00.000008600000,  -0.00400,
,,,-00.000008500000,  -0.00400,
,,,-00.000008400000,  -0.00400,
,,,-00.000008300000,  -0.00400,
,,,-00.000008200000,  -0.00400,
,,,-00.000008100000,  -0.00400,
,,,-00.000008000000,  -0.00400,
,,,-00.000007900000,  -0.00400,
,,,-00.000007800000,  -0.00400,
,,,-00.000007700000,  -0.00400,
,,,-00.000007600000,  -0.00400,
,,,-00.000007500000,  -0.00400,
,,,-00.000007400000,  -0.00400,
,,,-00.000007300000,  -0.00400,
,,,-00.000007200000,  -0.00400,
,,,-00.000007100000,  -0.00400,
,,,-00.000007000000,  -0.00400,
,,,-00.000006900000,  -0.00400,
,,,-00.000006800000,  -0.00400,
,,,-00.000006700000,  -0.00400,
,,,-00.000006600000,  -0.00400,
,,,-00.000006500000,  -0.00400,
,,,-00.000006400000,  -0.00400,
,,,-00.000006300000,  -0.00400,
,,,-00.000006200000,  -0.00400,
,,,-00.000006100000,  -0.00400,
,,,-00.000006000000,  -0.00400,
,,,-00.000005900000,  -0.00400,
,,,-00.000005800000,  -0.00400,
,,,-00.000005700000,  -0.00400,
,,,-00.000005600000,  -0.00400,
,,,-00.000005500000,  -0.00400,
,,,-00.000005400000,  -0.00400,
,,,-00.000005300000,  -0.00400,
,,,-00.000005200000,  -0.00400,
,,,-00.000005100000,  -0.00400,
,,,-00.000005000000,  -0.00400,
,,,-00.000004900000,  -0.00400,
,,,-00.000004800000,  -0.00400,
,,,-00.000004700000,  -0.00400,
,,,-00.000004600000,  -0.00400,
,,,-00.000004500000,  -0.00400,
,,,-00.000004400000,  -0.00400,
,,,-00.000004300000,  -0.00400,
,,,-00.000004200000,  -0.00400,
,,,-00.000004100000,  -0.00400,
,,,-00.000004000000,  -0.00400,
,,,-00.000003900000,  -0.00400,
,,,-00.000003800000,  -0.00400,
,,,-00.000003700000,  -0.00400,
,,,-00.000003600000,  -0.00400,
,,,-00.000003500000,  -0.00400,
,,,-00.000003400000,  -0.00400,
,,,-00.000003300000,  -0.00400,
,,,-00.000003200000,  -0.00400,
,,,-00.000003100000,  -0.00400,
,,,-00.000003000000,  -0.00400,
,,,-00.000002900000,  -0.00400,
,,,-00.000002800000,  -0.00400,
,,,-00.000002700000,  -0.00400,
,,,-00.000002600000,  -0.00400,
,,,-00.000002500000,  -0.00400,
,,,-00.000002400000,  -0.00400,
,,,-00.000002300000,  -0.00400,
,,,-00.000002200000,  -0.00400,
,,,-00.000002100000,  -0.00400,
,,,-00.000002000000,  -0.00400,
,,,-00.000001900000,  -0.00400,
,,,-00.000001800000,  -0.00400,
,,,-00.000001700000,  -0.00400,
,,,-00.000001600000,  -0.00400,
,,,-00.000001500000,  -0.00400,
,,,-00.000001400000,  -0.00400,
,,,-00.000001300000,  -0.00400,
,,,-00.000001200000,  -0.00400,
,,,-00.000001100000,  -0.00400,
,,,-00.000001000000,  -0.00400,
,,,-00.000000900000,  -0.00400,
,,,-00.000000800000,  -0.00400,
,,,-00.000000700000,  -0.00400,
,,,-00.000000600000,  -0.00400,
,,,-00.000000500000,  -0.00400,
,,,-00.000000400000,  -0.00400,
,,,-00.000000300000,  -0.00400,
,,,-00.000000200000,  -0.00400,
,,,-00.000000100000,  -0.00400,
,,,-00.000000000000,  -0.00400,
,,,00.000000100000,  -0.00400,
,,,00.000000200000,  -0.00400,
,,,00.000000300000,  -0.00400,
,,,00.000000400000,   0.00000,
,,,00.000000500000,   0.00000,
,,,00.000000600000,  -0.00400,
,,,00.000000700000,   0.00000,
,,,00.000000800000,   0.01200,
,,,00.000000900000,   0.02000,
,,,00.000001000000,   0.02400,
,,,00.000001100000,   0.02800,
,,,00.000001200000,   0.03600,
,,,00.000001300000,   0.04000,
,,,00.000001400000,   0.04400,
,,,00.000001500000,   0.05200,
,,,00.000001600000,   0.05600,
,,,00.000001700000,   0.06000,
,,,00.000001800000,   0.06800,
,,,00.000001900000,   0.07200,
,,,00.000002000000,   0.07600,
,,,00.000002100000,   0.08000,
,,,00.000002200000,   0.08400,
,,,00.000002300000,   0.09200,
,,,00.000002400000,   0.09600,
,,,00.000002500000,   0.10000,
,,,00.000002600000,   0.10400,
,,,00.000002700000,   0.10800,
,,,00.000002800000,   0.11200,
,,,00.000002900000,   0.11600,
,,,00.000003000000,   0.12000,
,,,00.000003100000,   0.12400,
,,,00.000003200000,   0.12800,
,,,00.000003300000,   0.13200,
,,,00.000003400000,   0.13600,
,,,00.000003500000,   0.14000,
,,,00.000003600000,   0.14400,
,,,00.000003700000,   0.14800,
,,,00.000003800000,   0.15200,
,,,00.000003900000,   0.15600,
,,,00.000004000000,   0.16000,
,,,00.000004100000,   0.16400,
,,,00.000004200000,   0.16800,
,,,00.000004300000,   0.17200,
,,,00.000004400000,   0.17600,
,,,00.000004500000,   0.18000,
,,,00.000004600000,   0.18000,
,,,00.000004700000,   0.18400,
,,,00.000004800000,   0.18800,
,,,00.000004900000,   0.19200,
,,,00.000005000000,   0.19200,
,,,00.000005100000,   0.19600,
,,,00.000005200000,   0.20000,
,,,00.000005300000,   0.20400,
,,,00.000005400000,   0.20800,
,,,00.000005500000,   0.20800,
,,,00.000005600000,   0.21200,
,,,00.000005700000,   0.21600,
,,,00.000005800000,   0.21600,
,,,00.000005900000,   0.22000,
,,,00.000006000000,   0.22400,
,,,00.000006100000,   0.22400,
,,,00.000006200000,   0.22800,
,,,00.000006300000,   0.23200,
,,,00.000006400000,   0.23600,
,,,00.000006500000,   0.23600,
,,,00.000006600000,   0.24000,
,,,00.000006700000,   0.24000,
,,,00.000006800000,   0.24400,
,,,00.000006900000,   0.24400,
,,,00.000007000000,   0.24800,
,,,00.000007100000,   0.24800,
,,,00.000007200000,   0.25200,
,,,00.000007300000,   0.25600,
,,,00.000007400000,   0.25600,
,,,00.000007500000,   0.26000,
,,,00.000007600000,   0.26000,
,,,00.000007700000,   0.26400,
,,,00.000007800000,   0.26400,
,,,00.000007900000,   0.26800,
,,,00.000008000000,   0.26800,
,,,00.000008100000,   0.27200,
,,,00.000008200000,   0.27200,
,,,00.000008300000,   0.27600,
,,,00.000008400000,   0.27600,
,,,00.000008500000,   0.28000,
,,,00.000008600000,   0.28000,
,,,00.000008700000,   0.28000,
,,,00.000008800000,   0.28400,
,,,00.000008900000,   0.28400,
,,,00.000009000000,   0.28800,
,,,00.000009100000,   0.28800,
,,,00.000009200000,   0.28800,
,,,00.000009300000,   0.29200,
,,,00.000009400000,   0.29200,
,,,00.000009500000,   0.29200,
,,,00.000009600000,   0.29600,
,,,00.000009700000,   0.29600,
,,,00.000009800000,   0.29600,
,,,00.000009900000,   0.30000,
,,,00.000010000000,   0.30000,
,,,00.000010100000,   0.30000,
,,,00.000010200000,   0.30400,
,,,00.000010300000,   0.30400,
,,,00.000010400000,   0.30400,
,,,00.000010500000,   0.30800,
,,,00.000010600000,   0.30800,
,,,00.000010700000,   0.30800,
,,,00.000010800000,   0.30800,
,,,00.000010900000,   0.31200,
,,,00.000011000000,   0.31200,
,,,00.000011100000,   0.31200,
,,,00.000011200000,   0.31200,
,,,00.000011300000,   0.31600,
,,,00.000011400000,   0.31600,
,,,00.000011500000,   0.31600,
,,,00.000011600000,   0.31600,
,,,00.000011700000,   0.32000,
,,,00.000011800000,   0.32000,
,,,00.000011900000,   0.32000,
,,,00.000012000000,   0.32000,
,,,00.000012100000,   0.32400,
,,,00.000012200000,   0.32400,
,,,00.000012300000,   0.32400,
,,,00.000012400000,   0.32400,
,,,00.000012500000,   0.32400,
,,,00.000012600000,   0.32400,
,,,00.000012700000,   0.32800,
,,,00.000012800000,   0.32800,
,,,00.000012900000,   0.32800,
,,,00.000013000000,   0.32800,
,,,00.000013100000,   0.32800,
,,,00.000013200000,   0.32800,
,,,00.000013300000,   0.32800,
,,,00.000013400000,   0.33200,
,,,00.000013500000,   0.32800,
,,,00.000013600000,   0.33200,
,,,00.000013700000,   0.33200,
,,,00.000013800000,   0.33200,
,,,00.000013900000,   0.33200,
,,,00.000014000000,   0.33200,
,,,00.000014100000,   0.33200,
,,,00.000014200000,   0.33200,
,,,00.000014300000,   0.33600,
,,,00.000014400000,   0.33600,
,,,00.000014500000,   0.33600,
,,,00.000014600000,   0.33600,
,,,00.000014700000,   0.33600,
,,,00.000014800000,   0.33600,
,,,00.000014900000,   0.33600,
,,,00.000015000000,   0.33600,
,,,00.000015100000,   0.33600,
,,,00.000015200000,   0.33600,
,,,00.000015300000,   0.33600,
,,,00.000015400000,   0.33600,
,,,00.000015500000,   0.33600,
,,,00.000015600000,   0.33600,
,,,00.000015700000,   0.33600,
,,,00.000015800000,   0.33600,
,,,00.000015900000,   0.33600,
,,,00.000016000000,   0.34000,
,,,00.000016100000,   0.33600,
,,,00.000016200000,   0.34000,
,,,00.000016300000,   0.34000,
,,,00.000016400000,   0.34000,
,,,00.000016500000,   0.33600,
,,,00.000016600000,   0.34000,
,,,00.000016700000,   0.33600,
,,,00.000016800000,   0.33600,
,,,00.000016900000,   0.33600,
,,,00.000017000000,   0.33600,
,,,00.000017100000,   0.33600,
,,,00.000017200000,   0.33600,
,,,00.000017300000,   0.33600,
,,,00.000017400000,   0.33600,
,,,00.000017500000,   0.33600,
,,,00.000017600000,   0.33600,
,,,00.000017700000,   0.33600,
,,,00.000017800000,   0.33600,
,,,00.000017900000,   0.33600,
,,,00.000018000000,   0.33600,
,,,00.000018100000,   0.33600,
,,,00.000018200000,   0.33600,
,,,00.000018300000,   0.33600,
,,,00.000018400000,   0.33600,
,,,00.000018500000,   0.33600,
,,,00.000018600000,   0.33600,
,,,00.000018700000,   0.33600,
,,,00.000018800000,   0.33600,
,,,00.000018900000,   0.33600,
,,,00.000019000000,   0.33600,
,,,00.000019100000,   0.33200,
,,,00.000019200000,   0.33200,
,,,00.000019300000,   0.33200,
,,,00.000019400000,   0.33200,
,,,00.000019500000,   0.33200,
,,,00.000019600000,   0.33200,
,,,00.000019700000,   0.33200,
,,,00.000019800000,   0.33200,
,,,00.000019900000,   0.33200,
,,,00.000020000000,   0.33200,
,,,00.000020100000,   0.33200,
,,,00.000020200000,   0.32800,
,,,00.000020300000,   0.33200,
,,,00.000020400000,   0.32800,
,,,00.000020500000,   0.32800,
,,,00.000020600000,   0.32800,
,,,00.000020700000,   0.32800,
,,,00.000020800000,   0.32800,
,,,00.000020900000,   0.32800,
,,,00.000021000000,   0.32800,
,,,00.000021100000,   0.32800,
,,,00.000021200000,   0.32800,
,,,00.000021300000,   0.32400,
,,,00.000021400000,   0.32400,
,,,00.000021500000,   0.32400,
,,,00.000021600000,   0.32400,
,,,00.000021700000,   0.32400,
,,,00.000021800000,   0.32400,
,,,00.000021900000,   0.32400,
,,,00.000022000000,   0.32400,
,,,00.000022100000,   0.32000,
,,,00.000022200000,   0.32000,
,,,00.000022300000,   0.32000,
,,,00.000022400000,   0.32000,
,,,00.000022500000,   0.32000,
,,,00.000022600000,   0.32000,
,,,00.000022700000,   0.32000,
,,,00.000022800000,   0.32000,
,,,00.000022900000,   0.31600,
,,,00.000023000000,   0.31600,
,,,00.000023100000,   0.31600,
,,,00.000023200000,   0.31600,
,,,00.000023300000,   0.31600,
,,,00.000023400000,   0.31600,
,,,00.000023500000,   0.31600,
,,,00.000023600000,   0.31200,
,,,00.000023700000,   0.31200,
,,,00.000023800000,   0.31200,
,,,00.000023900000,   0.31200,
,,,00.000024000000,   0.31200,
,,,00.000024100000,   0.31200,
,,,00.000024200000,   0.30800,
,,,00.000024300000,   0.30800,
,,,00.000024400000,   0.30800,
,,,00.000024500000,   0.30800,
,,,00.000024600000,   0.30800,
,,,00.000024700000,   0.30400,
,,,00.000024800000,   0.30800,
,,,00.000024900000,   0.30400,
,,,00.000025000000,   0.30400,
,,,00.000025100000,   0.30400,
,,,00.000025200000,   0.30400,
,,,00.000025300000,   0.30400,
,,,00.000025400000,   0.30400,
,,,00.000025500000,   0.30000,
,,,00.000025600000,   0.30000,
,,,00.000025700000,   0.30000,
,,,00.000025800000,   0.30000,
,,,00.000025900000,   0.30000,
,,,00.000026000000,   0.30000,
,,,00.000026100000,   0.29600,
,,,00.000026200000,   0.29600,
,,,00.000026300000,   0.29600,
,,,00.000026400000,   0.29600,
,,,00.000026500000,   0.29600,
,,,00.000026600000,   0.29200,
,,,00.000026700000,   0.29200,
,,,00.000026800000,   0.29200,
,,,00.000026900000,   0.29200,
,,,00.000027000000,   0.29200,
,,,00.000027100000,   0.28800,
,,,00.000027200000,   0.28800,
,,,00.000027300000,   0.28800,
,,,00.000027400000,   0.28800,
,,,00.000027500000,   0.28800,
,,,00.000027600000,   0.28800,
,,,00.000027700000,   0.28400,
,,,00.000027800000,   0.28400,
,,,00.000027900000,   0.28400,
,,,00.000028000000,   0.28400,
,,,00.000028100000,   0.28400,
,,,00.000028200000,   0.28400,
,,,00.000028300000,   0.28000,
,,,00.000028400000,   0.28000,
,,,00.000028500000,   0.28000,
,,,00.000028600000,   0.28000,
,,,00.000028700000,   0.28000,
,,,00.000028800000,   0.27600,
,,,00.000028900000,   0.27600,
,,,00.000029000000,   0.27600,
,,,00.000029100000,   0.27600,
,,,00.000029200000,   0.27600,
,,,00.000029300000,   0.27600,
,,,00.000029400000,   0.27200,
,,,00.000029500000,   0.27200,
,,,00.000029600000,   0.27200,
,,,00.000029700000,   0.27200,
,,,00.000029800000,   0.27200,
,,,00.000029900000,   0.26800,
,,,00.000030000000,   0.26800,
,,,00.000030100000,   0.26800,
,,,00.000030200000,   0.26800,
,,,00.000030300000,   0.26800,
,,,00.000030400000,   0.26400,
,,,00.000030500000,   0.26400,
,,,00.000030600000,   0.26400,
,,,00.000030700000,   0.26400,
,,,00.000030800000,   0.26400,
,,,00.000030900000,   0.26000,
,,,00.000031000000,   0.26000,
,,,00.000031100000,   0.26000,
,,,00.000031200000,   0.26000,
,,,00.000031300000,   0.26000,
,,,00.000031400000,   0.25600,
,,,00.000031500000,   0.25600,
,,,00.000031600000,   0.25600,
,,,00.000031700000,   0.25600,
,,,00.000031800000,   0.25600,
,,,00.000031900000,   0.25200,
,,,00.000032000000,   0.25200,
,,,00.000032100000,   0.25200,
,,,00.000032200000,   0.25200,
,,,00.000032300000,   0.25200,
,,,00.000032400000,   0.25200,
,,,00.000032500000,   0.24800,
,,,00.000032600000,   0.24800,
,,,00.000032700000,   0.24800,
,,,00.000032800000,   0.24800,
,,,00.000032900000,   0.24800,
,,,00.000033000000,   0.24400,
,,,00.000033100000,   0.24400,
,,,00.000033200000,   0.24400,
,,,00.000033300000,   0.24400,
,,,00.000033400000,   0.24400,
,,,00.000033500000,   0.24000,
,,,00.000033600000,   0.24000,
,,,00.000033700000,   0.24000,
,,,00.000033800000,   0.24000,
,,,00.000033900000,   0.24000,
,,,00.000034000000,   0.23600,
,,,00.000034100000,   0.23600,
,,,00.000034200000,   0.23600,
,,,00.000034300000,   0.23600,
,,,00.000034400000,   0.23600,
,,,00.000034500000,   0.23200,
,,,00.000034600000,   0.23200,
,,,00.000034700000,   0.23200,
,,,00.000034800000,   0.23200,
,,,00.000034900000,   0.23200,
,,,00.000035000000,   0.22800,
,,,00.000035100000,   0.22800,
,,,00.000035200000,   0.22800,
,,,00.000035300000,   0.22800,
,,,00.000035400000,   0.22800,
,,,00.000035500000,   0.22400,
,,,00.000035600000,   0.22400,
,,,00.000035700000,   0.22400,
,,,00.000035800000,   0.22400,
,,,00.000035900000,   0.22400,
,,,00.000036000000,   0.22400,
,,,00.000036100000,   0.22000,
,,,00.000036200000,   0.22000,
,,,00.000036300000,   0.22000,
,,,00.000036400000,   0.22000,
,,,00.000036500000,   0.22000,
,,,00.000036600000,   0.21600,
,,,00.000036700000,   0.21600,
,,,00.000036800000,   0.21600,
,,,00.000036900000,   0.21600,
,,,00.000037000000,   0.21600,
,,,00.000037100000,   0.21200,
,,,00.000037200000,   0.21200,
,,,00.000037300000,   0.21200,
,,,00.000037400000,   0.21200,
,,,00.000037500000,   0.21200,
,,,00.000037600000,   0.20800,
,,,00.000037700000,   0.20800,
,,,00.000037800000,   0.20800,
,,,00.000037900000,   0.20800,
,,,00.000038000000,   0.20800,
,,,00.000038100000,   0.20800,
,,,00.000038200000,   0.20400,
,,,00.000038300000,   0.20400,
,,,00.000038400000,   0.20400,
,,,00.000038500000,   0.20400,
,,,00.000038600000,   0.20400,
,,,00.000038700000,   0.20000,
,,,00.000038800000,   0.20000,
,,,00.000038900000,   0.20000,
,,,00.000039000000,   0.20000,
,,,00.000039100000,   0.20000,
,,,00.000039200000,   0.20000,
,,,00.000039300000,   0.19600,
,,,00.000039400000,   0.19600,
,,,00.000039500000,   0.19600,
,,,00.000039600000,   0.19600,
,,,00.000039700000,   0.19600,
,,,00.000039800000,   0.19600,
,,,00.000039900000,   0.19200,
,,,00.000040000000,   0.19200,
,,,00.000040100000,   0.19200,
,,,00.000040200000,   0.19200,
,,,00.000040300000,   0.19200,
,,,00.000040400000,   0.18800,
,,,00.000040500000,   0.18800,
,,,00.000040600000,   0.18800,
,,,00.000040700000,   0.18800,
,,,00.000040800000,   0.18800,
,,,00.000040900000,   0.18400,
,,,00.000041000000,   0.18400,
,,,00.000041100000,   0.18400,
,,,00.000041200000,   0.18400,
,,,00.000041300000,   0.18400,
,,,00.000041400000,   0.18400,
,,,00.000041500000,   0.18000,
,,,00.000041600000,   0.18000,
,,,00.000041700000,   0.18000,
,,,00.000041800000,   0.18000,
,,,00.000041900000,   0.18000,
,,,00.000042000000,   0.17600,
,,,00.000042100000,   0.17600,
,,,00.000042200000,   0.17600,
,,,00.000042300000,   0.17600,
,,,00.000042400000,   0.17600,
,,,00.000042500000,   0.17600,
,,,00.000042600000,   0.17600,
,,,00.000042700000,   0.17200,
,,,00.000042800000,   0.17200,
,,,00.000042900000,   0.17200,
,,,00.000043000000,   0.17200,
,,,00.000043100000,   0.17200,
,,,00.000043200000,   0.16800,
,,,00.000043300000,   0.16800,
,,,00.000043400000,   0.16800,
,,,00.000043500000,   0.16800,
,,,00.000043600000,   0.16800,
,,,00.000043700000,   0.16800,
,,,00.000043800000,   0.16400,
,,,00.000043900000,   0.16400,
,,,00.000044000000,   0.16400,
,,,00.000044100000,   0.16400,
,,,00.000044200000,   0.16400,
,,,00.000044300000,   0.16400,
,,,00.000044400000,   0.16400,
,,,00.000044500000,   0.16000,
,,,00.000044600000,   0.16000,
,,,00.000044700000,   0.16000,
