spettroscopia/haynes-shockley/presa-dati-controllo/presa-dati-controllo.CSV

Model,TBS1102C
Firmware Version,v2015-08-04-prequal4ch70_v1.3

Point Format,Y
Horizontal Units,S
Horizontal Scale,4e-05
Sample Interval,3.2e-07
Filter Frequency,2e+08
Record Length,2000
Gating,0.0% to 100.0%
Probe Attenuation,1
Vertical Units,V
Vertical Offset,0
Vertical Scale,0.0492
Label,
TIME,CH1
-3.264e-04,0.000884062
-3.261e-04,0.000684187
-3.258e-04,0.000945562
-3.254e-04,0.0005535
-3.251e-04,0.0006765
-3.248e-04,0.000884062
-3.245e-04,0.00095325
-3.242e-04,0.00076875
-3.238e-04,0.000691875
-3.235e-04,0.000714937
-3.232e-04,0.000730312
-3.229e-04,0.00101475
-3.226e-04,0.000668812
-3.222e-04,0.000784125
-3.219e-04,0.00070725
-3.216e-04,0.000837937
-3.213e-04,0.000738
-3.210e-04,0.000807187
-3.206e-04,0.000837937
-3.203e-04,0.000784125
-3.200e-04,0.0010455
-3.197e-04,0.000492
-3.194e-04,0.00089175
-3.190e-04,0.000791812
-3.187e-04,0.000914812
-3.184e-04,0.000930187
-3.181e-04,0.000745687
-3.178e-04,0.000837937
-3.174e-04,0.00070725
-3.171e-04,0.000899437
-3.168e-04,0.000738
-3.165e-04,0.000930187
-3.162e-04,0.00118387
-3.158e-04,0.000661125
-3.155e-04,0.000776437
-3.152e-04,0.00083025
-3.149e-04,0.00108394
-3.146e-04,0.000907125
-3.142e-04,0.000814875
-3.139e-04,0.000699562
-3.136e-04,0.0009225
-3.133e-04,0.000845625
-3.130e-04,0.000984
-3.126e-04,0.000930187
-3.123e-04,0.000738
-3.120e-04,0.000599625
-3.117e-04,0.000845625
-3.114e-04,0.000945562
-3.110e-04,0.000668812
-3.107e-04,0.000730312
-3.104e-04,0.000607312
-3.101e-04,0.000930187
-3.098e-04,0.000868687
-3.094e-04,0.000937875
-3.091e-04,0.000730312
-3.088e-04,0.000907125
-3.085e-04,0.00083025
-3.082e-04,0.000507375
-3.078e-04,0.000837937
-3.075e-04,0.0007995
-3.072e-04,0.000722625
-3.069e-04,0.000722625
-3.066e-04,0.000937875
-3.062e-04,0.000607312
-3.059e-04,0.000837937
-3.056e-04,0.000837937
-3.053e-04,0.000730312
-3.050e-04,0.000914812
-3.046e-04,0.000638062
-3.043e-04,0.000722625
-3.040e-04,0.000745687
-3.037e-04,0.000714937
-3.034e-04,0.000699562
-3.030e-04,0.000822562
-3.027e-04,0.00089175
-3.024e-04,0.000607312
-3.021e-04,0.000607312
-3.018e-04,0.000607312
-3.014e-04,0.00102244
-3.011e-04,0.0006765
-3.008e-04,0.000968625
-3.005e-04,0.000684187
-3.002e-04,0.000753375
-2.998e-04,0.000607312
-2.995e-04,0.00095325
-2.992e-04,0.000784125
-2.989e-04,0.000884062
-2.986e-04,0.000884062
-2.982e-04,0.000791812
-2.979e-04,0.000884062
-2.976e-04,0.00083025
-2.973e-04,0.000745687
-2.970e-04,0.000791812
-2.966e-04,0.000884062
-2.963e-04,0.000730312
-2.960e-04,0.000884062
-2.957e-04,0.00102244
-2.954e-04,0.0010455
-2.950e-04,0.000999375
-2.947e-04,0.000868687
-2.944e-04,0.00089175
-2.941e-04,0.00127612
-2.938e-04,0.000999375
-2.934e-04,0.00101475
-2.931e-04,0.000730312
-2.928e-04,0.000653437
-2.925e-04,0.000884062
-2.922e-04,0.000538125
-2.918e-04,0.000722625
-2.915e-04,0.000722625
-2.912e-04,0.000668812
-2.909e-04,0.0009225
-2.906e-04,0.000661125
-2.902e-04,0.000738
-2.899e-04,0.0005535
-2.896e-04,0.000607312
-2.893e-04,0.000699562
-2.890e-04,0.000914812
-2.886e-04,0.000668812
-2.883e-04,0.00095325
-2.880e-04,0.000822562
-2.877e-04,0.000607312
-2.874e-04,0.000999375
-2.870e-04,0.000861
-2.867e-04,0.000714937
-2.864e-04,0.000484312
-2.861e-04,0.000684187
-2.858e-04,0.000968625
-2.854e-04,0.0006765
-2.851e-04,0.00070725
-2.848e-04,0.000776437
-2.845e-04,0.000684187
-2.842e-04,0.000515062
-2.838e-04,0.000653437
-2.835e-04,0.00109931
-2.832e-04,0.000722625
-2.829e-04,0.00128381
-2.826e-04,0.000791812
-2.822e-04,0.000868687
-2.819e-04,0.000884062
-2.816e-04,0.000691875
-2.813e-04,0.00083025
-2.810e-04,0.000653437
-2.806e-04,0.000714937
-2.803e-04,0.000907125
-2.800e-04,0.00064575
-2.797e-04,0.000730312
-2.794e-04,0.000914812
-2.790e-04,0.00101475
-2.787e-04,0.000991687
-2.784e-04,0.000960937
-2.781e-04,0.000960937
-2.778e-04,0.000899437
-2.774e-04,0.00101475
-2.771e-04,0.000776437
-2.768e-04,0.0006765
-2.765e-04,0.000638062
-2.762e-04,0.000699562
-2.758e-04,0.000714937
-2.755e-04,0.00109931
-2.752e-04,0.000691875
-2.749e-04,0.000876375
-2.746e-04,0.000668812
-2.742e-04,0.000745687
-2.739e-04,0.000807187
-2.736e-04,0.000668812
-2.733e-04,0.000661125
-2.730e-04,0.000899437
-2.726e-04,0.000761062
-2.723e-04,0.00095325
-2.720e-04,0.0005535
-2.717e-04,0.00106856
-2.714e-04,0.00064575
-2.710e-04,0.000607312
-2.707e-04,0.000745687
-2.704e-04,0.000761062
-2.701e-04,0.000722625
-2.698e-04,0.00070725
-2.694e-04,0.000699562
-2.691e-04,0.000776437
-2.688e-04,0.000753375
-2.685e-04,0.000899437
-2.682e-04,0.000914812
-2.678e-04,0.000784125
-2.675e-04,0.000930187
-2.672e-04,0.000807187
-2.669e-04,0.000899437
-2.666e-04,0.000722625
-2.662e-04,0.000545812
-2.659e-04,0.000930187
-2.656e-04,0.000899437
-2.653e-04,0.000753375
-2.650e-04,0.000761062
-2.646e-04,0.00100706
-2.643e-04,0.000599625
-2.640e-04,0.000807187
-2.637e-04,0.000745687
-2.634e-04,0.000699562
-2.630e-04,0.000914812
-2.627e-04,0.000937875
-2.624e-04,0.00102244
-2.621e-04,0.000607312
-2.618e-04,0.00070725
-2.614e-04,0.000753375
-2.611e-04,0.000960937
-2.608e-04,0.000699562
-2.605e-04,0.000761062
-2.602e-04,0.000545812
-2.598e-04,0.000807187
-2.595e-04,0.000730312
-2.592e-04,0.000476625
-2.589e-04,0.000945562
-2.586e-04,0.000784125
-2.582e-04,0.000876375
-2.579e-04,0.00076875
-2.576e-04,0.00103012
-2.573e-04,0.000630375
-2.570e-04,0.000807187
-2.566e-04,0.000899437
-2.563e-04,0.000960937
-2.560e-04,0.00116081
-2.557e-04,0.000722625
-2.554e-04,0.000945562
-2.550e-04,0.00076875
-2.547e-04,0.000722625
-2.544e-04,0.000937875
-2.541e-04,0.000999375
-2.538e-04,0.0009225
-2.534e-04,0.000868687
-2.531e-04,0.00083025
-2.528e-04,0.000822562
-2.525e-04,0.000907125
-2.522e-04,0.000699562
-2.518e-04,0.0010455
-2.515e-04,0.000699562
-2.512e-04,0.000791812
-2.509e-04,0.000630375
-2.506e-04,0.000837937
-2.502e-04,0.000791812
-2.499e-04,0.000730312
-2.496e-04,0.000937875
-2.493e-04,0.000776437
-2.490e-04,0.0009225
-2.486e-04,0.000999375
-2.483e-04,0.000691875
-2.480e-04,0.000776437
-2.477e-04,0.000814875
-2.474e-04,0.000837937
-2.470e-04,0.000807187
-2.467e-04,0.000914812
-2.464e-04,0.000607312
-2.461e-04,0.000730312
-2.458e-04,0.000661125
-2.454e-04,0.000714937
-2.451e-04,0.000776437
-2.448e-04,0.000853312
-2.445e-04,0.00103012
-2.442e-04,0.000914812
-2.438e-04,0.0009225
-2.435e-04,0.000784125
-2.432e-04,0.000853312
-2.429e-04,0.000668812
-2.426e-04,0.000976312
-2.422e-04,0.000837937
-2.419e-04,0.000914812
-2.416e-04,0.000899437
-2.413e-04,0.000730312
-2.410e-04,0.0007995
-2.406e-04,0.000868687
-2.403e-04,0.000914812
-2.400e-04,0.000653437
-2.397e-04,0.000807187
-2.394e-04,0.000930187
-2.390e-04,0.000684187
-2.387e-04,0.000960937
-2.384e-04,0.000791812
-2.381e-04,0.000691875
-2.378e-04,0.000722625
-2.374e-04,0.000668812
-2.371e-04,0.0009225
-2.368e-04,0.0010455
-2.365e-04,0.000814875
-2.362e-04,0.000638062
-2.358e-04,0.000907125
-2.355e-04,0.000914812
-2.352e-04,0.000791812
-2.349e-04,0.000807187
-2.346e-04,0.000791812
-2.342e-04,0.000699562
-2.339e-04,0.000661125
-2.336e-04,0.000784125
-2.333e-04,0.000722625
-2.330e-04,0.00070725
-2.326e-04,0.00064575
-2.323e-04,0.000837937
-2.320e-04,0.000699562
-2.317e-04,0.000730312
-2.314e-04,0.000738
-2.310e-04,0.000691875
-2.307e-04,0.000853312
-2.304e-04,0.000607312
-2.301e-04,0.000745687
-2.298e-04,0.000968625
-2.294e-04,0.000791812
-2.291e-04,0.000876375
-2.288e-04,0.000761062
-2.285e-04,0.00076875
-2.282e-04,0.000714937
-2.278e-04,0.000822562
-2.275e-04,0.00076875
-2.272e-04,0.000607312
-2.269e-04,0.000653437
-2.266e-04,0.000822562
-2.262e-04,0.000814875
-2.259e-04,0.000914812
-2.256e-04,0.000722625
-2.253e-04,0.000738
-2.250e-04,0.000714937
-2.246e-04,0.000668812
-2.243e-04,0.000776437
-2.240e-04,0.000714937
-2.237e-04,0.000945562
-2.234e-04,0.000545812
-2.230e-04,0.000868687
-2.227e-04,0.000784125
-2.224e-04,0.000607312
-2.221e-04,0.000699562
-2.218e-04,0.000714937
-2.214e-04,0.000753375
-2.211e-04,0.0006765
-2.208e-04,0.000661125
-2.205e-04,0.000714937
-2.202e-04,0.000807187
-2.198e-04,0.000738
-2.195e-04,0.000984
-2.192e-04,0.000714937
-2.189e-04,0.000653437
-2.186e-04,0.000638062
-2.182e-04,0.000807187
-2.179e-04,0.000684187
-2.176e-04,0.000699562
-2.173e-04,0.000791812
-2.170e-04,0.000722625
-2.166e-04,0.000999375
-2.163e-04,0.000853312
-2.160e-04,0.000861
-2.157e-04,0.00076875
-2.154e-04,0.000638062
-2.150e-04,0.000968625
-2.147e-04,0.00070725
-2.144e-04,0.000791812
-2.141e-04,0.00052275
-2.138e-04,0.0007995
-2.134e-04,0.000968625
-2.131e-04,0.00064575
-2.128e-04,0.000776437
-2.125e-04,0.000784125
-2.122e-04,0.000837937
-2.118e-04,0.000784125
-2.115e-04,0.000822562
-2.112e-04,0.000730312
-2.109e-04,0.000622687
-2.106e-04,0.000837937
-2.102e-04,0.000930187
-2.099e-04,0.000937875
-2.096e-04,0.000899437
-2.093e-04,0.000607312
-2.090e-04,0.000691875
-2.086e-04,0.000945562
-2.083e-04,0.000914812
-2.080e-04,0.000607312
-2.077e-04,0.000914812
-2.074e-04,0.000791812
-2.070e-04,0.000776437
-2.067e-04,0.000853312
-2.064e-04,0.00076875
-2.061e-04,0.000776437
-2.058e-04,0.000607312
-2.054e-04,0.000661125
-2.051e-04,0.000530437
-2.048e-04,0.000714937
-2.045e-04,0.000691875
-2.042e-04,0.000730312
-2.038e-04,0.000684187
-2.035e-04,0.0007995
-2.032e-04,0.000668812
-2.029e-04,0.000607312
-2.026e-04,0.00083025
-2.022e-04,0.00058425
-2.019e-04,0.0009225
-2.016e-04,0.000722625
-2.013e-04,0.000607312
-2.010e-04,0.000561187
-2.006e-04,0.000607312
-2.003e-04,0.000722625
-2.000e-04,0.00064575
-1.997e-04,0.000930187
-1.994e-04,0.000884062
-1.990e-04,0.000884062
-1.987e-04,0.000807187
-1.984e-04,0.000899437
-1.981e-04,0.000868687
-1.978e-04,0.000745687
-1.974e-04,0.000984
-1.971e-04,0.00106087
-1.968e-04,0.00083025
-1.965e-04,0.000791812
-1.962e-04,0.00076875
-1.958e-04,0.00076875
-1.955e-04,0.000653437
-1.952e-04,0.000845625
-1.949e-04,0.000814875
-1.946e-04,0.000722625
-1.942e-04,0.000699562
-1.939e-04,0.000761062
-1.936e-04,0.000845625
-1.933e-04,0.00095325
-1.930e-04,0.00070725
-1.926e-04,0.000622687
-1.923e-04,0.0006765
-1.920e-04,0.000761062
-1.917e-04,0.000730312
-1.914e-04,0.000945562
-1.910e-04,0.000861
-1.907e-04,0.000722625
-1.904e-04,0.000691875
-1.901e-04,0.000722625
-1.898e-04,0.000607312
-1.894e-04,0.000761062
-1.891e-04,0.00083025
-1.888e-04,0.00083025
-1.885e-04,0.000791812
-1.882e-04,0.000776437
-1.878e-04,0.000753375
-1.875e-04,0.000638062
-1.872e-04,0.000868687
-1.869e-04,0.00106087
-1.866e-04,0.000776437
-1.862e-04,0.000691875
-1.859e-04,0.000876375
-1.856e-04,0.000714937
-1.853e-04,0.000691875
-1.850e-04,0.000538125
-1.846e-04,0.000984
-1.843e-04,0.00076875
-1.840e-04,0.00089175
-1.837e-04,0.000884062
-1.834e-04,0.000684187
-1.830e-04,0.00070725
-1.827e-04,0.000837937
-1.824e-04,0.000807187
-1.821e-04,0.000899437
-1.818e-04,0.000822562
-1.814e-04,0.0007995
-1.811e-04,0.000791812
-1.808e-04,0.000791812
-1.805e-04,0.000230625
-1.802e-04,0.00101475
-1.798e-04,0.000684187
-1.795e-04,0.000784125
-1.792e-04,0.000653437
-1.789e-04,0.000699562
-1.786e-04,0.000837937
-1.782e-04,0.000960937
-1.779e-04,0.000722625
-1.776e-04,0.000837937
-1.773e-04,0.000699562
-1.770e-04,0.000807187
-1.766e-04,0.000684187
-1.763e-04,0.000876375
-1.760e-04,0.000945562
-1.757e-04,0.000538125
-1.754e-04,0.00070725
-1.750e-04,0.000753375
-1.747e-04,0.000822562
-1.744e-04,0.000899437
-1.741e-04,0.000668812
-1.738e-04,0.000807187
-1.734e-04,0.000945562
-1.731e-04,0.00083025
-1.728e-04,0.000607312
-1.725e-04,0.00070725
-1.722e-04,0.00083025
-1.718e-04,0.000607312
-1.715e-04,0.000837937
-1.712e-04,0.000753375
-1.709e-04,0.000822562
-1.706e-04,0.000853312
-1.702e-04,0.00070725
-1.699e-04,0.000146062
-1.696e-04,-0.00132994
-1.693e-04,0.0365617
-1.690e-04,0.123323
-1.686e-04,0.161683
-1.683e-04,0.161868
-1.680e-04,0.161868
-1.677e-04,0.159923
-1.674e-04,0.109001
-1.670e-04,0.0448796
-1.667e-04,0.00170662
-1.664e-04,-0.00558112
-1.661e-04,0.00143756
-1.658e-04,0.00385144
-1.654e-04,0.00255994
-1.651e-04,0.0006765
-1.648e-04,0.00114544
-1.645e-04,0.00186037
-1.642e-04,0.00255225
-1.638e-04,0.00245231
-1.635e-04,0.00249844
-1.632e-04,0.0026445
-1.629e-04,0.00257531
-1.626e-04,0.00262912
-1.622e-04,0.00277519
-1.619e-04,0.00239081
-1.616e-04,0.00246
-1.613e-04,0.00222169
-1.610e-04,0.00196031
-1.606e-04,0.002337
-1.603e-04,0.00218325
-1.600e-04,0.00263681
-1.597e-04,0.00260606
-1.594e-04,0.00306731
-1.590e-04,0.00347475
-1.587e-04,0.00376687
-1.584e-04,0.00420506
-1.581e-04,0.00472012
-1.578e-04,0.00444337
-1.574e-04,0.00489694
-1.571e-04,0.00493537
-1.568e-04,0.00488156
-1.565e-04,0.00502762
-1.562e-04,0.00505069
-1.558e-04,0.00508144
-1.555e-04,0.00502762
-1.552e-04,0.00513525
-1.549e-04,0.00487387
-1.546e-04,0.00488156
-1.542e-04,0.00478931
-1.539e-04,0.00468937
-1.536e-04,0.004551
-1.533e-04,0.00434344
-1.530e-04,0.00432037
-1.526e-04,0.00435112
-1.523e-04,0.00438956
-1.520e-04,0.00409744
-1.517e-04,0.00388987
-1.514e-04,0.00382069
-1.510e-04,0.00346706
-1.507e-04,0.00369
-1.504e-04,0.00329025
-1.501e-04,0.00315956
-1.498e-04,0.00299812
-1.494e-04,0.00281362
-1.491e-04,0.00255225
-1.488e-04,0.002583
-1.485e-04,0.00257531
-1.482e-04,0.00260606
-1.478e-04,0.00246
-1.475e-04,0.00220631
-1.472e-04,0.00187575
-1.469e-04,0.00179887
-1.466e-04,0.00176044
-1.462e-04,0.00193725
-1.459e-04,0.00171431
-1.456e-04,0.001476
-1.453e-04,0.00111469
-1.450e-04,0.000960937
-1.446e-04,0.000930187
-1.443e-04,0.0006765
-1.440e-04,0.000499687
-1.437e-04,0.000415125
-1.434e-04,0.00052275
-1.430e-04,0.000322875
-1.427e-04,0.000146062
-1.424e-04,0.000246
-1.421e-04,0.000123
-1.418e-04,0.00027675
-1.414e-04,-6.15e-05
-1.411e-04,0.0001845
-1.408e-04,-0.000169125
-1.405e-04,-0.000199875
-1.402e-04,0.000199875
-1.398e-04,0.000561187
-1.395e-04,0.000361312
-1.392e-04,0.000130687
-1.389e-04,0.000299812
-1.386e-04,0.000484312
-1.382e-04,0.000261375
-1.379e-04,0.000453562
-1.376e-04,0.000507375
-1.373e-04,0.00021525
-1.370e-04,0.000107625
-1.366e-04,-9.225e-05
-1.363e-04,-0.000253687
-1.360e-04,-0.000415125
-1.357e-04,-0.000591937
-1.354e-04,-0.000530437
-1.350e-04,-0.000622687
-1.347e-04,-0.000684187
-1.344e-04,-0.000876375
-1.341e-04,-0.000745687
-1.338e-04,-0.000930187
-1.334e-04,-0.000945562
-1.331e-04,-0.001353
-1.328e-04,-0.001107
-1.325e-04,-0.00111469
-1.322e-04,-0.00105319
-1.318e-04,-0.00142987
-1.315e-04,-0.00157594
-1.312e-04,-0.00126844
-1.309e-04,-0.00174506
-1.306e-04,-0.00171431
-1.302e-04,-0.00144525
-1.299e-04,-0.00156056
-1.296e-04,-0.00174506
-1.293e-04,-0.00169894
-1.290e-04,-0.002091
-1.286e-04,-0.00170662
-1.283e-04,-0.00191419
-1.280e-04,-0.00192956
-1.277e-04,-0.00199875
-1.274e-04,-0.00203719
-1.270e-04,-0.00213712
-1.267e-04,-0.00196031
-1.264e-04,-0.00218325
-1.261e-04,-0.00250612
-1.258e-04,-0.00262912
-1.254e-04,-0.0023985
-1.251e-04,-0.00206794
-1.248e-04,-0.00244462
-1.245e-04,-0.00266756
-1.242e-04,-0.00253687
-1.238e-04,-0.00244462
-1.235e-04,-0.00262144
-1.232e-04,-0.00290587
-1.229e-04,-0.00272906
-1.226e-04,-0.002706
-1.222e-04,-0.002829
-1.219e-04,-0.00306731
-1.216e-04,-0.00303656
-1.213e-04,-0.00288281
-1.210e-04,-0.00329025
-1.206e-04,-0.00299044
-1.203e-04,-0.00315956
-1.200e-04,-0.00320569
-1.197e-04,-0.00319031
-1.194e-04,-0.00316725
-1.190e-04,-0.0031365
-1.187e-04,-0.00289819
-1.184e-04,-0.00314419
-1.181e-04,-0.00297506
-1.178e-04,-0.00299044
-1.174e-04,-0.00279825
-1.171e-04,-0.00318262
-1.168e-04,-0.00285975
-1.165e-04,-0.00295969
-1.162e-04,-0.00260606
-1.158e-04,-0.00290587
-1.155e-04,-0.00291356
-1.152e-04,-0.00283669
-1.149e-04,-0.00263681
-1.146e-04,-0.00250612
-1.142e-04,-0.00266756
-1.139e-04,-0.00266756
-1.136e-04,-0.0027675
-1.133e-04,-0.00267525
-1.130e-04,-0.00272906
-1.126e-04,-0.00292125
-1.123e-04,-0.00310575
-1.120e-04,-0.00320569
-1.117e-04,-0.00376687
-1.114e-04,-0.00428962
-1.110e-04,-0.00485081
-1.107e-04,-0.00588094
-1.104e-04,-0.00629606
-1.101e-04,-0.00667275
-1.098e-04,-0.008241
-1.094e-04,-0.009225
-1.091e-04,-0.0103089
-1.088e-04,-0.0117388
-1.085e-04,-0.0129765
-1.082e-04,-0.0140989
-1.078e-04,-0.0151444
-1.075e-04,-0.0164666
-1.072e-04,-0.0184269
-1.069e-04,-0.0195339
-1.066e-04,-0.0211252
-1.062e-04,-0.0224398
-1.059e-04,-0.0237697
-1.056e-04,-0.0249229
-1.053e-04,-0.0264219
-1.050e-04,-0.0278672
-1.046e-04,-0.0291664
-1.043e-04,-0.0303579
-1.040e-04,-0.0317263
-1.037e-04,-0.032841
-1.034e-04,-0.0343093
-1.030e-04,-0.0351396
-1.027e-04,-0.0358622
-1.024e-04,-0.0368846
-1.021e-04,-0.0381531
-1.018e-04,-0.0387219
-1.014e-04,-0.0393754
-1.011e-04,-0.0402133
-1.008e-04,-0.0410512
-1.005e-04,-0.0417969
-1.002e-04,-0.0419661
-9.984e-05,-0.0426579
-9.952e-05,-0.0428655
-9.920e-05,-0.0433267
-9.888e-05,-0.0433882
-9.856e-05,-0.0436727
-9.824e-05,-0.043911
-9.792e-05,-0.0442339
-9.760e-05,-0.0443799
-9.728e-05,-0.0443876
-9.696e-05,-0.0444645
-9.664e-05,-0.0446413
-9.632e-05,-0.0445798
-9.600e-05,-0.0444645
-9.568e-05,-0.0446336
-9.536e-05,-0.0446413
-9.504e-05,-0.0447105
-9.472e-05,-0.0446413
-9.440e-05,-0.0447643
-9.408e-05,-0.0448566
-9.376e-05,-0.0447566
-9.344e-05,-0.0451102
-9.312e-05,-0.0448873
-9.280e-05,-0.0450103
-9.248e-05,-0.0449565
-9.216e-05,-0.0449719
-9.184e-05,-0.0449949
-9.152e-05,-0.0449719
-9.120e-05,-0.0450257
-9.088e-05,-0.0446951
-9.056e-05,-0.0451179
-9.024e-05,-0.0449565
-8.992e-05,-0.0448181
-8.960e-05,-0.0450564
-8.928e-05,-0.0451871
-8.896e-05,-0.0450026
-8.864e-05,-0.0452025
-8.832e-05,-0.0450411
-8.800e-05,-0.0450564
-8.768e-05,-0.0448181
-8.736e-05,-0.0449949
-8.704e-05,-0.0450411
-8.672e-05,-0.0450641
-8.640e-05,-0.0451871
-8.608e-05,-0.0451948
-8.576e-05,-0.0448642
-8.544e-05,-0.0451794
-8.512e-05,-0.0452717
-8.480e-05,-0.0451333
-8.448e-05,-0.0455331
-8.416e-05,-0.0455331
-8.384e-05,-0.0451717
-8.352e-05,-0.0452563
-8.320e-05,-0.0451102
-8.288e-05,-0.0454101
-8.256e-05,-0.0451179
-8.224e-05,-0.0453486
-8.192e-05,-0.0451871
-8.160e-05,-0.0453332
-8.128e-05,-0.0452794
-8.096e-05,-0.0452794
-8.064e-05,-0.0453409
-8.032e-05,-0.0453101
-8.000e-05,-0.0453716
-7.968e-05,-0.0452409
-7.936e-05,-0.0452717
-7.904e-05,-0.0452102
-7.872e-05,-0.0453255
-7.840e-05,-0.045633
-7.808e-05,-0.0456022
-7.776e-05,-0.0455023
-7.744e-05,-0.045633
-7.712e-05,-0.0458406
-7.680e-05,-0.0453101
-7.648e-05,-0.0457483
-7.616e-05,-0.0456868
-7.584e-05,-0.0458636
-7.552e-05,-0.0458252
-7.520e-05,-0.0456791
-7.488e-05,-0.0456022
-7.456e-05,-0.0459328
-7.424e-05,-0.0458482
-7.392e-05,-0.0456176
-7.360e-05,-0.0458944
-7.328e-05,-0.0456637
-7.296e-05,-0.0455254
-7.264e-05,-0.0459251
-7.232e-05,-0.0457406
-7.200e-05,-0.0458867
-7.168e-05,-0.045879
-7.136e-05,-0.0460712
-7.104e-05,-0.0459482
-7.072e-05,-0.0458175
-7.040e-05,-0.0459559
-7.008e-05,-0.0456714
-6.976e-05,-0.0459251
-6.944e-05,-0.0458098
-6.912e-05,-0.0461019
-6.880e-05,-0.0462172
-6.848e-05,-0.0460635
-6.816e-05,-0.0464171
-6.784e-05,-0.0463787
-6.752e-05,-0.0461327
-6.720e-05,-0.0463479
-6.688e-05,-0.0464094
-6.656e-05,-0.0462787
-6.624e-05,-0.0460712
-6.592e-05,-0.0463018
-6.560e-05,-0.0462941
-6.528e-05,-0.0465401
-6.496e-05,-0.0459866
-6.464e-05,-0.046494
-6.432e-05,-0.0463172
-6.400e-05,-0.0463402
-6.368e-05,-0.0464017
-6.336e-05,-0.0463556
-6.304e-05,-0.0466093
-6.272e-05,-0.0463787
-6.240e-05,-0.0465401
-6.208e-05,-0.0463172
-6.176e-05,-0.0462634
-6.144e-05,-0.0465247
-6.112e-05,-0.0465171
-6.080e-05,-0.0465862
-6.048e-05,-0.0462403
-6.016e-05,-0.0465094
-5.984e-05,-0.0465709
-5.952e-05,-0.0465862
-5.920e-05,-0.0466324
-5.888e-05,-0.0465555
-5.856e-05,-0.0465017
-5.824e-05,-0.0464094
-5.792e-05,-0.0465017
-5.760e-05,-0.0465555
-5.728e-05,-0.0460942
-5.696e-05,-0.0468246
-5.664e-05,-0.0464556
-5.632e-05,-0.0465709
-5.600e-05,-0.046863
-5.568e-05,-0.046617
-5.536e-05,-0.0464863
-5.504e-05,-0.046617
-5.472e-05,-0.0469399
-5.440e-05,-0.0468399
-5.408e-05,-0.0466785
-5.376e-05,-0.0466708
-5.344e-05,-0.0467707
-5.312e-05,-0.0468322
-5.280e-05,-0.046617
-5.248e-05,-0.0468476
-5.216e-05,-0.0468476
-5.184e-05,-0.0469245
-5.152e-05,-0.0468553
-5.120e-05,-0.0471474
-5.088e-05,-0.047109
-5.056e-05,-0.0471013
-5.024e-05,-0.0472858
-4.992e-05,-0.0470475
-4.960e-05,-0.0470014
-4.928e-05,-0.0470244
-4.896e-05,-0.0470398
-4.864e-05,-0.0469091
-4.832e-05,-0.0472627
-4.800e-05,-0.0470629
-4.768e-05,-0.0469399
-4.736e-05,-0.0471782
-4.704e-05,-0.0471167
-4.672e-05,-0.0469014
-4.640e-05,-0.0472551
-4.608e-05,-0.0471705
-4.576e-05,-0.0470782
