elettronica/esperienza_7 (shaper)/oscilloscopio/2.4 - curva (zoom in)/F0005CH1.CSV

Record Length,2.500000e+03,,  -0.000021300000,  -0.00160,
Sample Interval,1.000000e-08,,  -0.000021290000,  -0.00240,
Trigger Point,2.130000000000e+03,,  -0.000021280000,  -0.00240,
,,,  -0.000021270000,  -0.00160,
,,,  -0.000021260000,  -0.00160,
,,,  -0.000021250000,  -0.00160,
Source,CH1,,  -0.000021240000,  -0.00080,
Vertical Units,V,,  -0.000021230000,  -0.00160,
Vertical Scale,2.000000e-02,,  -0.000021220000,  -0.00160,
Vertical Offset,3.200000e-03,,  -0.000021210000,  -0.00160,
Horizontal Units,s,,  -0.000021200000,  -0.00240,
Horizontal Scale,2.500000e-06,,  -0.000021190000,  -0.00240,
Pt Fmt,Y,,  -0.000021180000,  -0.00240,
Yzero,0.000000e+00,,  -0.000021170000,  -0.00160,
Probe Atten,1.000000e+01,,  -0.000021160000,  -0.00240,
Model Number,TBS1102B-EDU,,  -0.000021150000,  -0.00240,
Serial Number,C021597,,  -0.000021140000,  -0.00240,
Firmware Version,FV:v4.06,,  -0.000021130000,  -0.00160,
,,,-00.000021120000,  -0.00240,
,,,-00.000021110000,  -0.00240,
,,,-00.000021100000,  -0.00240,
,,,-00.000021090000,  -0.00160,
,,,-00.000021080000,  -0.00240,
,,,-00.000021070000,  -0.00240,
,,,-00.000021060000,  -0.00160,
,,,-00.000021050000,  -0.00160,
,,,-00.000021040000,  -0.00160,
,,,-00.000021030000,  -0.00160,
,,,-00.000021020000,  -0.00240,
,,,-00.000021010000,  -0.00240,
,,,-00.000021000000,  -0.00160,
,,,-00.000020990000,  -0.00160,
,,,-00.000020980000,  -0.00160,
,,,-00.000020970000,  -0.00160,
,,,-00.000020960000,  -0.00240,
,,,-00.000020950000,  -0.00160,
,,,-00.000020940000,  -0.00240,
,,,-00.000020930000,  -0.00240,
,,,-00.000020920000,  -0.00240,
,,,-00.000020910000,  -0.00240,
,,,-00.000020900000,  -0.00240,
,,,-00.000020890000,  -0.00160,
,,,-00.000020880000,  -0.00240,
,,,-00.000020870000,  -0.00240,
,,,-00.000020860000,  -0.00240,
,,,-00.000020850000,  -0.00240,
,,,-00.000020840000,  -0.00160,
,,,-00.000020830000,  -0.00240,
,,,-00.000020820000,  -0.00160,
,,,-00.000020810000,  -0.00320,
,,,-00.000020800000,  -0.00240,
,,,-00.000020790000,  -0.00240,
,,,-00.000020780000,  -0.00240,
,,,-00.000020770000,  -0.00160,
,,,-00.000020760000,  -0.00240,
,,,-00.000020750000,  -0.00240,
,,,-00.000020740000,  -0.00240,
,,,-00.000020730000,  -0.00240,
,,,-00.000020720000,  -0.00240,
,,,-00.000020710000,  -0.00160,
,,,-00.000020700000,  -0.00160,
,,,-00.000020690000,  -0.00160,
,,,-00.000020680000,  -0.00160,
,,,-00.000020670000,  -0.00160,
,,,-00.000020660000,  -0.00160,
,,,-00.000020650000,  -0.00240,
,,,-00.000020640000,  -0.00160,
,,,-00.000020630000,  -0.00160,
,,,-00.000020620000,  -0.00240,
,,,-00.000020610000,  -0.00240,
,,,-00.000020600000,  -0.00240,
,,,-00.000020590000,  -0.00160,
,,,-00.000020580000,  -0.00160,
,,,-00.000020570000,  -0.00240,
,,,-00.000020560000,  -0.00160,
,,,-00.000020550000,  -0.00320,
,,,-00.000020540000,  -0.00320,
,,,-00.000020530000,  -0.00320,
,,,-00.000020520000,  -0.00160,
,,,-00.000020510000,  -0.00240,
,,,-00.000020500000,  -0.00160,
,,,-00.000020490000,  -0.00240,
,,,-00.000020480000,  -0.00240,
,,,-00.000020470000,  -0.00160,
,,,-00.000020460000,  -0.00160,
,,,-00.000020450000,  -0.00160,
,,,-00.000020440000,  -0.00240,
,,,-00.000020430000,  -0.00160,
,,,-00.000020420000,  -0.00160,
,,,-00.000020410000,  -0.00160,
,,,-00.000020400000,  -0.00240,
,,,-00.000020390000,  -0.00240,
,,,-00.000020380000,  -0.00240,
,,,-00.000020370000,  -0.00320,
,,,-00.000020360000,  -0.00320,
,,,-00.000020350000,  -0.00240,
,,,-00.000020340000,  -0.00160,
,,,-00.000020330000,  -0.00080,
,,,-00.000020320000,  -0.00240,
,,,-00.000020310000,  -0.00160,
,,,-00.000020300000,  -0.00160,
,,,-00.000020290000,  -0.00160,
,,,-00.000020280000,  -0.00240,
,,,-00.000020270000,  -0.00240,
,,,-00.000020260000,  -0.00320,
,,,-00.000020250000,  -0.00160,
,,,-00.000020240000,  -0.00240,
,,,-00.000020230000,  -0.00240,
,,,-00.000020220000,  -0.00240,
,,,-00.000020210000,  -0.00160,
,,,-00.000020200000,  -0.00160,
,,,-00.000020190000,  -0.00160,
,,,-00.000020180000,  -0.00240,
,,,-00.000020170000,  -0.00240,
,,,-00.000020160000,  -0.00240,
,,,-00.000020150000,  -0.00160,
,,,-00.000020140000,  -0.00240,
,,,-00.000020130000,  -0.00240,
,,,-00.000020120000,  -0.00240,
,,,-00.000020110000,  -0.00240,
,,,-00.000020100000,  -0.00240,
,,,-00.000020090000,  -0.00240,
,,,-00.000020080000,  -0.00240,
,,,-00.000020070000,  -0.00160,
,,,-00.000020060000,  -0.00160,
,,,-00.000020050000,  -0.00160,
,,,-00.000020040000,  -0.00240,
,,,-00.000020030000,  -0.00240,
,,,-00.000020020000,  -0.00240,
,,,-00.000020010000,  -0.00160,
,,,-00.000020000000,  -0.00160,
,,,-00.000019990000,  -0.00160,
,,,-00.000019980000,  -0.00160,
,,,-00.000019970000,  -0.00240,
,,,-00.000019960000,  -0.00240,
,,,-00.000019950000,   0.00160,
,,,-00.000019940000,   0.00000,
,,,-00.000019930000,  -0.00640,
,,,-00.000019920000,  -0.00640,
,,,-00.000019910000,  -0.00080,
,,,-00.000019900000,   0.00240,
,,,-00.000019890000,  -0.00560,
,,,-00.000019880000,  -0.00720,
,,,-00.000019870000,  -0.00320,
,,,-00.000019860000,  -0.00160,
,,,-00.000019850000,  -0.00480,
,,,-00.000019840000,  -0.00560,
,,,-00.000019830000,  -0.00320,
,,,-00.000019820000,  -0.00160,
,,,-00.000019810000,  -0.00160,
,,,-00.000019800000,  -0.00320,
,,,-00.000019790000,  -0.00320,
,,,-00.000019780000,  -0.00160,
,,,-00.000019770000,   0.00080,
,,,-00.000019760000,  -0.00160,
,,,-00.000019750000,  -0.00320,
,,,-00.000019740000,   0.00000,
,,,-00.000019730000,   0.00240,
,,,-00.000019720000,   0.00080,
,,,-00.000019710000,  -0.00160,
,,,-00.000019700000,   0.00080,
,,,-00.000019690000,   0.00400,
,,,-00.000019680000,   0.00160,
,,,-00.000019670000,   0.00000,
,,,-00.000019660000,   0.00400,
,,,-00.000019650000,   0.00560,
,,,-00.000019640000,   0.00240,
,,,-00.000019630000,   0.00160,
,,,-00.000019620000,   0.00400,
,,,-00.000019610000,   0.00560,
,,,-00.000019600000,   0.00480,
,,,-00.000019590000,   0.00320,
,,,-00.000019580000,   0.00560,
,,,-00.000019570000,   0.00640,
,,,-00.000019560000,   0.00480,
,,,-00.000019550000,   0.00560,
,,,-00.000019540000,   0.00640,
,,,-00.000019530000,   0.00800,
,,,-00.000019520000,   0.00720,
,,,-00.000019510000,   0.00640,
,,,-00.000019500000,   0.00720,
,,,-00.000019490000,   0.00720,
,,,-00.000019480000,   0.00800,
,,,-00.000019470000,   0.00800,
,,,-00.000019460000,   0.00720,
,,,-00.000019450000,   0.00800,
,,,-00.000019440000,   0.01040,
,,,-00.000019430000,   0.00880,
,,,-00.000019420000,   0.00800,
,,,-00.000019410000,   0.00960,
,,,-00.000019400000,   0.00960,
,,,-00.000019390000,   0.00960,
,,,-00.000019380000,   0.00880,
,,,-00.000019370000,   0.00960,
,,,-00.000019360000,   0.00960,
,,,-00.000019350000,   0.00960,
,,,-00.000019340000,   0.00960,
,,,-00.000019330000,   0.01040,
,,,-00.000019320000,   0.01040,
,,,-00.000019310000,   0.01040,
,,,-00.000019300000,   0.01040,
,,,-00.000019290000,   0.01040,
,,,-00.000019280000,   0.01040,
,,,-00.000019270000,   0.01120,
,,,-00.000019260000,   0.01040,
,,,-00.000019250000,   0.01040,
,,,-00.000019240000,   0.01120,
,,,-00.000019230000,   0.01120,
,,,-00.000019220000,   0.01200,
,,,-00.000019210000,   0.01120,
,,,-00.000019200000,   0.01120,
,,,-00.000019190000,   0.01200,
,,,-00.000019180000,   0.01200,
,,,-00.000019170000,   0.01120,
,,,-00.000019160000,   0.01120,
,,,-00.000019150000,   0.01200,
,,,-00.000019140000,   0.01120,
,,,-00.000019130000,   0.01200,
,,,-00.000019120000,   0.01120,
,,,-00.000019110000,   0.01200,
,,,-00.000019100000,   0.01200,
,,,-00.000019090000,   0.01200,
,,,-00.000019080000,   0.01280,
,,,-00.000019070000,   0.01280,
,,,-00.000019060000,   0.01200,
,,,-00.000019050000,   0.01280,
,,,-00.000019040000,   0.01360,
,,,-00.000019030000,   0.01280,
,,,-00.000019020000,   0.01200,
,,,-00.000019010000,   0.01280,
,,,-00.000019000000,   0.01360,
,,,-00.000018990000,   0.01280,
,,,-00.000018980000,   0.01200,
,,,-00.000018970000,   0.01280,
,,,-00.000018960000,   0.01280,
,,,-00.000018950000,   0.01360,
,,,-00.000018940000,   0.01360,
,,,-00.000018930000,   0.01280,
,,,-00.000018920000,   0.01280,
,,,-00.000018910000,   0.01280,
,,,-00.000018900000,   0.01360,
,,,-00.000018890000,   0.01280,
,,,-00.000018880000,   0.01360,
,,,-00.000018870000,   0.01360,
,,,-00.000018860000,   0.01360,
,,,-00.000018850000,   0.01360,
,,,-00.000018840000,   0.01280,
,,,-00.000018830000,   0.01360,
,,,-00.000018820000,   0.01360,
,,,-00.000018810000,   0.01360,
,,,-00.000018800000,   0.01360,
,,,-00.000018790000,   0.01360,
,,,-00.000018780000,   0.01360,
,,,-00.000018770000,   0.01360,
,,,-00.000018760000,   0.01360,
,,,-00.000018750000,   0.01280,
,,,-00.000018740000,   0.01280,
,,,-00.000018730000,   0.01280,
,,,-00.000018720000,   0.01280,
,,,-00.000018710000,   0.01360,
,,,-00.000018700000,   0.01360,
,,,-00.000018690000,   0.01280,
,,,-00.000018680000,   0.01360,
,,,-00.000018670000,   0.01360,
,,,-00.000018660000,   0.01360,
,,,-00.000018650000,   0.01360,
,,,-00.000018640000,   0.01360,
,,,-00.000018630000,   0.01360,
,,,-00.000018620000,   0.01360,
,,,-00.000018610000,   0.01360,
,,,-00.000018600000,   0.01360,
,,,-00.000018590000,   0.01440,
,,,-00.000018580000,   0.01360,
,,,-00.000018570000,   0.01360,
,,,-00.000018560000,   0.01280,
,,,-00.000018550000,   0.01440,
,,,-00.000018540000,   0.01440,
,,,-00.000018530000,   0.01360,
,,,-00.000018520000,   0.01280,
,,,-00.000018510000,   0.01440,
,,,-00.000018500000,   0.01440,
,,,-00.000018490000,   0.01360,
,,,-00.000018480000,   0.01360,
,,,-00.000018470000,   0.01360,
,,,-00.000018460000,   0.01360,
,,,-00.000018450000,   0.01360,
,,,-00.000018440000,   0.01360,
,,,-00.000018430000,   0.01360,
,,,-00.000018420000,   0.01360,
,,,-00.000018410000,   0.01280,
,,,-00.000018400000,   0.01360,
,,,-00.000018390000,   0.01280,
,,,-00.000018380000,   0.01280,
,,,-00.000018370000,   0.01280,
,,,-00.000018360000,   0.01360,
,,,-00.000018350000,   0.01360,
,,,-00.000018340000,   0.01440,
,,,-00.000018330000,   0.01360,
,,,-00.000018320000,   0.01360,
,,,-00.000018310000,   0.01360,
,,,-00.000018300000,   0.01360,
,,,-00.000018290000,   0.01360,
,,,-00.000018280000,   0.01360,
,,,-00.000018270000,   0.01360,
,,,-00.000018260000,   0.01280,
,,,-00.000018250000,   0.01360,
,,,-00.000018240000,   0.01360,
,,,-00.000018230000,   0.01360,
,,,-00.000018220000,   0.01440,
,,,-00.000018210000,   0.01440,
,,,-00.000018200000,   0.01360,
,,,-00.000018190000,   0.01440,
,,,-00.000018180000,   0.01360,
,,,-00.000018170000,   0.01280,
,,,-00.000018160000,   0.01440,
,,,-00.000018150000,   0.01360,
,,,-00.000018140000,   0.01360,
,,,-00.000018130000,   0.01360,
,,,-00.000018120000,   0.01360,
,,,-00.000018110000,   0.01440,
,,,-00.000018100000,   0.01440,
,,,-00.000018090000,   0.01440,
,,,-00.000018080000,   0.01360,
,,,-00.000018070000,   0.01440,
,,,-00.000018060000,   0.01440,
,,,-00.000018050000,   0.01440,
,,,-00.000018040000,   0.01360,
,,,-00.000018030000,   0.01360,
,,,-00.000018020000,   0.01360,
,,,-00.000018010000,   0.01440,
,,,-00.000018000000,   0.01440,
,,,-00.000017990000,   0.01360,
,,,-00.000017980000,   0.01360,
,,,-00.000017970000,   0.01280,
,,,-00.000017960000,   0.01360,
,,,-00.000017950000,   0.01360,
,,,-00.000017940000,   0.01360,
,,,-00.000017930000,   0.01360,
,,,-00.000017920000,   0.01440,
,,,-00.000017910000,   0.01440,
,,,-00.000017900000,   0.01440,
,,,-00.000017890000,   0.01440,
,,,-00.000017880000,   0.01280,
,,,-00.000017870000,   0.01360,
,,,-00.000017860000,   0.01440,
,,,-00.000017850000,   0.01440,
,,,-00.000017840000,   0.01360,
,,,-00.000017830000,   0.01360,
,,,-00.000017820000,   0.01280,
,,,-00.000017810000,   0.01280,
,,,-00.000017800000,   0.01360,
,,,-00.000017790000,   0.01360,
,,,-00.000017780000,   0.01360,
,,,-00.000017770000,   0.01360,
,,,-00.000017760000,   0.01360,
,,,-00.000017750000,   0.01440,
,,,-00.000017740000,   0.01440,
,,,-00.000017730000,   0.01360,
,,,-00.000017720000,   0.01360,
,,,-00.000017710000,   0.01440,
,,,-00.000017700000,   0.01360,
,,,-00.000017690000,   0.01360,
,,,-00.000017680000,   0.01440,
,,,-00.000017670000,   0.01440,
,,,-00.000017660000,   0.01360,
,,,-00.000017650000,   0.01280,
,,,-00.000017640000,   0.01360,
,,,-00.000017630000,   0.01440,
,,,-00.000017620000,   0.01440,
,,,-00.000017610000,   0.01280,
,,,-00.000017600000,   0.01360,
,,,-00.000017590000,   0.01360,
,,,-00.000017580000,   0.01360,
,,,-00.000017570000,   0.01360,
,,,-00.000017560000,   0.01360,
,,,-00.000017550000,   0.01440,
,,,-00.000017540000,   0.01360,
,,,-00.000017530000,   0.01360,
,,,-00.000017520000,   0.01360,
,,,-00.000017510000,   0.01360,
,,,-00.000017500000,   0.01360,
,,,-00.000017490000,   0.01360,
,,,-00.000017480000,   0.01360,
,,,-00.000017470000,   0.01360,
,,,-00.000017460000,   0.01440,
,,,-00.000017450000,   0.01440,
,,,-00.000017440000,   0.01440,
,,,-00.000017430000,   0.01360,
,,,-00.000017420000,   0.01360,
,,,-00.000017410000,   0.01440,
,,,-00.000017400000,   0.01440,
,,,-00.000017390000,   0.01440,
,,,-00.000017380000,   0.01280,
,,,-00.000017370000,   0.01360,
,,,-00.000017360000,   0.01440,
,,,-00.000017350000,   0.01360,
,,,-00.000017340000,   0.01360,
,,,-00.000017330000,   0.01360,
,,,-00.000017320000,   0.01360,
,,,-00.000017310000,   0.01360,
,,,-00.000017300000,   0.01360,
,,,-00.000017290000,   0.01360,
,,,-00.000017280000,   0.01360,
,,,-00.000017270000,   0.01360,
,,,-00.000017260000,   0.01360,
,,,-00.000017250000,   0.01360,
,,,-00.000017240000,   0.01280,
,,,-00.000017230000,   0.01360,
,,,-00.000017220000,   0.01360,
,,,-00.000017210000,   0.01360,
,,,-00.000017200000,   0.01280,
,,,-00.000017190000,   0.01280,
,,,-00.000017180000,   0.01360,
,,,-00.000017170000,   0.01280,
,,,-00.000017160000,   0.01280,
,,,-00.000017150000,   0.01360,
,,,-00.000017140000,   0.01440,
,,,-00.000017130000,   0.01360,
,,,-00.000017120000,   0.01440,
,,,-00.000017110000,   0.01360,
,,,-00.000017100000,   0.01280,
,,,-00.000017090000,   0.01280,
,,,-00.000017080000,   0.01360,
,,,-00.000017070000,   0.01360,
,,,-00.000017060000,   0.01360,
,,,-00.000017050000,   0.01360,
,,,-00.000017040000,   0.01360,
,,,-00.000017030000,   0.01360,
,,,-00.000017020000,   0.01360,
,,,-00.000017010000,   0.01360,
,,,-00.000017000000,   0.01280,
,,,-00.000016990000,   0.01280,
,,,-00.000016980000,   0.01280,
,,,-00.000016970000,   0.01360,
,,,-00.000016960000,   0.01360,
,,,-00.000016950000,   0.01360,
,,,-00.000016940000,   0.01360,
,,,-00.000016930000,   0.01360,
,,,-00.000016920000,   0.01440,
,,,-00.000016910000,   0.01360,
,,,-00.000016900000,   0.01360,
,,,-00.000016890000,   0.01280,
,,,-00.000016880000,   0.01360,
,,,-00.000016870000,   0.01360,
,,,-00.000016860000,   0.01360,
,,,-00.000016850000,   0.01280,
,,,-00.000016840000,   0.01280,
,,,-00.000016830000,   0.01280,
,,,-00.000016820000,   0.01360,
,,,-00.000016810000,   0.01440,
,,,-00.000016800000,   0.01440,
,,,-00.000016790000,   0.01360,
,,,-00.000016780000,   0.01280,
,,,-00.000016770000,   0.01360,
,,,-00.000016760000,   0.01360,
,,,-00.000016750000,   0.01360,
,,,-00.000016740000,   0.01360,
,,,-00.000016730000,   0.01360,
,,,-00.000016720000,   0.01360,
,,,-00.000016710000,   0.01360,
,,,-00.000016700000,   0.01360,
,,,-00.000016690000,   0.01280,
,,,-00.000016680000,   0.01360,
,,,-00.000016670000,   0.01280,
,,,-00.000016660000,   0.01360,
,,,-00.000016650000,   0.01360,
,,,-00.000016640000,   0.01280,
,,,-00.000016630000,   0.01280,
,,,-00.000016620000,   0.01360,
,,,-00.000016610000,   0.01360,
,,,-00.000016600000,   0.01440,
,,,-00.000016590000,   0.01360,
,,,-00.000016580000,   0.01360,
,,,-00.000016570000,   0.01280,
,,,-00.000016560000,   0.01280,
,,,-00.000016550000,   0.01280,
,,,-00.000016540000,   0.01280,
,,,-00.000016530000,   0.01280,
,,,-00.000016520000,   0.01280,
,,,-00.000016510000,   0.01280,
,,,-00.000016500000,   0.01280,
,,,-00.000016490000,   0.01280,
,,,-00.000016480000,   0.01360,
,,,-00.000016470000,   0.01440,
,,,-00.000016460000,   0.01440,
,,,-00.000016450000,   0.01360,
,,,-00.000016440000,   0.01440,
,,,-00.000016430000,   0.01280,
,,,-00.000016420000,   0.01280,
,,,-00.000016410000,   0.01360,
,,,-00.000016400000,   0.01280,
,,,-00.000016390000,   0.01280,
,,,-00.000016380000,   0.01280,
,,,-00.000016370000,   0.01360,
,,,-00.000016360000,   0.01360,
,,,-00.000016350000,   0.01360,
,,,-00.000016340000,   0.01280,
,,,-00.000016330000,   0.01280,
,,,-00.000016320000,   0.01360,
,,,-00.000016310000,   0.01360,
,,,-00.000016300000,   0.01280,
,,,-00.000016290000,   0.01360,
,,,-00.000016280000,   0.01280,
,,,-00.000016270000,   0.01440,
,,,-00.000016260000,   0.01360,
,,,-00.000016250000,   0.01360,
,,,-00.000016240000,   0.01360,
,,,-00.000016230000,   0.01360,
,,,-00.000016220000,   0.01280,
,,,-00.000016210000,   0.01360,
,,,-00.000016200000,   0.01360,
,,,-00.000016190000,   0.01360,
,,,-00.000016180000,   0.01360,
,,,-00.000016170000,   0.01280,
,,,-00.000016160000,   0.01280,
,,,-00.000016150000,   0.01280,
,,,-00.000016140000,   0.01360,
,,,-00.000016130000,   0.01360,
,,,-00.000016120000,   0.01360,
,,,-00.000016110000,   0.01360,
,,,-00.000016100000,   0.01360,
,,,-00.000016090000,   0.01360,
,,,-00.000016080000,   0.01280,
,,,-00.000016070000,   0.01360,
,,,-00.000016060000,   0.01360,
,,,-00.000016050000,   0.01360,
,,,-00.000016040000,   0.01360,
,,,-00.000016030000,   0.01360,
,,,-00.000016020000,   0.01280,
,,,-00.000016010000,   0.01200,
,,,-00.000016000000,   0.01360,
,,,-00.000015990000,   0.01440,
,,,-00.000015980000,   0.01440,
,,,-00.000015970000,   0.01280,
,,,-00.000015960000,   0.01200,
,,,-00.000015950000,   0.01280,
,,,-00.000015940000,   0.01280,
,,,-00.000015930000,   0.01280,
,,,-00.000015920000,   0.01360,
,,,-00.000015910000,   0.01360,
,,,-00.000015900000,   0.01360,
,,,-00.000015890000,   0.01360,
,,,-00.000015880000,   0.01360,
,,,-00.000015870000,   0.01360,
,,,-00.000015860000,   0.01440,
,,,-00.000015850000,   0.01280,
,,,-00.000015840000,   0.01280,
,,,-00.000015830000,   0.01360,
,,,-00.000015820000,   0.01360,
,,,-00.000015810000,   0.01440,
,,,-00.000015800000,   0.01360,
,,,-00.000015790000,   0.01280,
,,,-00.000015780000,   0.01280,
,,,-00.000015770000,   0.01360,
,,,-00.000015760000,   0.01360,
,,,-00.000015750000,   0.01280,
,,,-00.000015740000,   0.01360,
,,,-00.000015730000,   0.01360,
,,,-00.000015720000,   0.01360,
,,,-00.000015710000,   0.01360,
,,,-00.000015700000,   0.01360,
,,,-00.000015690000,   0.01280,
,,,-00.000015680000,   0.01280,
,,,-00.000015670000,   0.01280,
,,,-00.000015660000,   0.01280,
,,,-00.000015650000,   0.01280,
,,,-00.000015640000,   0.01360,
,,,-00.000015630000,   0.01360,
,,,-00.000015620000,   0.01360,
,,,-00.000015610000,   0.01360,
,,,-00.000015600000,   0.01280,
,,,-00.000015590000,   0.01280,
,,,-00.000015580000,   0.01280,
,,,-00.000015570000,   0.01280,
,,,-00.000015560000,   0.01360,
,,,-00.000015550000,   0.01360,
,,,-00.000015540000,   0.01360,
,,,-00.000015530000,   0.01360,
,,,-00.000015520000,   0.01360,
,,,-00.000015510000,   0.01360,
,,,-00.000015500000,   0.01440,
,,,-00.000015490000,   0.01280,
,,,-00.000015480000,   0.01360,
,,,-00.000015470000,   0.01280,
,,,-00.000015460000,   0.01280,
,,,-00.000015450000,   0.01360,
,,,-00.000015440000,   0.01360,
,,,-00.000015430000,   0.01280,
,,,-00.000015420000,   0.01280,
,,,-00.000015410000,   0.01280,
,,,-00.000015400000,   0.01200,
,,,-00.000015390000,   0.01360,
,,,-00.000015380000,   0.01360,
,,,-00.000015370000,   0.01360,
,,,-00.000015360000,   0.01280,
,,,-00.000015350000,   0.01280,
,,,-00.000015340000,   0.01360,
,,,-00.000015330000,   0.01360,
,,,-00.000015320000,   0.01280,
,,,-00.000015310000,   0.01280,
,,,-00.000015300000,   0.01360,
,,,-00.000015290000,   0.01360,
,,,-00.000015280000,   0.01280,
,,,-00.000015270000,   0.01280,
,,,-00.000015260000,   0.01360,
,,,-00.000015250000,   0.01280,
,,,-00.000015240000,   0.01200,
,,,-00.000015230000,   0.01280,
,,,-00.000015220000,   0.01280,
,,,-00.000015210000,   0.01360,
,,,-00.000015200000,   0.01280,
,,,-00.000015190000,   0.01280,
,,,-00.000015180000,   0.01280,
,,,-00.000015170000,   0.01280,
