elettronica/esperienza_1/oscilloscopio/RC tempo - scarica 1/F0000CH1.CSV

Record Length,2.500000e+03,,   0.009500000000,   4.64000,
Sample Interval,2.000000e-06,,   0.009502000000,   4.64000,
Trigger Point,-4.750000000000e+03,,   0.009504000000,   4.64000,
,,,   0.009506000000,   4.64000,
,,,   0.009508000000,   4.64000,
,,,   0.009510000000,   4.64000,
Source,CH1,,   0.009512000000,   4.64000,
Vertical Units,V,,   0.009514000000,   4.64000,
Vertical Scale,1.000000e+00,,   0.009516000000,   4.64000,
Vertical Offset,-2.200000e+00,,   0.009518000000,   4.64000,
Horizontal Units,s,,   0.009520000000,   4.64000,
Horizontal Scale,5.000000e-04,,   0.009522000000,   4.64000,
Pt Fmt,Y,,   0.009524000000,   4.64000,
Yzero,0.000000e+00,,   0.009526000000,   4.64000,
Probe Atten,1.000000e+00,,   0.009528000000,   4.64000,
Model Number,TBS1102B-EDU,,   0.009530000000,   4.64000,
Serial Number,C021597,,   0.009532000000,   4.64000,
Firmware Version,FV:v4.06,,   0.009534000000,   4.64000,
,,,0.009536000000,   4.64000,
,,,0.009538000000,   4.64000,
,,,0.009540000000,   4.64000,
,,,0.009542000000,   4.64000,
,,,0.009544000000,   4.64000,
,,,0.009546000000,   4.64000,
,,,0.009548000000,   4.64000,
,,,0.009550000000,   4.64000,
,,,0.009552000000,   4.64000,
,,,0.009554000000,   4.64000,
,,,0.009556000000,   4.64000,
,,,0.009558000000,   4.64000,
,,,0.009560000000,   4.64000,
,,,0.009562000000,   4.64000,
,,,0.009564000000,   4.64000,
,,,0.009566000000,   4.64000,
,,,0.009568000000,   4.64000,
,,,0.009570000000,   4.64000,
,,,0.009572000000,   4.64000,
,,,0.009574000000,   4.64000,
,,,0.009576000000,   4.64000,
,,,0.009578000000,   4.64000,
,,,0.009580000000,   4.64000,
,,,0.009582000000,   4.64000,
,,,0.009584000000,   4.64000,
,,,0.009586000000,   4.64000,
,,,0.009588000000,   4.64000,
,,,0.009590000000,   4.64000,
,,,0.009592000000,   4.64000,
,,,0.009594000000,   4.64000,
,,,0.009596000000,   4.64000,
,,,0.009598000000,   4.64000,
,,,0.009600000000,   4.64000,
,,,0.009602000000,   4.64000,
,,,0.009604000000,   4.64000,
,,,0.009606000000,   4.64000,
,,,0.009608000000,   4.64000,
,,,0.009610000000,   4.64000,
,,,0.009612000000,   4.64000,
,,,0.009614000000,   4.64000,
,,,0.009616000000,   4.64000,
,,,0.009618000000,   4.64000,
,,,0.009620000000,   4.64000,
,,,0.009622000000,   4.64000,
,,,0.009624000000,   4.64000,
,,,0.009626000000,   4.64000,
,,,0.009628000000,   4.64000,
,,,0.009630000000,   4.64000,
,,,0.009632000000,   4.64000,
,,,0.009634000000,   4.64000,
,,,0.009636000000,   4.64000,
,,,0.009638000000,   4.64000,
,,,0.009640000000,   4.64000,
,,,0.009642000000,   4.64000,
,,,0.009644000000,   4.64000,
,,,0.009646000000,   4.64000,
,,,0.009648000000,   4.64000,
,,,0.009650000000,   4.64000,
,,,0.009652000000,   4.64000,
,,,0.009654000000,   4.64000,
,,,0.009656000000,   4.64000,
,,,0.009658000000,   4.64000,
,,,0.009660000000,   4.64000,
,,,0.009662000000,   4.64000,
,,,0.009664000000,   4.64000,
,,,0.009666000000,   4.64000,
,,,0.009668000000,   4.64000,
,,,0.009670000000,   4.64000,
,,,0.009672000000,   4.64000,
,,,0.009674000000,   4.64000,
,,,0.009676000000,   4.64000,
,,,0.009678000000,   4.64000,
,,,0.009680000000,   4.64000,
,,,0.009682000000,   4.64000,
,,,0.009684000000,   4.64000,
,,,0.009686000000,   4.64000,
,,,0.009688000000,   4.64000,
,,,0.009690000000,   4.64000,
,,,0.009692000000,   4.64000,
,,,0.009694000000,   4.60000,
,,,0.009696000000,   4.60000,
,,,0.009698000000,   4.56000,
,,,0.009700000000,   4.56000,
,,,0.009702000000,   4.52000,
,,,0.009704000000,   4.52000,
,,,0.009706000000,   4.52000,
,,,0.009708000000,   4.48000,
,,,0.009710000000,   4.48000,
,,,0.009712000000,   4.44000,
,,,0.009714000000,   4.44000,
,,,0.009716000000,   4.40000,
,,,0.009718000000,   4.40000,
,,,0.009720000000,   4.36000,
,,,0.009722000000,   4.36000,
,,,0.009724000000,   4.32000,
,,,0.009726000000,   4.32000,
,,,0.009728000000,   4.32000,
,,,0.009730000000,   4.28000,
,,,0.009732000000,   4.28000,
,,,0.009734000000,   4.24000,
,,,0.009736000000,   4.24000,
,,,0.009738000000,   4.24000,
,,,0.009740000000,   4.20000,
,,,0.009742000000,   4.20000,
,,,0.009744000000,   4.16000,
,,,0.009746000000,   4.16000,
,,,0.009748000000,   4.12000,
,,,0.009750000000,   4.12000,
,,,0.009752000000,   4.12000,
,,,0.009754000000,   4.08000,
,,,0.009756000000,   4.08000,
,,,0.009758000000,   4.04000,
,,,0.009760000000,   4.04000,
,,,0.009762000000,   4.04000,
,,,0.009764000000,   4.00000,
,,,0.009766000000,   4.00000,
,,,0.009768000000,   4.00000,
,,,0.009770000000,   3.96000,
,,,0.009772000000,   3.96000,
,,,0.009774000000,   3.92000,
,,,0.009776000000,   3.92000,
,,,0.009778000000,   3.92000,
,,,0.009780000000,   3.88000,
,,,0.009782000000,   3.88000,
,,,0.009784000000,   3.88000,
,,,0.009786000000,   3.84000,
,,,0.009788000000,   3.84000,
,,,0.009790000000,   3.84000,
,,,0.009792000000,   3.80000,
,,,0.009794000000,   3.80000,
,,,0.009796000000,   3.76000,
,,,0.009798000000,   3.76000,
,,,0.009800000000,   3.76000,
,,,0.009802000000,   3.72000,
,,,0.009804000000,   3.72000,
,,,0.009806000000,   3.72000,
,,,0.009808000000,   3.68000,
,,,0.009810000000,   3.68000,
,,,0.009812000000,   3.64000,
,,,0.009814000000,   3.64000,
,,,0.009816000000,   3.64000,
,,,0.009818000000,   3.60000,
,,,0.009820000000,   3.60000,
,,,0.009822000000,   3.60000,
,,,0.009824000000,   3.56000,
,,,0.009826000000,   3.56000,
,,,0.009828000000,   3.56000,
,,,0.009830000000,   3.52000,
,,,0.009832000000,   3.52000,
,,,0.009834000000,   3.52000,
,,,0.009836000000,   3.48000,
,,,0.009838000000,   3.48000,
,,,0.009840000000,   3.48000,
,,,0.009842000000,   3.44000,
,,,0.009844000000,   3.44000,
,,,0.009846000000,   3.44000,
,,,0.009848000000,   3.40000,
,,,0.009850000000,   3.40000,
,,,0.009852000000,   3.40000,
,,,0.009854000000,   3.36000,
,,,0.009856000000,   3.36000,
,,,0.009858000000,   3.36000,
,,,0.009860000000,   3.32000,
,,,0.009862000000,   3.32000,
,,,0.009864000000,   3.32000,
,,,0.009866000000,   3.28000,
,,,0.009868000000,   3.28000,
,,,0.009870000000,   3.28000,
,,,0.009872000000,   3.28000,
,,,0.009874000000,   3.24000,
,,,0.009876000000,   3.24000,
,,,0.009878000000,   3.24000,
,,,0.009880000000,   3.20000,
,,,0.009882000000,   3.20000,
,,,0.009884000000,   3.20000,
,,,0.009886000000,   3.16000,
,,,0.009888000000,   3.16000,
,,,0.009890000000,   3.16000,
,,,0.009892000000,   3.12000,
,,,0.009894000000,   3.12000,
,,,0.009896000000,   3.12000,
,,,0.009898000000,   3.08000,
,,,0.009900000000,   3.08000,
,,,0.009902000000,   3.08000,
,,,0.009904000000,   3.08000,
,,,0.009906000000,   3.08000,
,,,0.009908000000,   3.04000,
,,,0.009910000000,   3.04000,
,,,0.009912000000,   3.04000,
,,,0.009914000000,   3.00000,
,,,0.009916000000,   3.00000,
,,,0.009918000000,   3.00000,
,,,0.009920000000,   2.96000,
,,,0.009922000000,   2.96000,
,,,0.009924000000,   2.96000,
,,,0.009926000000,   2.96000,
,,,0.009928000000,   2.92000,
,,,0.009930000000,   2.92000,
,,,0.009932000000,   2.92000,
,,,0.009934000000,   2.88000,
,,,0.009936000000,   2.88000,
,,,0.009938000000,   2.88000,
,,,0.009940000000,   2.84000,
,,,0.009942000000,   2.84000,
,,,0.009944000000,   2.84000,
,,,0.009946000000,   2.84000,
,,,0.009948000000,   2.80000,
,,,0.009950000000,   2.80000,
,,,0.009952000000,   2.80000,
,,,0.009954000000,   2.76000,
,,,0.009956000000,   2.76000,
,,,0.009958000000,   2.76000,
,,,0.009960000000,   2.76000,
,,,0.009962000000,   2.72000,
,,,0.009964000000,   2.72000,
,,,0.009966000000,   2.72000,
,,,0.009968000000,   2.72000,
,,,0.009970000000,   2.72000,
,,,0.009972000000,   2.68000,
,,,0.009974000000,   2.68000,
,,,0.009976000000,   2.68000,
,,,0.009978000000,   2.64000,
,,,0.009980000000,   2.64000,
,,,0.009982000000,   2.64000,
,,,0.009984000000,   2.64000,
,,,0.009986000000,   2.60000,
,,,0.009988000000,   2.60000,
,,,0.009990000000,   2.60000,
,,,0.009992000000,   2.60000,
,,,0.009994000000,   2.56000,
,,,0.009996000000,   2.56000,
,,,0.009998000000,   2.56000,
,,,0.010000000000,   2.56000,
,,,0.010002000000,   2.56000,
,,,0.010004000000,   2.52000,
,,,0.010006000000,   2.52000,
,,,0.010008000000,   2.52000,
,,,0.010010000000,   2.52000,
,,,0.010012000000,   2.48000,
,,,0.010014000000,   2.48000,
,,,0.010016000000,   2.48000,
,,,0.010018000000,   2.48000,
,,,0.010020000000,   2.44000,
,,,0.010022000000,   2.44000,
,,,0.010024000000,   2.44000,
,,,0.010026000000,   2.44000,
,,,0.010028000000,   2.40000,
,,,0.010030000000,   2.40000,
,,,0.010032000000,   2.40000,
,,,0.010034000000,   2.40000,
,,,0.010036000000,   2.36000,
,,,0.010038000000,   2.36000,
,,,0.010040000000,   2.36000,
,,,0.010042000000,   2.36000,
,,,0.010044000000,   2.36000,
,,,0.010046000000,   2.32000,
,,,0.010048000000,   2.32000,
,,,0.010050000000,   2.32000,
,,,0.010052000000,   2.32000,
,,,0.010054000000,   2.32000,
,,,0.010056000000,   2.28000,
,,,0.010058000000,   2.28000,
,,,0.010060000000,   2.28000,
,,,0.010062000000,   2.28000,
,,,0.010064000000,   2.28000,
,,,0.010066000000,   2.24000,
,,,0.010068000000,   2.24000,
,,,0.010070000000,   2.24000,
,,,0.010072000000,   2.24000,
,,,0.010074000000,   2.20000,
,,,0.010076000000,   2.20000,
,,,0.010078000000,   2.20000,
,,,0.010080000000,   2.20000,
,,,0.010082000000,   2.20000,
,,,0.010084000000,   2.16000,
,,,0.010086000000,   2.16000,
,,,0.010088000000,   2.16000,
,,,0.010090000000,   2.16000,
,,,0.010092000000,   2.12000,
,,,0.010094000000,   2.12000,
,,,0.010096000000,   2.12000,
,,,0.010098000000,   2.12000,
,,,0.010100000000,   2.12000,
,,,0.010102000000,   2.08000,
,,,0.010104000000,   2.08000,
,,,0.010106000000,   2.08000,
,,,0.010108000000,   2.08000,
,,,0.010110000000,   2.08000,
,,,0.010112000000,   2.04000,
,,,0.010114000000,   2.04000,
,,,0.010116000000,   2.04000,
,,,0.010118000000,   2.04000,
,,,0.010120000000,   2.04000,
,,,0.010122000000,   2.00000,
,,,0.010124000000,   2.00000,
,,,0.010126000000,   2.00000,
,,,0.010128000000,   2.00000,
,,,0.010130000000,   2.00000,
,,,0.010132000000,   1.96000,
,,,0.010134000000,   1.96000,
,,,0.010136000000,   1.96000,
,,,0.010138000000,   1.96000,
,,,0.010140000000,   1.96000,
,,,0.010142000000,   1.92000,
,,,0.010144000000,   1.92000,
,,,0.010146000000,   1.92000,
,,,0.010148000000,   1.92000,
,,,0.010150000000,   1.92000,
,,,0.010152000000,   1.92000,
,,,0.010154000000,   1.88000,
,,,0.010156000000,   1.88000,
,,,0.010158000000,   1.88000,
,,,0.010160000000,   1.88000,
,,,0.010162000000,   1.88000,
,,,0.010164000000,   1.84000,
,,,0.010166000000,   1.84000,
,,,0.010168000000,   1.84000,
,,,0.010170000000,   1.84000,
,,,0.010172000000,   1.84000,
,,,0.010174000000,   1.80000,
,,,0.010176000000,   1.80000,
,,,0.010178000000,   1.80000,
,,,0.010180000000,   1.80000,
,,,0.010182000000,   1.80000,
,,,0.010184000000,   1.80000,
,,,0.010186000000,   1.80000,
,,,0.010188000000,   1.80000,
,,,0.010190000000,   1.76000,
,,,0.010192000000,   1.76000,
,,,0.010194000000,   1.76000,
,,,0.010196000000,   1.76000,
,,,0.010198000000,   1.76000,
,,,0.010200000000,   1.72000,
,,,0.010202000000,   1.72000,
,,,0.010204000000,   1.72000,
,,,0.010206000000,   1.72000,
,,,0.010208000000,   1.72000,
,,,0.010210000000,   1.72000,
,,,0.010212000000,   1.68000,
,,,0.010214000000,   1.68000,
,,,0.010216000000,   1.68000,
,,,0.010218000000,   1.68000,
,,,0.010220000000,   1.68000,
,,,0.010222000000,   1.68000,
,,,0.010224000000,   1.64000,
,,,0.010226000000,   1.64000,
,,,0.010228000000,   1.64000,
,,,0.010230000000,   1.64000,
,,,0.010232000000,   1.64000,
,,,0.010234000000,   1.64000,
,,,0.010236000000,   1.60000,
,,,0.010238000000,   1.60000,
,,,0.010240000000,   1.60000,
,,,0.010242000000,   1.60000,
,,,0.010244000000,   1.60000,
,,,0.010246000000,   1.60000,
,,,0.010248000000,   1.60000,
,,,0.010250000000,   1.60000,
,,,0.010252000000,   1.56000,
,,,0.010254000000,   1.56000,
,,,0.010256000000,   1.56000,
,,,0.010258000000,   1.56000,
,,,0.010260000000,   1.56000,
,,,0.010262000000,   1.56000,
,,,0.010264000000,   1.56000,
,,,0.010266000000,   1.52000,
,,,0.010268000000,   1.52000,
,,,0.010270000000,   1.52000,
,,,0.010272000000,   1.52000,
,,,0.010274000000,   1.52000,
,,,0.010276000000,   1.52000,
,,,0.010278000000,   1.48000,
,,,0.010280000000,   1.48000,
,,,0.010282000000,   1.48000,
,,,0.010284000000,   1.48000,
,,,0.010286000000,   1.48000,
,,,0.010288000000,   1.48000,
,,,0.010290000000,   1.48000,
,,,0.010292000000,   1.44000,
,,,0.010294000000,   1.44000,
,,,0.010296000000,   1.44000,
,,,0.010298000000,   1.44000,
,,,0.010300000000,   1.44000,
,,,0.010302000000,   1.44000,
,,,0.010304000000,   1.44000,
,,,0.010306000000,   1.40000,
,,,0.010308000000,   1.40000,
,,,0.010310000000,   1.40000,
,,,0.010312000000,   1.40000,
,,,0.010314000000,   1.40000,
,,,0.010316000000,   1.40000,
,,,0.010318000000,   1.40000,
,,,0.010320000000,   1.36000,
,,,0.010322000000,   1.36000,
,,,0.010324000000,   1.36000,
,,,0.010326000000,   1.36000,
,,,0.010328000000,   1.36000,
,,,0.010330000000,   1.36000,
,,,0.010332000000,   1.36000,
,,,0.010334000000,   1.36000,
,,,0.010336000000,   1.32000,
,,,0.010338000000,   1.32000,
,,,0.010340000000,   1.32000,
,,,0.010342000000,   1.32000,
,,,0.010344000000,   1.32000,
,,,0.010346000000,   1.32000,
,,,0.010348000000,   1.32000,
,,,0.010350000000,   1.28000,
,,,0.010352000000,   1.28000,
,,,0.010354000000,   1.28000,
,,,0.010356000000,   1.28000,
,,,0.010358000000,   1.28000,
,,,0.010360000000,   1.28000,
,,,0.010362000000,   1.28000,
,,,0.010364000000,   1.28000,
,,,0.010366000000,   1.24000,
,,,0.010368000000,   1.24000,
,,,0.010370000000,   1.24000,
,,,0.010372000000,   1.24000,
,,,0.010374000000,   1.24000,
,,,0.010376000000,   1.24000,
,,,0.010378000000,   1.24000,
,,,0.010380000000,   1.24000,
,,,0.010382000000,   1.20000,
,,,0.010384000000,   1.20000,
,,,0.010386000000,   1.20000,
,,,0.010388000000,   1.20000,
,,,0.010390000000,   1.20000,
,,,0.010392000000,   1.20000,
,,,0.010394000000,   1.20000,
,,,0.010396000000,   1.20000,
,,,0.010398000000,   1.20000,
,,,0.010400000000,   1.20000,
,,,0.010402000000,   1.16000,
,,,0.010404000000,   1.16000,
,,,0.010406000000,   1.16000,
,,,0.010408000000,   1.16000,
,,,0.010410000000,   1.16000,
,,,0.010412000000,   1.16000,
,,,0.010414000000,   1.16000,
,,,0.010416000000,   1.16000,
,,,0.010418000000,   1.16000,
,,,0.010420000000,   1.12000,
,,,0.010422000000,   1.12000,
,,,0.010424000000,   1.12000,
,,,0.010426000000,   1.12000,
,,,0.010428000000,   1.12000,
,,,0.010430000000,   1.12000,
,,,0.010432000000,   1.12000,
,,,0.010434000000,   1.12000,
,,,0.010436000000,   1.08000,
,,,0.010438000000,   1.08000,
,,,0.010440000000,   1.08000,
,,,0.010442000000,   1.08000,
,,,0.010444000000,   1.08000,
,,,0.010446000000,   1.08000,
,,,0.010448000000,   1.08000,
,,,0.010450000000,   1.08000,
,,,0.010452000000,   1.08000,
,,,0.010454000000,   1.08000,
,,,0.010456000000,   1.08000,
,,,0.010458000000,   1.08000,
,,,0.010460000000,   1.08000,
,,,0.010462000000,   1.04000,
,,,0.010464000000,   1.04000,
,,,0.010466000000,   1.04000,
,,,0.010468000000,   1.04000,
,,,0.010470000000,   1.04000,
,,,0.010472000000,   1.04000,
,,,0.010474000000,   1.04000,
,,,0.010476000000,   1.04000,
,,,0.010478000000,   1.04000,
,,,0.010480000000,   1.04000,
,,,0.010482000000,   1.00000,
,,,0.010484000000,   1.00000,
,,,0.010486000000,   1.00000,
,,,0.010488000000,   1.00000,
,,,0.010490000000,   1.00000,
,,,0.010492000000,   1.00000,
,,,0.010494000000,   1.00000,
,,,0.010496000000,   1.00000,
,,,0.010498000000,   1.00000,
,,,0.010500000000,   0.96000,
,,,0.010502000000,   0.96000,
,,,0.010504000000,   0.96000,
,,,0.010506000000,   0.96000,
,,,0.010508000000,   0.96000,
,,,0.010510000000,   0.96000,
,,,0.010512000000,   0.96000,
,,,0.010514000000,   0.96000,
,,,0.010516000000,   0.96000,
,,,0.010518000000,   0.96000,
,,,0.010520000000,   0.96000,
,,,0.010522000000,   0.92000,
,,,0.010524000000,   0.92000,
,,,0.010526000000,   0.92000,
,,,0.010528000000,   0.92000,
,,,0.010530000000,   0.92000,
,,,0.010532000000,   0.92000,
,,,0.010534000000,   0.92000,
,,,0.010536000000,   0.92000,
,,,0.010538000000,   0.92000,
,,,0.010540000000,   0.92000,
,,,0.010542000000,   0.88000,
,,,0.010544000000,   0.88000,
,,,0.010546000000,   0.88000,
,,,0.010548000000,   0.88000,
,,,0.010550000000,   0.88000,
,,,0.010552000000,   0.88000,
,,,0.010554000000,   0.88000,
,,,0.010556000000,   0.88000,
,,,0.010558000000,   0.88000,
,,,0.010560000000,   0.88000,
,,,0.010562000000,   0.88000,
,,,0.010564000000,   0.88000,
,,,0.010566000000,   0.84000,
,,,0.010568000000,   0.84000,
,,,0.010570000000,   0.84000,
,,,0.010572000000,   0.84000,
,,,0.010574000000,   0.84000,
,,,0.010576000000,   0.84000,
,,,0.010578000000,   0.84000,
,,,0.010580000000,   0.84000,
,,,0.010582000000,   0.84000,
,,,0.010584000000,   0.84000,
,,,0.010586000000,   0.84000,
,,,0.010588000000,   0.84000,
,,,0.010590000000,   0.80000,
,,,0.010592000000,   0.80000,
,,,0.010594000000,   0.80000,
,,,0.010596000000,   0.80000,
,,,0.010598000000,   0.80000,
,,,0.010600000000,   0.80000,
,,,0.010602000000,   0.80000,
,,,0.010604000000,   0.80000,
,,,0.010606000000,   0.80000,
,,,0.010608000000,   0.80000,
,,,0.010610000000,   0.80000,
,,,0.010612000000,   0.80000,
,,,0.010614000000,   0.80000,
,,,0.010616000000,   0.80000,
,,,0.010618000000,   0.80000,
,,,0.010620000000,   0.80000,
,,,0.010622000000,   0.76000,
,,,0.010624000000,   0.76000,
,,,0.010626000000,   0.76000,
,,,0.010628000000,   0.76000,
,,,0.010630000000,   0.76000,
,,,0.010632000000,   0.76000,
,,,0.010634000000,   0.76000,
,,,0.010636000000,   0.76000,
,,,0.010638000000,   0.76000,
,,,0.010640000000,   0.76000,
,,,0.010642000000,   0.76000,
,,,0.010644000000,   0.76000,
,,,0.010646000000,   0.76000,
,,,0.010648000000,   0.72000,
,,,0.010650000000,   0.72000,
,,,0.010652000000,   0.72000,
,,,0.010654000000,   0.72000,
,,,0.010656000000,   0.72000,
,,,0.010658000000,   0.72000,
,,,0.010660000000,   0.72000,
,,,0.010662000000,   0.72000,
,,,0.010664000000,   0.72000,
,,,0.010666000000,   0.72000,
,,,0.010668000000,   0.72000,
,,,0.010670000000,   0.72000,
,,,0.010672000000,   0.72000,
,,,0.010674000000,   0.72000,
,,,0.010676000000,   0.68000,
,,,0.010678000000,   0.68000,
,,,0.010680000000,   0.68000,
,,,0.010682000000,   0.68000,
,,,0.010684000000,   0.68000,
,,,0.010686000000,   0.68000,
,,,0.010688000000,   0.68000,
,,,0.010690000000,   0.68000,
,,,0.010692000000,   0.68000,
,,,0.010694000000,   0.68000,
,,,0.010696000000,   0.68000,
,,,0.010698000000,   0.68000,
,,,0.010700000000,   0.68000,
,,,0.010702000000,   0.68000,
,,,0.010704000000,   0.68000,
,,,0.010706000000,   0.64000,
,,,0.010708000000,   0.64000,
,,,0.010710000000,   0.64000,
,,,0.010712000000,   0.64000,
,,,0.010714000000,   0.64000,
,,,0.010716000000,   0.64000,
,,,0.010718000000,   0.64000,
,,,0.010720000000,   0.64000,
,,,0.010722000000,   0.64000,
,,,0.010724000000,   0.64000,
,,,0.010726000000,   0.64000,
,,,0.010728000000,   0.64000,
,,,0.010730000000,   0.64000,
,,,0.010732000000,   0.64000,
,,,0.010734000000,   0.64000,
,,,0.010736000000,   0.60000,
,,,0.010738000000,   0.60000,
,,,0.010740000000,   0.60000,
,,,0.010742000000,   0.60000,
,,,0.010744000000,   0.60000,
,,,0.010746000000,   0.60000,
,,,0.010748000000,   0.60000,
,,,0.010750000000,   0.60000,
,,,0.010752000000,   0.60000,
,,,0.010754000000,   0.60000,
,,,0.010756000000,   0.60000,
,,,0.010758000000,   0.60000,
,,,0.010760000000,   0.60000,
,,,0.010762000000,   0.60000,
,,,0.010764000000,   0.60000,
,,,0.010766000000,   0.60000,
,,,0.010768000000,   0.60000,
,,,0.010770000000,   0.56000,
,,,0.010772000000,   0.56000,
,,,0.010774000000,   0.56000,
,,,0.010776000000,   0.56000,
,,,0.010778000000,   0.56000,
,,,0.010780000000,   0.56000,
,,,0.010782000000,   0.56000,
,,,0.010784000000,   0.56000,
,,,0.010786000000,   0.56000,
,,,0.010788000000,   0.56000,
,,,0.010790000000,   0.56000,
,,,0.010792000000,   0.56000,
,,,0.010794000000,   0.56000,
,,,0.010796000000,   0.56000,
,,,0.010798000000,   0.56000,
,,,0.010800000000,   0.56000,
,,,0.010802000000,   0.56000,
,,,0.010804000000,   0.56000,
,,,0.010806000000,   0.52000,
