elettronica/esperienza_11__raddrizzatore_semionda_carico/oscilloscopio/11 Massimo seza RL con C1 senza cursori/F0000CH2.CSV

Record Length,2.500000e+03,,  -0.001410000000,  -3.44000,
Sample Interval,1.000000e-06,,  -0.001409000000,  -3.44000,
Trigger Point,1.410000000000e+03,,  -0.001408000000,  -3.52000,
,,,  -0.001407000000,  -3.52000,
,,,  -0.001406000000,  -3.52000,
,,,  -0.001405000000,  -3.52000,
Source,CH2,,  -0.001404000000,  -3.60000,
Vertical Units,V,,  -0.001403000000,  -3.60000,
Vertical Scale,2.000000e+00,,  -0.001402000000,  -3.60000,
Vertical Offset,-1.600000e-01,,  -0.001401000000,  -3.60000,
Horizontal Units,s,,  -0.001400000000,  -3.68000,
Horizontal Scale,2.500000e-04,,  -0.001399000000,  -3.68000,
Pt Fmt,Y,,  -0.001398000000,  -3.68000,
Yzero,0.000000e+00,,  -0.001397000000,  -3.76000,
Probe Atten,1.000000e+01,,  -0.001396000000,  -3.76000,
Model Number,TBS1102B-EDU,,  -0.001395000000,  -3.76000,
Serial Number,C021597,,  -0.001394000000,  -3.76000,
Firmware Version,FV:v4.06,,  -0.001393000000,  -3.84000,
,,,-00.001392000000,  -3.84000,
,,,-00.001391000000,  -3.84000,
,,,-00.001390000000,  -3.84000,
,,,-00.001389000000,  -3.92000,
,,,-00.001388000000,  -3.92000,
,,,-00.001387000000,  -3.92000,
,,,-00.001386000000,  -3.92000,
,,,-00.001385000000,  -4.00000,
,,,-00.001384000000,  -4.00000,
,,,-00.001383000000,  -4.00000,
,,,-00.001382000000,  -4.00000,
,,,-00.001381000000,  -4.08000,
,,,-00.001380000000,  -4.08000,
,,,-00.001379000000,  -4.08000,
,,,-00.001378000000,  -4.08000,
,,,-00.001377000000,  -4.16000,
,,,-00.001376000000,  -4.16000,
,,,-00.001375000000,  -4.16000,
,,,-00.001374000000,  -4.16000,
,,,-00.001373000000,  -4.16000,
,,,-00.001372000000,  -4.16000,
,,,-00.001371000000,  -4.24000,
,,,-00.001370000000,  -4.24000,
,,,-00.001369000000,  -4.24000,
,,,-00.001368000000,  -4.24000,
,,,-00.001367000000,  -4.24000,
,,,-00.001366000000,  -4.32000,
,,,-00.001365000000,  -4.32000,
,,,-00.001364000000,  -4.32000,
,,,-00.001363000000,  -4.32000,
,,,-00.001362000000,  -4.32000,
,,,-00.001361000000,  -4.40000,
,,,-00.001360000000,  -4.40000,
,,,-00.001359000000,  -4.40000,
,,,-00.001358000000,  -4.40000,
,,,-00.001357000000,  -4.40000,
,,,-00.001356000000,  -4.40000,
,,,-00.001355000000,  -4.48000,
,,,-00.001354000000,  -4.48000,
,,,-00.001353000000,  -4.48000,
,,,-00.001352000000,  -4.48000,
,,,-00.001351000000,  -4.48000,
,,,-00.001350000000,  -4.48000,
,,,-00.001349000000,  -4.56000,
,,,-00.001348000000,  -4.56000,
,,,-00.001347000000,  -4.56000,
,,,-00.001346000000,  -4.56000,
,,,-00.001345000000,  -4.56000,
,,,-00.001344000000,  -4.56000,
,,,-00.001343000000,  -4.64000,
,,,-00.001342000000,  -4.64000,
,,,-00.001341000000,  -4.64000,
,,,-00.001340000000,  -4.64000,
,,,-00.001339000000,  -4.64000,
,,,-00.001338000000,  -4.64000,
,,,-00.001337000000,  -4.64000,
,,,-00.001336000000,  -4.72000,
,,,-00.001335000000,  -4.72000,
,,,-00.001334000000,  -4.72000,
,,,-00.001333000000,  -4.72000,
,,,-00.001332000000,  -4.72000,
,,,-00.001331000000,  -4.72000,
,,,-00.001330000000,  -4.72000,
,,,-00.001329000000,  -4.72000,
,,,-00.001328000000,  -4.80000,
,,,-00.001327000000,  -4.80000,
,,,-00.001326000000,  -4.80000,
,,,-00.001325000000,  -4.80000,
,,,-00.001324000000,  -4.80000,
,,,-00.001323000000,  -4.80000,
,,,-00.001322000000,  -4.80000,
,,,-00.001321000000,  -4.80000,
,,,-00.001320000000,  -4.80000,
,,,-00.001319000000,  -4.88000,
,,,-00.001318000000,  -4.88000,
,,,-00.001317000000,  -4.88000,
,,,-00.001316000000,  -4.88000,
,,,-00.001315000000,  -4.88000,
,,,-00.001314000000,  -4.88000,
,,,-00.001313000000,  -4.88000,
,,,-00.001312000000,  -4.96000,
,,,-00.001311000000,  -4.96000,
,,,-00.001310000000,  -4.96000,
,,,-00.001309000000,  -4.96000,
,,,-00.001308000000,  -4.96000,
,,,-00.001307000000,  -4.96000,
,,,-00.001306000000,  -4.96000,
,,,-00.001305000000,  -4.96000,
,,,-00.001304000000,  -4.96000,
,,,-00.001303000000,  -4.96000,
,,,-00.001302000000,  -4.96000,
,,,-00.001301000000,  -4.96000,
,,,-00.001300000000,  -4.96000,
,,,-00.001299000000,  -4.96000,
,,,-00.001298000000,  -4.96000,
,,,-00.001297000000,  -4.96000,
,,,-00.001296000000,  -4.96000,
,,,-00.001295000000,  -4.96000,
,,,-00.001294000000,  -4.96000,
,,,-00.001293000000,  -4.96000,
,,,-00.001292000000,  -4.96000,
,,,-00.001291000000,  -4.96000,
,,,-00.001290000000,  -4.96000,
,,,-00.001289000000,  -4.96000,
,,,-00.001288000000,  -5.04000,
,,,-00.001287000000,  -4.96000,
,,,-00.001286000000,  -5.04000,
,,,-00.001285000000,  -4.96000,
,,,-00.001284000000,  -5.04000,
,,,-00.001283000000,  -4.96000,
,,,-00.001282000000,  -5.04000,
,,,-00.001281000000,  -5.04000,
,,,-00.001280000000,  -5.04000,
,,,-00.001279000000,  -5.04000,
,,,-00.001278000000,  -5.04000,
,,,-00.001277000000,  -5.04000,
,,,-00.001276000000,  -4.96000,
,,,-00.001275000000,  -4.96000,
,,,-00.001274000000,  -4.96000,
,,,-00.001273000000,  -4.96000,
,,,-00.001272000000,  -4.96000,
,,,-00.001271000000,  -4.96000,
,,,-00.001270000000,  -4.96000,
,,,-00.001269000000,  -4.96000,
,,,-00.001268000000,  -4.96000,
,,,-00.001267000000,  -4.96000,
,,,-00.001266000000,  -4.96000,
,,,-00.001265000000,  -4.96000,
,,,-00.001264000000,  -4.96000,
,,,-00.001263000000,  -4.96000,
,,,-00.001262000000,  -4.96000,
,,,-00.001261000000,  -4.96000,
,,,-00.001260000000,  -4.96000,
,,,-00.001259000000,  -4.96000,
,,,-00.001258000000,  -4.96000,
,,,-00.001257000000,  -4.96000,
,,,-00.001256000000,  -4.96000,
,,,-00.001255000000,  -4.96000,
,,,-00.001254000000,  -4.96000,
,,,-00.001253000000,  -4.96000,
,,,-00.001252000000,  -4.96000,
,,,-00.001251000000,  -4.96000,
,,,-00.001250000000,  -4.96000,
,,,-00.001249000000,  -4.88000,
,,,-00.001248000000,  -4.88000,
,,,-00.001247000000,  -4.88000,
,,,-00.001246000000,  -4.88000,
,,,-00.001245000000,  -4.88000,
,,,-00.001244000000,  -4.88000,
,,,-00.001243000000,  -4.88000,
,,,-00.001242000000,  -4.88000,
,,,-00.001241000000,  -4.80000,
,,,-00.001240000000,  -4.80000,
,,,-00.001239000000,  -4.80000,
,,,-00.001238000000,  -4.80000,
,,,-00.001237000000,  -4.80000,
,,,-00.001236000000,  -4.80000,
,,,-00.001235000000,  -4.80000,
,,,-00.001234000000,  -4.80000,
,,,-00.001233000000,  -4.80000,
,,,-00.001232000000,  -4.72000,
,,,-00.001231000000,  -4.72000,
,,,-00.001230000000,  -4.72000,
,,,-00.001229000000,  -4.72000,
,,,-00.001228000000,  -4.72000,
,,,-00.001227000000,  -4.72000,
,,,-00.001226000000,  -4.72000,
,,,-00.001225000000,  -4.72000,
,,,-00.001224000000,  -4.64000,
,,,-00.001223000000,  -4.64000,
,,,-00.001222000000,  -4.64000,
,,,-00.001221000000,  -4.64000,
,,,-00.001220000000,  -4.64000,
,,,-00.001219000000,  -4.64000,
,,,-00.001218000000,  -4.64000,
,,,-00.001217000000,  -4.56000,
,,,-00.001216000000,  -4.56000,
,,,-00.001215000000,  -4.56000,
,,,-00.001214000000,  -4.56000,
,,,-00.001213000000,  -4.56000,
,,,-00.001212000000,  -4.56000,
,,,-00.001211000000,  -4.48000,
,,,-00.001210000000,  -4.48000,
,,,-00.001209000000,  -4.48000,
,,,-00.001208000000,  -4.48000,
,,,-00.001207000000,  -4.48000,
,,,-00.001206000000,  -4.48000,
,,,-00.001205000000,  -4.40000,
,,,-00.001204000000,  -4.40000,
,,,-00.001203000000,  -4.40000,
,,,-00.001202000000,  -4.40000,
,,,-00.001201000000,  -4.40000,
,,,-00.001200000000,  -4.32000,
,,,-00.001199000000,  -4.32000,
,,,-00.001198000000,  -4.32000,
,,,-00.001197000000,  -4.32000,
,,,-00.001196000000,  -4.32000,
,,,-00.001195000000,  -4.24000,
,,,-00.001194000000,  -4.24000,
,,,-00.001193000000,  -4.24000,
,,,-00.001192000000,  -4.24000,
,,,-00.001191000000,  -4.24000,
,,,-00.001190000000,  -4.16000,
,,,-00.001189000000,  -4.16000,
,,,-00.001188000000,  -4.16000,
,,,-00.001187000000,  -4.16000,
,,,-00.001186000000,  -4.16000,
,,,-00.001185000000,  -4.16000,
,,,-00.001184000000,  -4.08000,
,,,-00.001183000000,  -4.08000,
,,,-00.001182000000,  -4.08000,
,,,-00.001181000000,  -4.08000,
,,,-00.001180000000,  -4.00000,
,,,-00.001179000000,  -4.00000,
,,,-00.001178000000,  -4.00000,
,,,-00.001177000000,  -4.00000,
,,,-00.001176000000,  -3.92000,
,,,-00.001175000000,  -3.92000,
,,,-00.001174000000,  -3.92000,
,,,-00.001173000000,  -3.92000,
,,,-00.001172000000,  -3.84000,
,,,-00.001171000000,  -3.84000,
,,,-00.001170000000,  -3.84000,
,,,-00.001169000000,  -3.84000,
,,,-00.001168000000,  -3.76000,
,,,-00.001167000000,  -3.76000,
,,,-00.001166000000,  -3.76000,
,,,-00.001165000000,  -3.76000,
,,,-00.001164000000,  -3.68000,
,,,-00.001163000000,  -3.68000,
,,,-00.001162000000,  -3.68000,
,,,-00.001161000000,  -3.68000,
,,,-00.001160000000,  -3.60000,
,,,-00.001159000000,  -3.60000,
,,,-00.001158000000,  -3.60000,
,,,-00.001157000000,  -3.52000,
,,,-00.001156000000,  -3.52000,
,,,-00.001155000000,  -3.52000,
,,,-00.001154000000,  -3.52000,
,,,-00.001153000000,  -3.44000,
,,,-00.001152000000,  -3.44000,
,,,-00.001151000000,  -3.44000,
,,,-00.001150000000,  -3.44000,
,,,-00.001149000000,  -3.36000,
,,,-00.001148000000,  -3.36000,
,,,-00.001147000000,  -3.36000,
,,,-00.001146000000,  -3.36000,
,,,-00.001145000000,  -3.28000,
,,,-00.001144000000,  -3.28000,
,,,-00.001143000000,  -3.28000,
,,,-00.001142000000,  -3.20000,
,,,-00.001141000000,  -3.20000,
,,,-00.001140000000,  -3.20000,
,,,-00.001139000000,  -3.12000,
,,,-00.001138000000,  -3.12000,
,,,-00.001137000000,  -3.12000,
,,,-00.001136000000,  -3.04000,
,,,-00.001135000000,  -3.04000,
,,,-00.001134000000,  -3.04000,
,,,-00.001133000000,  -2.96000,
,,,-00.001132000000,  -2.96000,
,,,-00.001131000000,  -2.96000,
,,,-00.001130000000,  -2.88000,
,,,-00.001129000000,  -2.88000,
,,,-00.001128000000,  -2.88000,
,,,-00.001127000000,  -2.88000,
,,,-00.001126000000,  -2.80000,
,,,-00.001125000000,  -2.80000,
,,,-00.001124000000,  -2.80000,
,,,-00.001123000000,  -2.72000,
,,,-00.001122000000,  -2.72000,
,,,-00.001121000000,  -2.72000,
,,,-00.001120000000,  -2.64000,
,,,-00.001119000000,  -2.64000,
,,,-00.001118000000,  -2.56000,
,,,-00.001117000000,  -2.56000,
,,,-00.001116000000,  -2.56000,
,,,-00.001115000000,  -2.56000,
,,,-00.001114000000,  -2.48000,
,,,-00.001113000000,  -2.48000,
,,,-00.001112000000,  -2.48000,
,,,-00.001111000000,  -2.40000,
,,,-00.001110000000,  -2.40000,
,,,-00.001109000000,  -2.40000,
,,,-00.001108000000,  -2.32000,
,,,-00.001107000000,  -2.32000,
,,,-00.001106000000,  -2.24000,
,,,-00.001105000000,  -2.24000,
,,,-00.001104000000,  -2.24000,
,,,-00.001103000000,  -2.16000,
,,,-00.001102000000,  -2.16000,
,,,-00.001101000000,  -2.08000,
,,,-00.001100000000,  -2.08000,
,,,-00.001099000000,  -2.08000,
,,,-00.001098000000,  -2.00000,
,,,-00.001097000000,  -2.00000,
,,,-00.001096000000,  -2.00000,
,,,-00.001095000000,  -1.92000,
,,,-00.001094000000,  -1.92000,
,,,-00.001093000000,  -1.92000,
,,,-00.001092000000,  -1.84000,
,,,-00.001091000000,  -1.84000,
,,,-00.001090000000,  -1.76000,
,,,-00.001089000000,  -1.76000,
,,,-00.001088000000,  -1.76000,
,,,-00.001087000000,  -1.76000,
,,,-00.001086000000,  -1.68000,
,,,-00.001085000000,  -1.68000,
,,,-00.001084000000,  -1.60000,
,,,-00.001083000000,  -1.60000,
,,,-00.001082000000,  -1.60000,
,,,-00.001081000000,  -1.52000,
,,,-00.001080000000,  -1.52000,
,,,-00.001079000000,  -1.44000,
,,,-00.001078000000,  -1.44000,
,,,-00.001077000000,  -1.44000,
,,,-00.001076000000,  -1.36000,
,,,-00.001075000000,  -1.36000,
,,,-00.001074000000,  -1.36000,
,,,-00.001073000000,  -1.28000,
,,,-00.001072000000,  -1.28000,
,,,-00.001071000000,  -1.20000,
,,,-00.001070000000,  -1.20000,
,,,-00.001069000000,  -1.20000,
,,,-00.001068000000,  -1.12000,
,,,-00.001067000000,  -1.12000,
,,,-00.001066000000,  -1.04000,
,,,-00.001065000000,  -1.04000,
,,,-00.001064000000,  -1.04000,
,,,-00.001063000000,  -0.96000,
,,,-00.001062000000,  -0.96000,
,,,-00.001061000000,  -0.96000,
,,,-00.001060000000,  -0.88000,
,,,-00.001059000000,  -0.88000,
,,,-00.001058000000,  -0.88000,
,,,-00.001057000000,  -0.80000,
,,,-00.001056000000,  -0.80000,
,,,-00.001055000000,  -0.72000,
,,,-00.001054000000,  -0.72000,
,,,-00.001053000000,  -0.72000,
,,,-00.001052000000,  -0.64000,
,,,-00.001051000000,  -0.64000,
,,,-00.001050000000,  -0.56000,
,,,-00.001049000000,  -0.56000,
,,,-00.001048000000,  -0.56000,
,,,-00.001047000000,  -0.48000,
,,,-00.001046000000,  -0.48000,
,,,-00.001045000000,  -0.40000,
,,,-00.001044000000,  -0.40000,
,,,-00.001043000000,  -0.40000,
,,,-00.001042000000,  -0.32000,
,,,-00.001041000000,  -0.32000,
,,,-00.001040000000,  -0.24000,
,,,-00.001039000000,  -0.24000,
,,,-00.001038000000,  -0.24000,
,,,-00.001037000000,  -0.16000,
,,,-00.001036000000,  -0.16000,
,,,-00.001035000000,  -0.16000,
,,,-00.001034000000,  -0.08000,
,,,-00.001033000000,  -0.08000,
,,,-00.001032000000,   0.00000,
,,,-00.001031000000,   0.00000,
,,,-00.001030000000,   0.00000,
,,,-00.001029000000,   0.08000,
,,,-00.001028000000,   0.08000,
,,,-00.001027000000,   0.16000,
,,,-00.001026000000,   0.16000,
,,,-00.001025000000,   0.16000,
,,,-00.001024000000,   0.24000,
,,,-00.001023000000,   0.32000,
,,,-00.001022000000,   0.32000,
,,,-00.001021000000,   0.32000,
,,,-00.001020000000,   0.40000,
,,,-00.001019000000,   0.40000,
,,,-00.001018000000,   0.48000,
,,,-00.001017000000,   0.48000,
,,,-00.001016000000,   0.48000,
,,,-00.001015000000,   0.56000,
,,,-00.001014000000,   0.56000,
,,,-00.001013000000,   0.56000,
,,,-00.001012000000,   0.64000,
,,,-00.001011000000,   0.64000,
,,,-00.001010000000,   0.72000,
,,,-00.001009000000,   0.72000,
,,,-00.001008000000,   0.72000,
,,,-00.001007000000,   0.80000,
,,,-00.001006000000,   0.80000,
,,,-00.001005000000,   0.88000,
,,,-00.001004000000,   0.88000,
,,,-00.001003000000,   0.88000,
,,,-00.001002000000,   0.96000,
,,,-00.001001000000,   0.96000,
,,,-00.001000000000,   0.96000,
,,,-00.000999000000,   1.04000,
,,,-00.000998000000,   1.04000,
,,,-00.000997000000,   1.12000,
,,,-00.000996000000,   1.12000,
,,,-00.000995000000,   1.12000,
,,,-00.000994000000,   1.20000,
,,,-00.000993000000,   1.20000,
,,,-00.000992000000,   1.28000,
,,,-00.000991000000,   1.28000,
,,,-00.000990000000,   1.28000,
,,,-00.000989000000,   1.36000,
,,,-00.000988000000,   1.36000,
,,,-00.000987000000,   1.36000,
,,,-00.000986000000,   1.44000,
,,,-00.000985000000,   1.44000,
,,,-00.000984000000,   1.44000,
,,,-00.000983000000,   1.52000,
,,,-00.000982000000,   1.52000,
,,,-00.000981000000,   1.60000,
,,,-00.000980000000,   1.60000,
,,,-00.000979000000,   1.60000,
,,,-00.000978000000,   1.68000,
,,,-00.000977000000,   1.68000,
,,,-00.000976000000,   1.68000,
,,,-00.000975000000,   1.76000,
,,,-00.000974000000,   1.76000,
,,,-00.000973000000,   1.84000,
,,,-00.000972000000,   1.84000,
,,,-00.000971000000,   1.84000,
,,,-00.000970000000,   1.92000,
,,,-00.000969000000,   1.92000,
,,,-00.000968000000,   2.00000,
,,,-00.000967000000,   2.00000,
,,,-00.000966000000,   2.00000,
,,,-00.000965000000,   2.08000,
,,,-00.000964000000,   2.08000,
,,,-00.000963000000,   2.08000,
,,,-00.000962000000,   2.08000,
,,,-00.000961000000,   2.16000,
,,,-00.000960000000,   2.16000,
,,,-00.000959000000,   2.24000,
,,,-00.000958000000,   2.24000,
,,,-00.000957000000,   2.24000,
,,,-00.000956000000,   2.32000,
,,,-00.000955000000,   2.32000,
,,,-00.000954000000,   2.32000,
,,,-00.000953000000,   2.40000,
,,,-00.000952000000,   2.40000,
,,,-00.000951000000,   2.40000,
,,,-00.000950000000,   2.48000,
,,,-00.000949000000,   2.48000,
,,,-00.000948000000,   2.56000,
,,,-00.000947000000,   2.56000,
,,,-00.000946000000,   2.56000,
,,,-00.000945000000,   2.56000,
,,,-00.000944000000,   2.64000,
,,,-00.000943000000,   2.64000,
,,,-00.000942000000,   2.64000,
,,,-00.000941000000,   2.72000,
,,,-00.000940000000,   2.72000,
,,,-00.000939000000,   2.72000,
,,,-00.000938000000,   2.80000,
,,,-00.000937000000,   2.88000,
,,,-00.000936000000,   2.88000,
,,,-00.000935000000,   2.88000,
,,,-00.000934000000,   2.88000,
,,,-00.000933000000,   2.96000,
,,,-00.000932000000,   2.96000,
,,,-00.000931000000,   2.96000,
,,,-00.000930000000,   3.04000,
,,,-00.000929000000,   3.04000,
,,,-00.000928000000,   3.04000,
,,,-00.000927000000,   3.12000,
,,,-00.000926000000,   3.12000,
,,,-00.000925000000,   3.12000,
,,,-00.000924000000,   3.20000,
,,,-00.000923000000,   3.20000,
,,,-00.000922000000,   3.20000,
,,,-00.000921000000,   3.20000,
,,,-00.000920000000,   3.28000,
,,,-00.000919000000,   3.28000,
,,,-00.000918000000,   3.28000,
,,,-00.000917000000,   3.36000,
,,,-00.000916000000,   3.36000,
,,,-00.000915000000,   3.36000,
,,,-00.000914000000,   3.44000,
,,,-00.000913000000,   3.44000,
,,,-00.000912000000,   3.44000,
,,,-00.000911000000,   3.44000,
,,,-00.000910000000,   3.52000,
,,,-00.000909000000,   3.52000,
,,,-00.000908000000,   3.52000,
,,,-00.000907000000,   3.60000,
,,,-00.000906000000,   3.60000,
,,,-00.000905000000,   3.60000,
,,,-00.000904000000,   3.60000,
,,,-00.000903000000,   3.68000,
,,,-00.000902000000,   3.68000,
,,,-00.000901000000,   3.68000,
,,,-00.000900000000,   3.76000,
,,,-00.000899000000,   3.76000,
,,,-00.000898000000,   3.76000,
,,,-00.000897000000,   3.76000,
,,,-00.000896000000,   3.76000,
,,,-00.000895000000,   3.84000,
,,,-00.000894000000,   3.84000,
,,,-00.000893000000,   3.84000,
,,,-00.000892000000,   3.84000,
,,,-00.000891000000,   3.92000,
,,,-00.000890000000,   3.92000,
,,,-00.000889000000,   3.92000,
,,,-00.000888000000,   3.92000,
,,,-00.000887000000,   4.00000,
,,,-00.000886000000,   4.00000,
,,,-00.000885000000,   4.00000,
,,,-00.000884000000,   4.00000,
,,,-00.000883000000,   4.08000,
,,,-00.000882000000,   4.08000,
,,,-00.000881000000,   4.08000,
,,,-00.000880000000,   4.08000,
,,,-00.000879000000,   4.08000,
,,,-00.000878000000,   4.16000,
,,,-00.000877000000,   4.16000,
,,,-00.000876000000,   4.16000,
,,,-00.000875000000,   4.16000,
,,,-00.000874000000,   4.16000,
,,,-00.000873000000,   4.16000,
,,,-00.000872000000,   4.16000,
,,,-00.000871000000,   4.16000,
,,,-00.000870000000,   4.16000,
,,,-00.000869000000,   4.24000,
,,,-00.000868000000,   4.24000,
,,,-00.000867000000,   4.24000,
,,,-00.000866000000,   4.24000,
,,,-00.000865000000,   4.24000,
,,,-00.000864000000,   4.24000,
,,,-00.000863000000,   4.24000,
,,,-00.000862000000,   4.24000,
,,,-00.000861000000,   4.24000,
,,,-00.000860000000,   4.24000,
,,,-00.000859000000,   4.24000,
,,,-00.000858000000,   4.24000,
,,,-00.000857000000,   4.24000,
,,,-00.000856000000,   4.24000,
,,,-00.000855000000,   4.24000,
,,,-00.000854000000,   4.24000,
,,,-00.000853000000,   4.24000,
,,,-00.000852000000,   4.24000,
,,,-00.000851000000,   4.32000,
,,,-00.000850000000,   4.24000,
,,,-00.000849000000,   4.32000,
,,,-00.000848000000,   4.32000,
,,,-00.000847000000,   4.32000,
,,,-00.000846000000,   4.32000,
,,,-00.000845000000,   4.32000,
,,,-00.000844000000,   4.32000,
,,,-00.000843000000,   4.32000,
,,,-00.000842000000,   4.32000,
,,,-00.000841000000,   4.32000,
,,,-00.000840000000,   4.32000,
,,,-00.000839000000,   4.32000,
,,,-00.000838000000,   4.32000,
,,,-00.000837000000,   4.32000,
,,,-00.000836000000,   4.32000,
,,,-00.000835000000,   4.32000,
,,,-00.000834000000,   4.32000,
,,,-00.000833000000,   4.32000,
,,,-00.000832000000,   4.32000,
,,,-00.000831000000,   4.32000,
,,,-00.000830000000,   4.32000,
,,,-00.000829000000,   4.32000,
,,,-00.000828000000,   4.32000,
,,,-00.000827000000,   4.32000,
,,,-00.000826000000,   4.32000,
,,,-00.000825000000,   4.32000,
,,,-00.000824000000,   4.32000,
,,,-00.000823000000,   4.32000,
,,,-00.000822000000,   4.32000,
,,,-00.000821000000,   4.32000,
,,,-00.000820000000,   4.32000,
,,,-00.000819000000,   4.32000,
,,,-00.000818000000,   4.32000,
,,,-00.000817000000,   4.32000,
,,,-00.000816000000,   4.32000,
,,,-00.000815000000,   4.32000,
,,,-00.000814000000,   4.32000,
,,,-00.000813000000,   4.32000,
,,,-00.000812000000,   4.32000,
,,,-00.000811000000,   4.32000,
,,,-00.000810000000,   4.32000,
,,,-00.000809000000,   4.32000,
,,,-00.000808000000,   4.32000,
,,,-00.000807000000,   4.32000,
,,,-00.000806000000,   4.32000,
,,,-00.000805000000,   4.32000,
,,,-00.000804000000,   4.32000,
,,,-00.000803000000,   4.32000,
,,,-00.000802000000,   4.32000,
,,,-00.000801000000,   4.32000,
,,,-00.000800000000,   4.32000,
,,,-00.000799000000,   4.32000,
,,,-00.000798000000,   4.32000,
,,,-00.000797000000,   4.32000,
