spettroscopia/haynes-shockley/code/data/dconst/run0.CSV

Model,TBS1102C
Firmware Version,v2015-08-04-prequal4ch70_v1.3

Point Format,Y
Horizontal Units,S
Horizontal Scale,4e-05
Sample Interval,3.2e-07
Filter Frequency,2e+08
Record Length,2000
Gating,0.0% to 100.0%
Probe Attenuation,1
Vertical Units,V
Vertical Offset,0
Vertical Scale,0.0492
Label,
TIME,CH1
-3.264e-04,0.000807187
-3.261e-04,0.0006765
-3.258e-04,0.0007995
-3.254e-04,0.000884062
-3.251e-04,0.0005535
-3.248e-04,0.000691875
-3.245e-04,0.00083025
-3.242e-04,0.000538125
-3.238e-04,0.000661125
-3.235e-04,0.00058425
-3.232e-04,0.00076875
-3.229e-04,0.000968625
-3.226e-04,0.0004305
-3.222e-04,0.000369
-3.219e-04,0.000568875
-3.216e-04,0.000315187
-3.213e-04,0.000791812
-3.210e-04,0.000622687
-3.206e-04,0.000884062
-3.203e-04,0.00046125
-3.200e-04,0.000345937
-3.197e-04,0.000814875
-3.194e-04,0.000361312
-3.190e-04,0.000422812
-3.187e-04,0.000691875
-3.184e-04,0.000476625
-3.181e-04,0.000591937
-3.178e-04,0.000661125
-3.174e-04,0.000353625
-3.171e-04,0.000538125
-3.168e-04,0.000530437
-3.165e-04,0.000814875
-3.162e-04,0.000738
-3.158e-04,0.000638062
-3.155e-04,0.0004305
-3.152e-04,0.000622687
-3.149e-04,0.000515062
-3.146e-04,0.000591937
-3.142e-04,0.000484312
-3.139e-04,0.000807187
-3.136e-04,0.000653437
-3.133e-04,0.000538125
-3.130e-04,0.000415125
-3.126e-04,0.000445875
-3.123e-04,0.000653437
-3.120e-04,0.000615
-3.117e-04,0.000484312
-3.114e-04,0.000684187
-3.110e-04,0.000914812
-3.107e-04,0.00058425
-3.104e-04,0.000699562
-3.101e-04,0.0005535
-3.098e-04,0.000468937
-3.094e-04,0.000269062
-3.091e-04,0.000576562
-3.088e-04,0.000415125
-3.085e-04,0.000653437
-3.082e-04,0.000561187
-3.078e-04,0.000607312
-3.075e-04,0.00058425
-3.072e-04,0.000453562
-3.069e-04,0.000599625
-3.066e-04,0.00058425
-3.062e-04,0.000438187
-3.059e-04,0.000722625
-3.056e-04,0.00039975
-3.053e-04,0.000668812
-3.050e-04,0.000392062
-3.046e-04,0.000230625
-3.043e-04,0.000576562
-3.040e-04,0.000576562
-3.037e-04,0.000322875
-3.034e-04,0.000861
-3.030e-04,0.00058425
-3.027e-04,0.000568875
-3.024e-04,0.000422812
-3.021e-04,0.000561187
-3.018e-04,0.000653437
-3.014e-04,0.000576562
-3.011e-04,0.000591937
-3.008e-04,0.000292125
-3.005e-04,0.000784125
-3.002e-04,0.000507375
-2.998e-04,0.000568875
-2.995e-04,0.00083025
-2.992e-04,0.000661125
-2.989e-04,0.000499687
-2.986e-04,0.00083025
-2.982e-04,0.0006765
-2.979e-04,0.000507375
-2.976e-04,0.00033825
-2.973e-04,0.0004305
-2.970e-04,0.000638062
-2.966e-04,0.000568875
-2.963e-04,0.000576562
-2.960e-04,0.000914812
-2.957e-04,0.000776437
-2.954e-04,0.000407437
-2.950e-04,0.000607312
-2.947e-04,0.00052275
-2.944e-04,0.000468937
-2.941e-04,0.000353625
-2.938e-04,0.00058425
-2.934e-04,0.000814875
-2.931e-04,0.000814875
-2.928e-04,0.000515062
-2.925e-04,0.000607312
-2.922e-04,0.000884062
-2.918e-04,0.000561187
-2.915e-04,0.000599625
-2.912e-04,0.000653437
-2.909e-04,0.000138375
-2.906e-04,0.000884062
-2.902e-04,0.0005535
-2.899e-04,0.000453562
-2.896e-04,0.000622687
-2.893e-04,0.000453562
-2.890e-04,0.000599625
-2.886e-04,0.000422812
-2.883e-04,0.000607312
-2.880e-04,0.000738
-2.877e-04,0.000630375
-2.874e-04,0.000561187
-2.870e-04,0.000638062
-2.867e-04,0.00046125
-2.864e-04,0.00058425
-2.861e-04,0.000615
-2.858e-04,0.000415125
-2.854e-04,0.000222937
-2.851e-04,0.00046125
-2.848e-04,0.000653437
-2.845e-04,0.000538125
-2.842e-04,0.000515062
-2.838e-04,0.000753375
-2.835e-04,0.00070725
-2.832e-04,0.000684187
-2.829e-04,0.00076875
-2.826e-04,0.000376687
-2.822e-04,0.000791812
-2.819e-04,0.000369
-2.816e-04,0.000468937
-2.813e-04,0.000630375
-2.810e-04,0.00052275
-2.806e-04,0.000507375
-2.803e-04,0.000576562
-2.800e-04,0.000868687
-2.797e-04,0.000576562
-2.794e-04,0.000438187
-2.790e-04,0.000699562
-2.787e-04,0.000253687
-2.784e-04,0.000330562
-2.781e-04,0.000515062
-2.778e-04,0.000568875
-2.774e-04,0.000330562
-2.771e-04,0.00052275
-2.768e-04,0.000315187
-2.765e-04,0.000515062
-2.762e-04,0.00083025
-2.758e-04,0.000991687
-2.755e-04,0.000392062
-2.752e-04,0.000492
-2.749e-04,0.000991687
-2.746e-04,0.000315187
-2.742e-04,0.000499687
-2.739e-04,0.00076875
-2.736e-04,0.000722625
-2.733e-04,0.00070725
-2.730e-04,0.000369
-2.726e-04,0.000345937
-2.723e-04,0.000576562
-2.720e-04,0.0004305
-2.717e-04,0.000876375
-2.714e-04,0.000576562
-2.710e-04,0.000615
-2.707e-04,0.000468937
-2.704e-04,0.000453562
-2.701e-04,0.000684187
-2.698e-04,0.000691875
-2.694e-04,0.000576562
-2.691e-04,0.0004305
-2.688e-04,0.000392062
-2.685e-04,0.000661125
-2.682e-04,0.000369
-2.678e-04,0.000853312
-2.675e-04,0.000561187
-2.672e-04,0.000615
-2.669e-04,0.0009225
-2.666e-04,0.00105319
-2.662e-04,0.000607312
-2.659e-04,0.000445875
-2.656e-04,0.000499687
-2.653e-04,0.00058425
-2.650e-04,0.000484312
-2.646e-04,0.000738
-2.643e-04,0.000538125
-2.640e-04,0.000284437
-2.637e-04,0.000415125
-2.634e-04,0.0009225
-2.630e-04,0.000576562
-2.627e-04,0.000515062
-2.624e-04,0.000438187
-2.621e-04,0.000369
-2.618e-04,0.000607312
-2.614e-04,0.000691875
-2.611e-04,0.000661125
-2.608e-04,0.000607312
-2.605e-04,0.000538125
-2.602e-04,0.000538125
-2.598e-04,0.00070725
-2.595e-04,0.000653437
-2.592e-04,0.000661125
-2.589e-04,0.00052275
-2.586e-04,0.000438187
-2.582e-04,0.0006765
-2.579e-04,0.000668812
-2.576e-04,0.000691875
-2.573e-04,0.00052275
-2.570e-04,0.000515062
-2.566e-04,0.000361312
-2.563e-04,0.0006765
-2.560e-04,0.000492
-2.557e-04,0.000784125
-2.554e-04,0.000730312
-2.550e-04,0.000722625
-2.547e-04,0.000615
-2.544e-04,0.0009225
-2.541e-04,0.000345937
-2.538e-04,0.000238312
-2.534e-04,0.000415125
-2.531e-04,0.000538125
-2.528e-04,0.000691875
-2.525e-04,0.000269062
-2.522e-04,0.000445875
-2.518e-04,0.000568875
-2.515e-04,0.000722625
-2.512e-04,0.000738
-2.509e-04,0.000207562
-2.506e-04,0.000492
-2.502e-04,0.000468937
-2.499e-04,0.000622687
-2.496e-04,0.000730312
-2.493e-04,0.000453562
-2.490e-04,0.000484312
-2.486e-04,0.000453562
-2.483e-04,0.000576562
-2.480e-04,0.00076875
-2.477e-04,0.000615
-2.474e-04,0.000299812
-2.470e-04,0.000753375
-2.467e-04,0.000499687
-2.464e-04,0.0006765
-2.461e-04,0.0006765
-2.458e-04,0.000653437
-2.454e-04,0.000415125
-2.451e-04,0.000445875
-2.448e-04,0.000630375
-2.445e-04,0.000607312
-2.442e-04,0.000476625
-2.438e-04,0.000369
-2.435e-04,0.00046125
-2.432e-04,0.00058425
-2.429e-04,0.000822562
-2.426e-04,0.000599625
-2.422e-04,0.000345937
-2.419e-04,0.000545812
-2.416e-04,0.00058425
-2.413e-04,0.000330562
-2.410e-04,0.00076875
-2.406e-04,0.000199875
-2.403e-04,0.000599625
-2.400e-04,0.000392062
-2.397e-04,0.000730312
-2.394e-04,0.000661125
-2.390e-04,0.000253687
-2.387e-04,0.000445875
-2.384e-04,0.00070725
-2.381e-04,0.000492
-2.378e-04,0.000699562
-2.374e-04,0.000545812
-2.371e-04,0.000415125
-2.368e-04,0.000345937
-2.365e-04,0.000814875
-2.362e-04,0.000730312
-2.358e-04,0.000791812
-2.355e-04,0.000515062
-2.352e-04,0.000407437
-2.349e-04,0.000476625
-2.346e-04,0.00046125
-2.342e-04,0.000699562
-2.339e-04,0.000330562
-2.336e-04,0.000515062
-2.333e-04,0.000438187
-2.330e-04,0.0009225
-2.326e-04,0.000530437
-2.323e-04,0.000453562
-2.320e-04,0.000638062
-2.317e-04,0.000691875
-2.314e-04,0.00021525
-2.310e-04,0.000615
-2.307e-04,0.000638062
-2.304e-04,0.000376687
-2.301e-04,0.000415125
-2.298e-04,0.000753375
-2.294e-04,0.000853312
-2.291e-04,0.000507375
-2.288e-04,0.00046125
-2.285e-04,0.000361312
-2.282e-04,0.000453562
-2.278e-04,0.000576562
-2.275e-04,0.000438187
-2.272e-04,0.000453562
-2.269e-04,0.000722625
-2.266e-04,0.000415125
-2.262e-04,0.000492
-2.259e-04,0.000691875
-2.256e-04,0.0005535
-2.253e-04,0.000369
-2.250e-04,0.000361312
-2.246e-04,0.000507375
-2.243e-04,0.000568875
-2.240e-04,0.000499687
-2.237e-04,0.000492
-2.234e-04,0.000630375
-2.230e-04,0.000599625
-2.227e-04,0.000761062
-2.224e-04,0.000622687
-2.221e-04,0.000599625
-2.218e-04,0.000476625
-2.214e-04,0.000561187
-2.211e-04,0.000691875
-2.208e-04,0.000422812
-2.205e-04,0.000415125
-2.202e-04,0.000438187
-2.198e-04,0.000738
-2.195e-04,0.000738
-2.192e-04,0.000607312
-2.189e-04,0.000599625
-2.186e-04,0.000445875
-2.182e-04,0.000753375
-2.179e-04,0.000638062
-2.176e-04,0.000638062
-2.173e-04,0.000438187
-2.170e-04,0.000745687
-2.166e-04,0.000492
-2.163e-04,0.0005535
-2.160e-04,0.000545812
-2.157e-04,0.00076875
-2.154e-04,0.000515062
-2.150e-04,0.000492
-2.147e-04,0.000515062
-2.144e-04,0.000884062
-2.141e-04,0.000315187
-2.138e-04,0.000615
-2.134e-04,0.000630375
-2.131e-04,0.000653437
-2.128e-04,0.000630375
-2.125e-04,0.00039975
-2.122e-04,0.000392062
-2.118e-04,0.000745687
-2.115e-04,0.000407437
-2.112e-04,0.000699562
-2.109e-04,0.000691875
-2.106e-04,0.0005535
-2.102e-04,0.000392062
-2.099e-04,0.000607312
-2.096e-04,0.000668812
-2.093e-04,0.000814875
-2.090e-04,0.000661125
-2.086e-04,0.000630375
-2.083e-04,0.000345937
-2.080e-04,0.000622687
-2.077e-04,0.000515062
-2.074e-04,0.000668812
-2.070e-04,0.00046125
-2.067e-04,0.000384375
-2.064e-04,0.000845625
-2.061e-04,0.000668812
-2.058e-04,0.0006765
-2.054e-04,0.00046125
-2.051e-04,0.000507375
-2.048e-04,0.000653437
-2.045e-04,0.000907125
-2.042e-04,0.000837937
-2.038e-04,0.000638062
-2.035e-04,0.000484312
-2.032e-04,0.000638062
-2.029e-04,0.0007995
-2.026e-04,0.000568875
-2.022e-04,0.000476625
-2.019e-04,0.000576562
-2.016e-04,0.000622687
-2.013e-04,0.000545812
-2.010e-04,0.000630375
-2.006e-04,0.000899437
-2.003e-04,0.000507375
-2.000e-04,0.000476625
-1.997e-04,0.0009225
-1.994e-04,0.000599625
-1.990e-04,0.000722625
-1.987e-04,0.000468937
-1.984e-04,0.00039975
-1.981e-04,0.000415125
-1.978e-04,0.000684187
-1.974e-04,0.000960937
-1.971e-04,0.000638062
-1.968e-04,0.000407437
-1.965e-04,0.000507375
-1.962e-04,0.000668812
-1.958e-04,0.000515062
-1.955e-04,0.000545812
-1.952e-04,0.000369
-1.949e-04,0.000845625
-1.946e-04,0.000484312
-1.942e-04,0.000653437
-1.939e-04,0.000730312
-1.936e-04,0.000545812
-1.933e-04,0.00064575
-1.930e-04,0.000384375
-1.926e-04,0.000369
-1.923e-04,0.000807187
-1.920e-04,0.000468937
-1.917e-04,0.000515062
-1.914e-04,0.000422812
-1.910e-04,0.000615
-1.907e-04,0.000691875
-1.904e-04,0.000407437
-1.901e-04,0.000615
-1.898e-04,0.000515062
-1.894e-04,0.000807187
-1.891e-04,0.00083025
-1.888e-04,0.000638062
-1.885e-04,0.000684187
-1.882e-04,0.000561187
-1.878e-04,0.000568875
-1.875e-04,0.00046125
-1.872e-04,0.000345937
-1.869e-04,0.000776437
-1.866e-04,0.000615
-1.862e-04,0.000607312
-1.859e-04,0.000576562
-1.856e-04,0.000538125
-1.853e-04,0.000507375
-1.850e-04,0.000299812
-1.846e-04,0.0006765
-1.843e-04,0.000668812
-1.840e-04,0.000361312
-1.837e-04,0.000515062
-1.834e-04,0.000230625
-1.830e-04,0.00046125
-1.827e-04,0.000837937
-1.824e-04,0.000538125
-1.821e-04,0.000438187
-1.818e-04,0.000392062
-1.814e-04,0.00083025
-1.811e-04,0.000492
-1.808e-04,0.000438187
-1.805e-04,0.00052275
-1.802e-04,0.0004305
-1.798e-04,0.000591937
-1.795e-04,0.000661125
-1.792e-04,0.000492
-1.789e-04,0.000591937
-1.786e-04,0.000684187
-1.782e-04,0.000453562
-1.779e-04,0.00046125
-1.776e-04,0.000438187
-1.773e-04,0.000576562
-1.770e-04,0.000492
-1.766e-04,0.000599625
-1.763e-04,0.000745687
-1.760e-04,0.000661125
-1.757e-04,0.000330562
-1.754e-04,0.000392062
-1.750e-04,0.000576562
-1.747e-04,0.000545812
-1.744e-04,0.000530437
-1.741e-04,0.00058425
-1.738e-04,0.000392062
-1.734e-04,0.000484312
-1.731e-04,0.00046125
-1.728e-04,0.000630375
-1.725e-04,0.000545812
-1.722e-04,0.000369
-1.718e-04,0.000791812
-1.715e-04,0.000576562
-1.712e-04,0.000438187
-1.709e-04,0.000484312
-1.706e-04,0.000415125
-1.702e-04,0.00058425
-1.699e-04,0.000468937
-1.696e-04,0.00083025
-1.693e-04,0.000661125
-1.690e-04,0.000515062
-1.686e-04,0.00052275
-1.683e-04,0.000607312
-1.680e-04,0.000630375
-1.677e-04,0.000691875
-1.674e-04,0.00058425
-1.670e-04,0.000691875
-1.667e-04,0.00070725
-1.664e-04,0.000630375
-1.661e-04,0.000568875
-1.658e-04,0.000530437
-1.654e-04,0.000392062
-1.651e-04,0.000345937
-1.648e-04,0.000630375
-1.645e-04,0.000668812
-1.642e-04,0.000615
-1.638e-04,0.000507375
-1.635e-04,0.000345937
-1.632e-04,0.000445875
-1.629e-04,0.000722625
-1.626e-04,0.000207562
-1.622e-04,0.000791812
-1.619e-04,0.000422812
-1.616e-04,0.0006765
-1.613e-04,0.000376687
-1.610e-04,0.000468937
-1.606e-04,0.000438187
-1.603e-04,0.000699562
-1.600e-04,0.00058425
-1.597e-04,0.00064575
-1.594e-04,0.000538125
-1.590e-04,0.000530437
-1.587e-04,0.000638062
-1.584e-04,0.000422812
-1.581e-04,0.000568875
-1.578e-04,0.00052275
-1.574e-04,0.00033825
-1.571e-04,0.000515062
-1.568e-04,0.000369
-1.565e-04,0.00058425
-1.562e-04,0.000507375
-1.558e-04,0.00070725
-1.555e-04,0.000376687
-1.552e-04,0.000630375
-1.549e-04,0.000345937
-1.546e-04,0.00089175
-1.542e-04,0.000576562
-1.539e-04,0.000415125
-1.536e-04,0.000745687
-1.533e-04,0.000745687
-1.530e-04,0.000761062
-1.526e-04,0.0004305
-1.523e-04,-0.000453562
-1.520e-04,-0.00189112
-1.517e-04,0.0217864
-1.514e-04,0.101905
-1.510e-04,0.165535
-1.507e-04,0.198422
-1.504e-04,0.170478
-1.501e-04,0.102059
-1.498e-04,0.0390986
-1.494e-04,-0.00163744
-1.491e-04,-0.00518906
-1.488e-04,0.00402825
-1.485e-04,0.00765675
-1.482e-04,0.00533512
-1.478e-04,0.002829
-1.475e-04,0.00132225
-1.472e-04,0.000937875
-1.469e-04,0.000884062
-1.466e-04,0.000515062
-1.462e-04,-0.000207562
-1.459e-04,-0.000207562
-1.456e-04,-0.000668812
-1.453e-04,-0.000661125
-1.450e-04,-0.000445875
-1.446e-04,-0.00033825
-1.443e-04,-0.000484312
-1.440e-04,-0.000345937
-1.437e-04,-0.000492
-1.434e-04,-0.000199875
-1.430e-04,9.99375e-05
-1.427e-04,1.5375e-05
-1.424e-04,0
-1.421e-04,-9.99375e-05
-1.418e-04,0.000392062
-1.414e-04,-0.000161437
-1.411e-04,3.075e-05
-1.408e-04,-7.6875e-05
-1.405e-04,0
-1.402e-04,0.000176812
-1.398e-04,-2.30625e-05
-1.395e-04,0.000230625
-1.392e-04,-7.6875e-05
-1.389e-04,-6.15e-05
-1.386e-04,3.84375e-05
-1.382e-04,0.000123
-1.379e-04,0
-1.376e-04,9.225e-05
-1.373e-04,0.000123
-1.370e-04,0.000222937
-1.366e-04,0.000292125
-1.363e-04,6.91875e-05
-1.360e-04,0.000384375
-1.357e-04,-5.38125e-05
-1.354e-04,2.30625e-05
-1.350e-04,0.000222937
-1.347e-04,0.000299812
-1.344e-04,0.00021525
-1.341e-04,0.000315187
-1.338e-04,0.00046125
-1.334e-04,0.000599625
-1.331e-04,0.000453562
-1.328e-04,0.000507375
-1.325e-04,0.000299812
-1.322e-04,0.000438187
-1.318e-04,0.000361312
-1.315e-04,0.000791812
-1.312e-04,0.000622687
-1.309e-04,0.000730312
-1.306e-04,0.000753375
-1.302e-04,0.000484312
-1.299e-04,0.000999375
-1.296e-04,0.000837937
-1.293e-04,0.00112237
-1.290e-04,0.000984
-1.286e-04,0.0009225
-1.283e-04,0.00119925
-1.280e-04,0.00113006
-1.277e-04,0.0009225
-1.274e-04,0.000960937
-1.270e-04,0.000937875
-1.267e-04,0.000753375
-1.264e-04,0.000945562
-1.261e-04,0.000722625
-1.258e-04,0.00116081
-1.254e-04,0.00107625
-1.251e-04,0.000930187
-1.248e-04,0.000914812
-1.245e-04,0.000776437
-1.242e-04,0.000937875
-1.238e-04,0.000761062
-1.235e-04,0.000999375
-1.232e-04,0.00115312
-1.229e-04,0.000991687
-1.226e-04,0.00102244
-1.222e-04,0.000699562
-1.219e-04,0.000960937
-1.216e-04,0.000807187
-1.213e-04,0.000876375
-1.210e-04,0.000991687
-1.206e-04,0.00064575
-1.203e-04,0.000984
-1.200e-04,0.0006765
-1.197e-04,0.00052275
-1.194e-04,0.000492
-1.190e-04,0.00058425
-1.187e-04,0.000653437
-1.184e-04,0.0007995
-1.181e-04,0.0003075
-1.178e-04,0.0003075
-1.174e-04,0.000315187
-1.171e-04,0.000438187
-1.168e-04,0.000246
-1.165e-04,0.00058425
-1.162e-04,0.000415125
-1.158e-04,0.0005535
-1.155e-04,7.6875e-05
-1.152e-04,0.000161437
-1.149e-04,0.000330562
-1.146e-04,0.000492
-1.142e-04,0.000253687
-1.139e-04,0.000230625
-1.136e-04,0.000169125
-1.133e-04,0.000199875
-1.130e-04,3.84375e-05
-1.126e-04,-7.6875e-06
-1.123e-04,0.000107625
-1.120e-04,0.000115312
-1.117e-04,0.000138375
-1.114e-04,-0.000115312
-1.110e-04,0
-1.107e-04,0.000115312
-1.104e-04,-3.075e-05
-1.101e-04,-7.6875e-05
-1.098e-04,-0.000238312
-1.094e-04,-0.00027675
-1.091e-04,0.000115312
-1.088e-04,-9.225e-05
-1.085e-04,0.000115312
-1.082e-04,-0.0001845
-1.078e-04,-3.84375e-05
-1.075e-04,7.6875e-06
-1.072e-04,-0.000161437
-1.069e-04,-0.000138375
-1.066e-04,-6.15e-05
-1.062e-04,-0.000284437
-1.059e-04,5.38125e-05
-1.056e-04,-0.000207562
-1.053e-04,-0.000392062
-1.050e-04,-0.000161437
-1.046e-04,-0.000322875
-1.043e-04,-0.000299812
-1.040e-04,-0.000530437
-1.037e-04,-0.00039975
-1.034e-04,-0.0005535
-1.030e-04,-0.000576562
-1.027e-04,-0.000176812
-1.024e-04,-0.00064575
-1.021e-04,-0.000607312
-1.018e-04,-0.000722625
-1.014e-04,-0.000299812
-1.011e-04,-0.00052275
-1.008e-04,-0.000507375
-1.005e-04,-0.000253687
-1.002e-04,-0.0003075
-9.984e-05,-0.00033825
-9.952e-05,-0.000699562
-9.920e-05,-0.00064575
-9.888e-05,-0.000530437
-9.856e-05,-0.000476625
-9.824e-05,-0.000299812
-9.792e-05,-0.000507375
-9.760e-05,-0.000369
-9.728e-05,-0.000330562
-9.696e-05,-0.000192187
-9.664e-05,-0.000653437
-9.632e-05,-0.000322875
-9.600e-05,-0.000238312
-9.568e-05,-0.000384375
-9.536e-05,-0.000492
-9.504e-05,-0.000384375
-9.472e-05,-0.00039975
-9.440e-05,-0.0005535
-9.408e-05,-0.000192187
-9.376e-05,-0.000361312
-9.344e-05,-0.000269062
-9.312e-05,-0.000353625
-9.280e-05,-0.000392062
-9.248e-05,-0.000407437
-9.216e-05,-0.0003075
-9.184e-05,-0.000438187
-9.152e-05,-0.000622687
-9.120e-05,-0.000607312
-9.088e-05,-0.000745687
-9.056e-05,-0.000369
-9.024e-05,-0.000876375
-8.992e-05,-0.000492
-8.960e-05,-0.000230625
-8.928e-05,-0.0006765
-8.896e-05,-0.000661125
-8.864e-05,-0.000468937
-8.832e-05,-0.000530437
-8.800e-05,-0.000691875
-8.768e-05,-0.000630375
-8.736e-05,-0.000907125
-8.704e-05,-0.000807187
-8.672e-05,-0.000753375
-8.640e-05,-0.000615
-8.608e-05,-0.000714937
-8.576e-05,-0.00103012
-8.544e-05,-0.000814875
-8.512e-05,-0.000991687
-8.480e-05,-0.000369
-8.448e-05,-0.000714937
-8.416e-05,-0.000653437
-8.384e-05,-0.000822562
-8.352e-05,-0.000684187
-8.320e-05,-0.00102244
-8.288e-05,-0.00102244
-8.256e-05,-0.00101475
-8.224e-05,-0.000730312
-8.192e-05,-0.00108394
-8.160e-05,-0.00103781
-8.128e-05,-0.000930187
-8.096e-05,-0.00123769
-8.064e-05,-0.000837937
-8.032e-05,-0.000814875
-8.000e-05,-0.00119925
-7.968e-05,-0.000876375
-7.936e-05,-0.00109162
-7.904e-05,-0.00123
-7.872e-05,-0.0011685
-7.840e-05,-0.0009225
-7.808e-05,-0.00102244
-7.776e-05,-0.000607312
-7.744e-05,-0.000914812
-7.712e-05,-0.000914812
-7.680e-05,-0.000960937
-7.648e-05,-0.00118387
-7.616e-05,-0.00114544
-7.584e-05,-0.00114544
-7.552e-05,-0.00109931
-7.520e-05,-0.000945562
-7.488e-05,-0.00106856
-7.456e-05,-0.00113006
-7.424e-05,-0.00103781
-7.392e-05,-0.00125306
-7.360e-05,-0.00115312
-7.328e-05,-0.00125306
-7.296e-05,-0.00155287
-7.264e-05,-0.000976312
-7.232e-05,-0.000960937
-7.200e-05,-0.0009225
-7.168e-05,-0.00107625
-7.136e-05,-0.000899437
-7.104e-05,-0.00127612
-7.072e-05,-0.00119925
-7.040e-05,-0.00117619
-7.008e-05,-0.000960937
-6.976e-05,-0.000699562
-6.944e-05,-0.001353
-6.912e-05,-0.00139144
-6.880e-05,-0.00103012
-6.848e-05,-0.00124537
-6.816e-05,-0.00116081
-6.784e-05,-0.00116081
-6.752e-05,-0.001476
-6.720e-05,-0.00125306
-6.688e-05,-0.00118387
-6.656e-05,-0.000907125
-6.624e-05,-0.00095325
-6.592e-05,-0.000945562
-6.560e-05,-0.00128381
-6.528e-05,-0.0012915
-6.496e-05,-0.00109931
-6.464e-05,-0.00146062
-6.432e-05,-0.00102244
-6.400e-05,-0.00122231
-6.368e-05,-0.00109931
-6.336e-05,-0.00121462
-6.304e-05,-0.00150675
-6.272e-05,-0.00145294
-6.240e-05,-0.00119156
-6.208e-05,-0.00131456
-6.176e-05,-0.00132225
-6.144e-05,-0.00102244
-6.112e-05,-0.00129919
-6.080e-05,-0.0010455
-6.048e-05,-0.00101475
-6.016e-05,-0.00125306
-5.984e-05,-0.001353
-5.952e-05,-0.00131456
-5.920e-05,-0.0012915
-5.888e-05,-0.00108394
-5.856e-05,-0.00113775
-5.824e-05,-0.00162206
-5.792e-05,-0.00134531
-5.760e-05,-0.00115312
-5.728e-05,-0.00138375
-5.696e-05,-0.00118387
-5.664e-05,-0.00103781
-5.632e-05,-0.00124537
-5.600e-05,-0.00126844
-5.568e-05,-0.00136069
-5.536e-05,-0.00134531
-5.504e-05,-0.00124537
-5.472e-05,-0.0009225
-5.440e-05,-0.00121462
-5.408e-05,-0.00142219
-5.376e-05,-0.00116081
-5.344e-05,-0.00131456
-5.312e-05,-0.00103781
-5.280e-05,-0.000968625
-5.248e-05,-0.000914812
-5.216e-05,-0.00127612
-5.184e-05,-0.000884062
-5.152e-05,-0.000861
-5.120e-05,-0.00126075
-5.088e-05,-0.0010455
-5.056e-05,-0.001107
-5.024e-05,-0.00131456
-4.992e-05,-0.00111469
-4.960e-05,-0.00114544
-4.928e-05,-0.00121462
-4.896e-05,-0.000837937
-4.864e-05,-0.0010455
-4.832e-05,-0.0011685
