spettroscopia/haynes-shockley/code/data/dconst/run1.CSV

Model,TBS1102C
Firmware Version,v2015-08-04-prequal4ch70_v1.3

Point Format,Y
Horizontal Units,S
Horizontal Scale,2e-05
Sample Interval,1.6e-07
Filter Frequency,2e+08
Record Length,2000
Gating,0.0% to 100.0%
Probe Attenuation,1
Vertical Units,V
Vertical Offset,0
Vertical Scale,0.02
Label,
TIME,CH1
-1.664e-04,0.000203125
-1.662e-04,0.000228125
-1.661e-04,0.000265625
-1.659e-04,0.000134375
-1.658e-04,0.0001625
-1.656e-04,0.000140625
-1.654e-04,0.000296875
-1.653e-04,0.000346875
-1.651e-04,0.00026875
-1.650e-04,0.000146875
-1.648e-04,0.0002
-1.646e-04,0.00018125
-1.645e-04,0.00025
-1.643e-04,0.000165625
-1.642e-04,0.000165625
-1.640e-04,0.00025625
-1.638e-04,0.000115625
-1.637e-04,0.000271875
-1.635e-04,0.0003375
-1.634e-04,0.000253125
-1.632e-04,9.0625e-05
-1.630e-04,0.00025625
-1.629e-04,0.0003875
-1.627e-04,0.000159375
-1.626e-04,-0.0001125
-1.624e-04,-5.9375e-05
-1.622e-04,3.125e-05
-1.621e-04,0.000184375
-1.619e-04,0.000353125
-1.618e-04,0.0003125
-1.616e-04,0.000275
-1.614e-04,0.0001875
-1.613e-04,0.000478125
-1.611e-04,0.000178125
-1.610e-04,0.000134375
-1.608e-04,8.125e-05
-1.606e-04,9.375e-05
-1.605e-04,0.000190625
-1.603e-04,0.00023125
-1.602e-04,0.00033125
-1.600e-04,0.0002375
-1.598e-04,0.000175
-1.597e-04,0.0001875
-1.595e-04,0.0002375
-1.594e-04,0.000171875
-1.592e-04,0.00016875
-1.590e-04,0.00016875
-1.589e-04,0.000284375
-1.587e-04,0.000290625
-1.586e-04,0.0002625
-1.584e-04,9.375e-05
-1.582e-04,0.000278125
-1.581e-04,0.000409375
-1.579e-04,0.00046875
-1.578e-04,0.00025625
-1.576e-04,0.00010625
-1.574e-04,0.00016875
-1.573e-04,8.4375e-05
-1.571e-04,0.000134375
-1.570e-04,0.0002375
-1.568e-04,0.000221875
-1.566e-04,0.000278125
-1.565e-04,0.000225
-1.563e-04,0.000375
-1.562e-04,4.375e-05
-1.560e-04,0.000265625
-1.558e-04,0.000121875
-1.557e-04,0.00018125
-1.555e-04,0.000234375
-1.554e-04,0.000315625
-1.552e-04,0.000128125
-1.550e-04,0.000125
-1.549e-04,0.000246875
-1.547e-04,0.000253125
-1.546e-04,0.0003625
-1.544e-04,0.00020625
-1.542e-04,0.0003375
-1.541e-04,0.000221875
-1.539e-04,0.00019375
-1.538e-04,0.000246875
-1.536e-04,0.00016875
-1.534e-04,0.000175
-1.533e-04,0.000128125
-1.531e-04,0.0002375
-1.530e-04,0.000153125
-1.528e-04,0.00015
-1.526e-04,0.00010625
-1.525e-04,0.00040625
-1.523e-04,0.00021875
-1.522e-04,0.0002625
-1.520e-04,-0.00018125
-1.518e-04,-0.00084375
-1.517e-04,-0.0013875
-1.515e-04,-0.00198125
-1.514e-04,-0.00232187
-1.512e-04,0.0190094
-1.510e-04,0.0636969
-1.509e-04,0.0807562
-1.507e-04,0.0808
-1.506e-04,0.0808
-1.504e-04,0.0808
-1.502e-04,0.0808
-1.501e-04,0.0808
-1.499e-04,0.0808
-1.498e-04,0.0808
-1.496e-04,0.0808
-1.494e-04,0.0803344
-1.493e-04,0.0610875
-1.491e-04,0.03435
-1.490e-04,0.0163281
-1.488e-04,0.00917812
-1.486e-04,0.0104781
-1.485e-04,0.0150937
-1.483e-04,0.0199937
-1.482e-04,0.0232625
-1.480e-04,0.0242844
-1.478e-04,0.0235531
-1.477e-04,0.0220687
-1.475e-04,0.0203562
-1.474e-04,0.0189781
-1.472e-04,0.0180719
-1.470e-04,0.0177781
-1.469e-04,0.0174875
-1.467e-04,0.0172969
-1.466e-04,0.0172062
-1.464e-04,0.0170812
-1.462e-04,0.0169156
-1.461e-04,0.0165125
-1.459e-04,0.0163094
-1.458e-04,0.0163687
-1.456e-04,0.0163219
-1.454e-04,0.0162031
-1.453e-04,0.0162969
-1.451e-04,0.0160469
-1.450e-04,0.0161625
-1.448e-04,0.0162687
-1.446e-04,0.0162062
-1.445e-04,0.0161687
-1.443e-04,0.0164375
-1.442e-04,0.0164375
-1.440e-04,0.0163344
-1.438e-04,0.0163281
-1.437e-04,0.016475
-1.435e-04,0.0166875
-1.434e-04,0.0164625
-1.432e-04,0.0165437
-1.430e-04,0.0167312
-1.429e-04,0.0166219
-1.427e-04,0.0165219
-1.426e-04,0.0167562
-1.424e-04,0.0165562
-1.422e-04,0.0167187
-1.421e-04,0.0168094
-1.419e-04,0.0169094
-1.418e-04,0.0167937
-1.416e-04,0.0168
-1.414e-04,0.0167125
-1.413e-04,0.0167094
-1.411e-04,0.0167625
-1.410e-04,0.0168625
-1.408e-04,0.0167562
-1.406e-04,0.0167437
-1.405e-04,0.01675
-1.403e-04,0.0167
-1.402e-04,0.0167031
-1.400e-04,0.0167094
-1.398e-04,0.01685
-1.397e-04,0.0167062
-1.395e-04,0.0166375
-1.394e-04,0.0166062
-1.392e-04,0.0166812
-1.390e-04,0.016625
-1.389e-04,0.0166219
-1.387e-04,0.0166031
-1.386e-04,0.0166562
-1.384e-04,0.0166062
-1.382e-04,0.0166281
-1.381e-04,0.0165656
-1.379e-04,0.0166062
-1.378e-04,0.0164594
-1.376e-04,0.0163156
-1.374e-04,0.01635
-1.373e-04,0.0164125
-1.371e-04,0.0163812
-1.370e-04,0.0165281
-1.368e-04,0.0165656
-1.366e-04,0.016725
-1.365e-04,0.0164687
-1.363e-04,0.0165625
-1.362e-04,0.0166687
-1.360e-04,0.0163812
-1.358e-04,0.0164469
-1.357e-04,0.0165625
-1.355e-04,0.0166031
-1.354e-04,0.0166156
-1.352e-04,0.0165656
-1.350e-04,0.01675
-1.349e-04,0.0168969
-1.347e-04,0.0166875
-1.346e-04,0.0169531
-1.344e-04,0.01685
-1.342e-04,0.0168469
-1.341e-04,0.016825
-1.339e-04,0.0169406
-1.338e-04,0.0168594
-1.336e-04,0.0169281
-1.334e-04,0.016975
-1.333e-04,0.0170094
-1.331e-04,0.0169687
-1.330e-04,0.0169812
-1.328e-04,0.0169687
-1.326e-04,0.0170437
-1.325e-04,0.0171031
-1.323e-04,0.0169125
-1.322e-04,0.0170437
-1.320e-04,0.0171781
-1.318e-04,0.0171406
-1.317e-04,0.0172062
-1.315e-04,0.0171375
-1.314e-04,0.0171312
-1.312e-04,0.017275
-1.310e-04,0.017275
-1.309e-04,0.017175
-1.307e-04,0.0172625
-1.306e-04,0.0172906
-1.304e-04,0.0172594
-1.302e-04,0.0173156
-1.301e-04,0.0172906
-1.299e-04,0.017425
-1.298e-04,0.0175094
-1.296e-04,0.0174656
-1.294e-04,0.0174625
-1.293e-04,0.0173937
-1.291e-04,0.017375
-1.290e-04,0.0174469
-1.288e-04,0.017475
-1.286e-04,0.0174156
-1.285e-04,0.0174375
-1.283e-04,0.0175
-1.282e-04,0.0173562
-1.280e-04,0.0174094
-1.278e-04,0.0173937
-1.277e-04,0.0173719
-1.275e-04,0.0174094
-1.274e-04,0.0173062
-1.272e-04,0.01735
-1.270e-04,0.0173781
-1.269e-04,0.0172719
-1.267e-04,0.0172281
-1.266e-04,0.0172594
-1.264e-04,0.0171594
-1.262e-04,0.0172156
-1.261e-04,0.0171594
-1.259e-04,0.0171625
-1.258e-04,0.0172437
-1.256e-04,0.0173281
-1.254e-04,0.0172906
-1.253e-04,0.017175
-1.251e-04,0.0173625
-1.250e-04,0.0172812
-1.248e-04,0.0173281
-1.246e-04,0.0171875
-1.245e-04,0.0173031
-1.243e-04,0.0171469
-1.242e-04,0.0170937
-1.240e-04,0.0171812
-1.238e-04,0.0171094
-1.237e-04,0.0171
-1.235e-04,0.0169625
-1.234e-04,0.0170469
-1.232e-04,0.017125
-1.230e-04,0.0171531
-1.229e-04,0.0170906
-1.227e-04,0.0171062
-1.226e-04,0.0168469
-1.224e-04,0.0169281
-1.222e-04,0.0169562
-1.221e-04,0.0170937
-1.219e-04,0.0170594
-1.218e-04,0.0169406
-1.216e-04,0.01695
-1.214e-04,0.0169687
-1.213e-04,0.0168625
-1.211e-04,0.0170469
-1.210e-04,0.0169281
-1.208e-04,0.0169406
-1.206e-04,0.0169344
-1.205e-04,0.0168437
-1.203e-04,0.0167219
-1.202e-04,0.0167625
-1.200e-04,0.0168437
-1.198e-04,0.01685
-1.197e-04,0.0167875
-1.195e-04,0.0167031
-1.194e-04,0.0166969
-1.192e-04,0.0167125
-1.190e-04,0.0167937
-1.189e-04,0.0167375
-1.187e-04,0.0166031
-1.186e-04,0.0166531
-1.184e-04,0.0165375
-1.182e-04,0.0165687
-1.181e-04,0.0166094
-1.179e-04,0.0165812
-1.178e-04,0.0166531
-1.176e-04,0.0165469
-1.174e-04,0.0165875
-1.173e-04,0.0165531
-1.171e-04,0.0165
-1.170e-04,0.0164312
-1.168e-04,0.0165656
-1.166e-04,0.0165156
-1.165e-04,0.0164844
-1.163e-04,0.0165031
-1.162e-04,0.0165719
-1.160e-04,0.0162812
-1.158e-04,0.0164656
-1.157e-04,0.0163937
-1.155e-04,0.0163844
-1.154e-04,0.0162969
-1.152e-04,0.01625
-1.150e-04,0.0162906
-1.149e-04,0.0164281
-1.147e-04,0.0163
-1.146e-04,0.0165031
-1.144e-04,0.0163437
-1.142e-04,0.0164094
-1.141e-04,0.0162875
-1.139e-04,0.016175
-1.138e-04,0.0162687
-1.136e-04,0.0161406
-1.134e-04,0.0161875
-1.133e-04,0.0161781
-1.131e-04,0.0161969
-1.130e-04,0.0161094
-1.128e-04,0.016075
-1.126e-04,0.0160594
-1.125e-04,0.0160375
-1.123e-04,0.0159969
-1.122e-04,0.0159531
-1.120e-04,0.0160406
-1.118e-04,0.0160375
-1.117e-04,0.0161219
-1.115e-04,0.0160469
-1.114e-04,0.0159437
-1.112e-04,0.0159219
-1.110e-04,0.0160781
-1.109e-04,0.0160312
-1.107e-04,0.0160812
-1.106e-04,0.0159531
-1.104e-04,0.0160312
-1.102e-04,0.01575
-1.101e-04,0.015875
-1.099e-04,0.015875
-1.098e-04,0.0157531
-1.096e-04,0.0157094
-1.094e-04,0.0158781
-1.093e-04,0.0158156
-1.091e-04,0.0157406
-1.090e-04,0.0157625
-1.088e-04,0.0156219
-1.086e-04,0.0156406
-1.085e-04,0.0157406
-1.083e-04,0.0158406
-1.082e-04,0.0157719
-1.080e-04,0.0157219
-1.078e-04,0.0158344
-1.077e-04,0.0158312
-1.075e-04,0.0157937
-1.074e-04,0.015725
-1.072e-04,0.0157125
-1.070e-04,0.0158094
-1.069e-04,0.0154406
-1.067e-04,0.0155812
-1.066e-04,0.0157
-1.064e-04,0.0156437
-1.062e-04,0.0156594
-1.061e-04,0.0155281
-1.059e-04,0.0155625
-1.058e-04,0.0155937
-1.056e-04,0.0156437
-1.054e-04,0.0154812
-1.053e-04,0.0154531
-1.051e-04,0.0156156
-1.050e-04,0.0154687
-1.048e-04,0.01545
-1.046e-04,0.0154875
-1.045e-04,0.0156125
-1.043e-04,0.0155969
-1.042e-04,0.0153875
-1.040e-04,0.0156
-1.038e-04,0.0155531
-1.037e-04,0.0153562
-1.035e-04,0.0153437
-1.034e-04,0.0155844
-1.032e-04,0.0156531
-1.030e-04,0.0156344
-1.029e-04,0.0155875
-1.027e-04,0.0156156
-1.026e-04,0.01545
-1.024e-04,0.0153875
-1.022e-04,0.0154875
-1.021e-04,0.0153875
-1.019e-04,0.0155531
-1.018e-04,0.0159375
-1.016e-04,0.0156844
-1.014e-04,0.0156937
-1.013e-04,0.0156719
-1.011e-04,0.0156156
-1.010e-04,0.0157656
-1.008e-04,0.0153844
-1.006e-04,0.0155125
-1.005e-04,0.0154469
-1.003e-04,0.0155656
-1.002e-04,0.0154281
-1.000e-04,0.0154625
-9.984e-05,0.0154437
-9.968e-05,0.0155875
-9.952e-05,0.0154969
-9.936e-05,0.01555
-9.920e-05,0.0154281
-9.904e-05,0.0154437
-9.888e-05,0.0155812
-9.872e-05,0.0154844
-9.856e-05,0.0154687
-9.840e-05,0.0154875
-9.824e-05,0.0154187
-9.808e-05,0.0154125
-9.792e-05,0.0154562
-9.776e-05,0.0156844
-9.760e-05,0.0154562
-9.744e-05,0.0154812
-9.728e-05,0.015575
-9.712e-05,0.0156562
-9.696e-05,0.0157312
-9.680e-05,0.0153969
-9.664e-05,0.0153406
-9.648e-05,0.0153687
-9.632e-05,0.0155625
-9.616e-05,0.0154781
-9.600e-05,0.0157062
-9.584e-05,0.0156312
-9.568e-05,0.0156469
-9.552e-05,0.0154687
-9.536e-05,0.0152062
-9.520e-05,0.0153437
-9.504e-05,0.015325
-9.488e-05,0.0151844
-9.472e-05,0.0154
-9.456e-05,0.0154469
-9.440e-05,0.0155562
-9.424e-05,0.0154375
-9.408e-05,0.0152219
-9.392e-05,0.0153875
-9.376e-05,0.0153312
-9.360e-05,0.0153375
-9.344e-05,0.0154437
-9.328e-05,0.0153687
-9.312e-05,0.0152406
-9.296e-05,0.0153937
-9.280e-05,0.0152812
-9.264e-05,0.0154656
-9.248e-05,0.0154625
-9.232e-05,0.0154562
-9.216e-05,0.0153344
-9.200e-05,0.0152375
-9.184e-05,0.0152875
-9.168e-05,0.0153
-9.152e-05,0.0151937
-9.136e-05,0.0152344
-9.120e-05,0.0154344
-9.104e-05,0.0155281
-9.088e-05,0.0154094
-9.072e-05,0.0153125
-9.056e-05,0.0152062
-9.040e-05,0.0152344
-9.024e-05,0.015175
-9.008e-05,0.0152656
-8.992e-05,0.0152437
-8.976e-05,0.0153312
-8.960e-05,0.0153719
-8.944e-05,0.0152875
-8.928e-05,0.0152312
-8.912e-05,0.01525
-8.896e-05,0.0152031
-8.880e-05,0.0151625
-8.864e-05,0.015075
-8.848e-05,0.0151062
-8.832e-05,0.0152937
-8.816e-05,0.0150187
-8.800e-05,0.0151844
-8.784e-05,0.0151531
-8.768e-05,0.0151906
-8.752e-05,0.0150781
-8.736e-05,0.0151062
-8.720e-05,0.0149594
-8.704e-05,0.0150781
-8.688e-05,0.0151187
-8.672e-05,0.0148594
-8.656e-05,0.015075
-8.640e-05,0.0151406
-8.624e-05,0.0151469
-8.608e-05,0.0151
-8.592e-05,0.0152562
-8.576e-05,0.0152469
-8.560e-05,0.0150094
-8.544e-05,0.0150094
-8.528e-05,0.0150687
-8.512e-05,0.0150906
-8.496e-05,0.0152219
-8.480e-05,0.0149687
-8.464e-05,0.0147937
-8.448e-05,0.0150969
-8.432e-05,0.0150344
-8.416e-05,0.0150375
-8.400e-05,0.0148781
-8.384e-05,0.0150875
-8.368e-05,0.014875
-8.352e-05,0.0149031
-8.336e-05,0.0149469
-8.320e-05,0.0150594
-8.304e-05,0.0151719
-8.288e-05,0.0151969
-8.272e-05,0.0152656
-8.256e-05,0.0153187
-8.240e-05,0.0153094
-8.224e-05,0.0151312
-8.208e-05,0.0148719
-8.192e-05,0.0150844
-8.176e-05,0.0150219
-8.160e-05,0.0149937
-8.144e-05,0.0149469
-8.128e-05,0.01505
-8.112e-05,0.0151062
-8.096e-05,0.0149187
-8.080e-05,0.0150531
-8.064e-05,0.0150031
-8.048e-05,0.0151437
-8.032e-05,0.014975
-8.016e-05,0.0148844
-8.000e-05,0.0148031
-7.984e-05,0.0148125
-7.968e-05,0.0150687
-7.952e-05,0.0150156
-7.936e-05,0.0150344
-7.920e-05,0.0151531
-7.904e-05,0.0151094
-7.888e-05,0.0151
-7.872e-05,0.0148406
-7.856e-05,0.0146375
-7.840e-05,0.0149312
-7.824e-05,0.0146906
-7.808e-05,0.0149062
-7.792e-05,0.0149125
-7.776e-05,0.0149187
-7.760e-05,0.01495
-7.744e-05,0.0147969
-7.728e-05,0.0147562
-7.712e-05,0.0149687
-7.696e-05,0.0148031
-7.680e-05,0.014825
-7.664e-05,0.0148156
-7.648e-05,0.0149406
-7.632e-05,0.0148844
-7.616e-05,0.0150094
-7.600e-05,0.0149125
-7.584e-05,0.0148312
-7.568e-05,0.0149062
-7.552e-05,0.0148
-7.536e-05,0.0150156
-7.520e-05,0.0148719
-7.504e-05,0.0149
-7.488e-05,0.0149937
-7.472e-05,0.0149812
-7.456e-05,0.0148125
-7.440e-05,0.0149344
-7.424e-05,0.0149906
-7.408e-05,0.0148875
-7.392e-05,0.01495
-7.376e-05,0.0149719
-7.360e-05,0.0150125
-7.344e-05,0.0147437
-7.328e-05,0.0147187
-7.312e-05,0.0147906
-7.296e-05,0.0147187
-7.280e-05,0.0147406
-7.264e-05,0.0146375
-7.248e-05,0.0147
-7.232e-05,0.0146312
-7.216e-05,0.0147344
-7.200e-05,0.014825
-7.184e-05,0.0148344
-7.168e-05,0.0147625
-7.152e-05,0.0145656
-7.136e-05,0.0145844
-7.120e-05,0.01475
-7.104e-05,0.0146344
-7.088e-05,0.0146906
-7.072e-05,0.0148781
-7.056e-05,0.0147719
-7.040e-05,0.0146906
-7.024e-05,0.014775
-7.008e-05,0.0146937
-6.992e-05,0.0146125
-6.976e-05,0.0146312
-6.960e-05,0.014675
-6.944e-05,0.0145406
-6.928e-05,0.0146906
-6.912e-05,0.0147406
-6.896e-05,0.0147469
-6.880e-05,0.0147031
-6.864e-05,0.0146219
-6.848e-05,0.0146437
-6.832e-05,0.0146219
-6.816e-05,0.0146406
-6.800e-05,0.0146625
-6.784e-05,0.0145344
-6.768e-05,0.014775
-6.752e-05,0.0145187
-6.736e-05,0.01485
-6.720e-05,0.0146656
-6.704e-05,0.0146281
-6.688e-05,0.0147031
-6.672e-05,0.0145094
-6.656e-05,0.0148094
-6.640e-05,0.0146719
-6.624e-05,0.0148125
-6.608e-05,0.0146656
-6.592e-05,0.0148031
-6.576e-05,0.0147219
-6.560e-05,0.0146594
-6.544e-05,0.0146625
-6.528e-05,0.0146281
-6.512e-05,0.0146219
-6.496e-05,0.014725
-6.480e-05,0.0147094
-6.464e-05,0.0147781
-6.448e-05,0.0147156
-6.432e-05,0.0146812
-6.416e-05,0.0146344
-6.400e-05,0.0145844
-6.384e-05,0.0147187
-6.368e-05,0.0147062
-6.352e-05,0.014775
-6.336e-05,0.0147469
-6.320e-05,0.0146875
-6.304e-05,0.0147781
-6.288e-05,0.0147437
-6.272e-05,0.0147219
-6.256e-05,0.0148
-6.240e-05,0.0148
-6.224e-05,0.014775
-6.208e-05,0.0149687
-6.192e-05,0.0148156
-6.176e-05,0.0148219
-6.160e-05,0.0147656
-6.144e-05,0.0148656
-6.128e-05,0.0149219
-6.112e-05,0.0147812
-6.096e-05,0.0148625
-6.080e-05,0.0149094
-6.064e-05,0.0149281
-6.048e-05,0.0149656
-6.032e-05,0.0148781
-6.016e-05,0.0149594
-6.000e-05,0.0149406
-5.984e-05,0.0149781
-5.968e-05,0.0149031
-5.952e-05,0.0149344
-5.936e-05,0.0149031
-5.920e-05,0.0150125
-5.904e-05,0.0150125
-5.888e-05,0.0150281
-5.872e-05,0.0148875
-5.856e-05,0.0150687
-5.840e-05,0.0149344
-5.824e-05,0.0150937
-5.808e-05,0.0150281
-5.792e-05,0.0149719
-5.776e-05,0.0149
-5.760e-05,0.015025
-5.744e-05,0.0147187
-5.728e-05,0.0149906
-5.712e-05,0.0148375
-5.696e-05,0.0150281
-5.680e-05,0.0149812
-5.664e-05,0.0150125
-5.648e-05,0.0149375
-5.632e-05,0.0149687
-5.616e-05,0.0150312
-5.600e-05,0.0150625
-5.584e-05,0.0149906
-5.568e-05,0.0150094
-5.552e-05,0.0152
-5.536e-05,0.0149875
-5.520e-05,0.0150656
-5.504e-05,0.0149687
-5.488e-05,0.0149469
-5.472e-05,0.0148969
-5.456e-05,0.0148812
-5.440e-05,0.0149875
-5.424e-05,0.0151094
-5.408e-05,0.0149531
-5.392e-05,0.0149
-5.376e-05,0.0150219
-5.360e-05,0.0149844
-5.344e-05,0.0150156
-5.328e-05,0.0150219
-5.312e-05,0.0148937
-5.296e-05,0.0149375
-5.280e-05,0.0149187
-5.264e-05,0.0148687
-5.248e-05,0.0148
-5.232e-05,0.014825
-5.216e-05,0.0147906
-5.200e-05,0.0148469
-5.184e-05,0.0150344
-5.168e-05,0.0148219
-5.152e-05,0.0147219
-5.136e-05,0.0146875
-5.120e-05,0.014525
-5.104e-05,0.01475
-5.088e-05,0.0147812
-5.072e-05,0.0147375
-5.056e-05,0.0148062
-5.040e-05,0.0145625
-5.024e-05,0.0147156
-5.008e-05,0.0148281
-4.992e-05,0.0146187
-4.976e-05,0.0145531
-4.960e-05,0.0145875
-4.944e-05,0.0146312
-4.928e-05,0.0146344
-4.912e-05,0.0146
-4.896e-05,0.0144
-4.880e-05,0.0142781
-4.864e-05,0.0142594
-4.848e-05,0.0141562
-4.832e-05,0.0140906
-4.816e-05,0.0140656
-4.800e-05,0.0140781
-4.784e-05,0.0138937
-4.768e-05,0.0140281
-4.752e-05,0.0139812
-4.736e-05,0.0139594
-4.720e-05,0.0139531
-4.704e-05,0.0138312
-4.688e-05,0.0137125
-4.672e-05,0.0136031
-4.656e-05,0.0136
-4.640e-05,0.013425
-4.624e-05,0.0133812
-4.608e-05,0.0132906
-4.592e-05,0.0132469
-4.576e-05,0.0133812
-4.560e-05,0.0133344
-4.544e-05,0.0130625
-4.528e-05,0.0131969
-4.512e-05,0.0130031
-4.496e-05,0.0130062
-4.480e-05,0.013
-4.464e-05,0.0128687
-4.448e-05,0.0127625
-4.432e-05,0.0127844
-4.416e-05,0.0128406
-4.400e-05,0.0127594
-4.384e-05,0.0125531
-4.368e-05,0.0125406
-4.352e-05,0.0124687
-4.336e-05,0.0122656
-4.320e-05,0.0122219
-4.304e-05,0.0121375
-4.288e-05,0.0122031
-4.272e-05,0.0120062
-4.256e-05,0.0119781
-4.240e-05,0.0119312
-4.224e-05,0.0119812
-4.208e-05,0.0118375
-4.192e-05,0.011725
-4.176e-05,0.0116625
-4.160e-05,0.0117187
-4.144e-05,0.0117687
-4.128e-05,0.011675
-4.112e-05,0.0116687
-4.096e-05,0.0115094
-4.080e-05,0.0114969
-4.064e-05,0.0114406
-4.048e-05,0.0114125
-4.032e-05,0.0113219
-4.016e-05,0.0112469
-4.000e-05,0.0111937
-3.984e-05,0.0110719
-3.968e-05,0.0110875
-3.952e-05,0.0109094
-3.936e-05,0.0108094
-3.920e-05,0.0107594
-3.904e-05,0.010825
-3.888e-05,0.0107594
-3.872e-05,0.0108156
-3.856e-05,0.0107281
-3.840e-05,0.0107156
-3.824e-05,0.0106125
-3.808e-05,0.0105437
-3.792e-05,0.0105781
-3.776e-05,0.0104625
-3.760e-05,0.0103969
-3.744e-05,0.0103844
-3.728e-05,0.0104531
-3.712e-05,0.01035
-3.696e-05,0.010175
-3.680e-05,0.0100531
-3.664e-05,0.00998125
-3.648e-05,0.00989375
-3.632e-05,0.0100156
-3.616e-05,0.0102094
-3.600e-05,0.0100437
-3.584e-05,0.00999375
-3.568e-05,0.0100906
-3.552e-05,0.0100906
-3.536e-05,0.010025
-3.520e-05,0.0101187
-3.504e-05,0.0099625
-3.488e-05,0.00986875
-3.472e-05,0.00987187
-3.456e-05,0.00989375
-3.440e-05,0.00988125
-3.424e-05,0.00985625
-3.408e-05,0.00989062
-3.392e-05,0.00984375
-3.376e-05,0.00975312
-3.360e-05,0.00970312
-3.344e-05,0.00965312
-3.328e-05,0.00964062
-3.312e-05,0.00959687
-3.296e-05,0.0096375
-3.280e-05,0.00968125
-3.264e-05,0.00971562
-3.248e-05,0.0096625
-3.232e-05,0.00964687
-3.216e-05,0.00968125
-3.200e-05,0.00962812
-3.184e-05,0.00962812
-3.168e-05,0.0096
-3.152e-05,0.009425
-3.136e-05,0.00937812
-3.120e-05,0.00953125
-3.104e-05,0.0094625
-3.088e-05,0.00946562
-3.072e-05,0.00946562
-3.056e-05,0.00950312
-3.040e-05,0.0095875
-3.024e-05,0.00949375
-3.008e-05,0.00941562
-2.992e-05,0.00950312
-2.976e-05,0.00940312
-2.960e-05,0.00944375
-2.944e-05,0.00938125
-2.928e-05,0.00945937
-2.912e-05,0.00935
-2.896e-05,0.00945625
-2.880e-05,0.00941875
-2.864e-05,0.00942812
-2.848e-05,0.0095375
-2.832e-05,0.00940937
-2.816e-05,0.00935937
-2.800e-05,0.0093625
-2.784e-05,0.00935625
-2.768e-05,0.00941562
-2.752e-05,0.00954062
-2.736e-05,0.00957187
-2.720e-05,0.00944375
-2.704e-05,0.00949375
-2.688e-05,0.00950937
-2.672e-05,0.00950937
-2.656e-05,0.0094875
-2.640e-05,0.0093
-2.624e-05,0.00948437
-2.608e-05,0.00940937
-2.592e-05,0.00934375
-2.576e-05,0.00950312
-2.560e-05,0.00934062
-2.544e-05,0.0094625
-2.528e-05,0.00945625
-2.512e-05,0.00946562
-2.496e-05,0.00949062
-2.480e-05,0.00949062
-2.464e-05,0.00948125
-2.448e-05,0.00940625
-2.432e-05,0.009325
-2.416e-05,0.0094
-2.400e-05,0.00950625
-2.384e-05,0.00955312
-2.368e-05,0.00947187
-2.352e-05,0.00946562
-2.336e-05,0.00947187
-2.320e-05,0.00946875
-2.304e-05,0.00954062
-2.288e-05,0.00931562
-2.272e-05,0.00935312
-2.256e-05,0.00941562
-2.240e-05,0.00939062
-2.224e-05,0.00934375
-2.208e-05,0.0094625
-2.192e-05,0.00945312
-2.176e-05,0.00947812
-2.160e-05,0.00959062
-2.144e-05,0.00950625
-2.128e-05,0.00955
-2.112e-05,0.00936875
-2.096e-05,0.00945
-2.080e-05,0.00936875
-2.064e-05,0.00940625
-2.048e-05,0.00956562
-2.032e-05,0.00945937
-2.016e-05,0.00929687
-2.000e-05,0.00926875
-1.984e-05,0.00940312
-1.968e-05,0.00933437
-1.952e-05,0.00953437
-1.936e-05,0.009675
-1.920e-05,0.00959687
-1.904e-05,0.00943437
-1.888e-05,0.00959062
-1.872e-05,0.00943125
-1.856e-05,0.00941875
-1.840e-05,0.00950625
-1.824e-05,0.00956562
-1.808e-05,0.00944687
-1.792e-05,0.00950312
-1.776e-05,0.00959375
-1.760e-05,0.00933125
-1.744e-05,0.00949375
-1.728e-05,0.0094875
-1.712e-05,0.00947812
-1.696e-05,0.0093875
-1.680e-05,0.00937812
-1.664e-05,0.0094
-1.648e-05,0.00937187
