spettroscopia/haynes-shockley/code/data/dconst/run3.CSV

Model,TBS1102C
Firmware Version,v2015-08-04-prequal4ch70_v1.3

Point Format,Y
Horizontal Units,S
Horizontal Scale,2e-05
Sample Interval,1.6e-07
Filter Frequency,2e+08
Record Length,2000
Gating,0.0% to 100.0%
Probe Attenuation,1
Vertical Units,V
Vertical Offset,0
Vertical Scale,0.02
Label,
TIME,CH1
-1.664e-04,0.000415625
-1.662e-04,0.00035625
-1.661e-04,0.000309375
-1.659e-04,0.0003
-1.658e-04,0.00015
-1.656e-04,0.0003375
-1.654e-04,0.000125
-1.653e-04,0.000184375
-1.651e-04,0.00025625
-1.650e-04,0.00033125
-1.648e-04,0.000421875
-1.646e-04,0.000309375
-1.645e-04,0.000365625
-1.643e-04,0.000334375
-1.642e-04,0.00028125
-1.640e-04,0.00020625
-1.638e-04,0.00030625
-1.637e-04,0.000303125
-1.635e-04,0.000390625
-1.634e-04,0.000490625
-1.632e-04,0.000371875
-1.630e-04,0.00044375
-1.629e-04,0.000234375
-1.627e-04,0.0003375
-1.626e-04,0.000428125
-1.624e-04,0.000346875
-1.622e-04,0.00026875
-1.621e-04,0.0001
-1.619e-04,0.000215625
-1.618e-04,0.000440625
-1.616e-04,0.0004125
-1.614e-04,0.000528125
-1.613e-04,0.00041875
-1.611e-04,0.000375
-1.610e-04,0.000403125
-1.608e-04,0.00051875
-1.606e-04,0.0003
-1.605e-04,0.000378125
-1.603e-04,0.00025
-1.602e-04,0.00035
-1.600e-04,0.00058125
-1.598e-04,0.000396875
-1.597e-04,0.000384375
-1.595e-04,0.000353125
-1.594e-04,0.000421875
-1.592e-04,0.0004375
-1.590e-04,0.000384375
-1.589e-04,0.000384375
-1.587e-04,0.000390625
-1.586e-04,0.0003875
-1.584e-04,0.00044375
-1.582e-04,0.000378125
-1.581e-04,0.000478125
-1.579e-04,0.000709375
-1.578e-04,0.000659375
-1.576e-04,0.000425
-1.574e-04,0.00030625
-1.573e-04,0.00025625
-1.571e-04,9.6875e-05
-1.570e-04,0.00024375
-1.568e-04,0.0002625
-1.566e-04,0.00030625
-1.565e-04,0.0003625
-1.563e-04,0.000246875
-1.562e-04,0.0003125
-1.560e-04,0.000303125
-1.558e-04,0.000334375
-1.557e-04,0.000196875
-1.555e-04,0.00033125
-1.554e-04,0.000409375
-1.552e-04,0.000425
-1.550e-04,0.000346875
-1.549e-04,0.000378125
-1.547e-04,0.0003125
-1.546e-04,0.00026875
-1.544e-04,0.000375
-1.542e-04,0.000321875
-1.541e-04,0.000315625
-1.539e-04,0.000403125
-1.538e-04,0.00030625
-1.536e-04,0.000434375
-1.534e-04,0.000365625
-1.533e-04,0.00034375
-1.531e-04,0.00033125
-1.530e-04,0.00031875
-1.528e-04,0.000178125
-1.526e-04,0.00026875
-1.525e-04,0.000384375
-1.523e-04,0.000396875
-1.522e-04,0.00046875
-1.520e-04,0.0003625
-1.518e-04,0.000275
-1.517e-04,7.8125e-05
-1.515e-04,-0.0006875
-1.514e-04,-0.00112812
-1.512e-04,-0.001525
-1.510e-04,-0.00230625
-1.509e-04,0.0227594
-1.507e-04,0.0690312
-1.506e-04,0.0808
-1.504e-04,0.0808
-1.502e-04,0.0808
-1.501e-04,0.0808
-1.499e-04,0.0808
-1.498e-04,0.0808
-1.496e-04,0.0808
-1.494e-04,0.0808
-1.493e-04,0.0808
-1.491e-04,0.0808469
-1.490e-04,0.0808
-1.488e-04,0.0757781
-1.486e-04,0.0562812
-1.485e-04,0.0463125
-1.483e-04,0.0452469
-1.482e-04,0.0489375
-1.480e-04,0.0534281
-1.478e-04,0.0567406
-1.477e-04,0.0582094
-1.475e-04,0.0575719
-1.474e-04,0.0562219
-1.472e-04,0.0544656
-1.470e-04,0.0531812
-1.469e-04,0.0521219
-1.467e-04,0.0518187
-1.466e-04,0.0514406
-1.464e-04,0.0516187
-1.462e-04,0.0513125
-1.461e-04,0.0513594
-1.459e-04,0.0513875
-1.458e-04,0.0514344
-1.456e-04,0.0512594
-1.454e-04,0.051225
-1.453e-04,0.051325
-1.451e-04,0.0514781
-1.450e-04,0.0514562
-1.448e-04,0.0515281
-1.446e-04,0.0515906
-1.445e-04,0.0516594
-1.443e-04,0.0515812
-1.442e-04,0.0517562
-1.440e-04,0.051625
-1.438e-04,0.0516219
-1.437e-04,0.0516437
-1.435e-04,0.0517531
-1.434e-04,0.0518437
-1.432e-04,0.0516844
-1.430e-04,0.0515781
-1.429e-04,0.0516687
-1.427e-04,0.0516187
-1.426e-04,0.0516062
-1.424e-04,0.0515437
-1.422e-04,0.05155
-1.421e-04,0.0516281
-1.419e-04,0.0516375
-1.418e-04,0.0517219
-1.416e-04,0.0515562
-1.414e-04,0.0516937
-1.413e-04,0.0516219
-1.411e-04,0.0516562
-1.410e-04,0.0515
-1.408e-04,0.0514031
-1.406e-04,0.0514094
-1.405e-04,0.0513875
-1.403e-04,0.05145
-1.402e-04,0.0514656
-1.400e-04,0.0512125
-1.398e-04,0.0513406
-1.397e-04,0.051225
-1.395e-04,0.0512562
-1.394e-04,0.0512687
-1.392e-04,0.05115
-1.390e-04,0.0509781
-1.389e-04,0.0510156
-1.387e-04,0.051
-1.386e-04,0.0510969
-1.384e-04,0.0509969
-1.382e-04,0.0509969
-1.381e-04,0.0511031
-1.379e-04,0.0509344
-1.378e-04,0.0510219
-1.376e-04,0.0509656
-1.374e-04,0.051125
-1.373e-04,0.0509781
-1.371e-04,0.0509062
-1.370e-04,0.0510687
-1.368e-04,0.0508281
-1.366e-04,0.0511812
-1.365e-04,0.0511781
-1.363e-04,0.0512844
-1.362e-04,0.0510125
-1.360e-04,0.0511937
-1.358e-04,0.0511219
-1.357e-04,0.0511875
-1.355e-04,0.0511375
-1.354e-04,0.0510469
-1.352e-04,0.0512219
-1.350e-04,0.0511875
-1.349e-04,0.0513844
-1.347e-04,0.0513375
-1.346e-04,0.0512625
-1.344e-04,0.0513406
-1.342e-04,0.051325
-1.341e-04,0.0511406
-1.339e-04,0.0512
-1.338e-04,0.0512562
-1.336e-04,0.05125
-1.334e-04,0.0512
-1.333e-04,0.0512
-1.331e-04,0.0512594
-1.330e-04,0.0511531
-1.328e-04,0.0511031
-1.326e-04,0.0513125
-1.325e-04,0.05115
-1.323e-04,0.0511125
-1.322e-04,0.0511656
-1.320e-04,0.0512437
-1.318e-04,0.0513312
-1.317e-04,0.0512375
-1.315e-04,0.0511875
-1.314e-04,0.051275
-1.312e-04,0.051225
-1.310e-04,0.0511281
-1.309e-04,0.0512906
-1.307e-04,0.0511125
-1.306e-04,0.0512437
-1.304e-04,0.0512031
-1.302e-04,0.0511656
-1.301e-04,0.0511875
-1.299e-04,0.05105
-1.298e-04,0.0511406
-1.296e-04,0.0511219
-1.294e-04,0.0510531
-1.293e-04,0.0509687
-1.291e-04,0.0509906
-1.290e-04,0.05095
-1.288e-04,0.0510437
-1.286e-04,0.0508969
-1.285e-04,0.050925
-1.283e-04,0.0507187
-1.282e-04,0.0508594
-1.280e-04,0.0508094
-1.278e-04,0.0508
-1.277e-04,0.0506531
-1.275e-04,0.0505031
-1.274e-04,0.0506969
-1.272e-04,0.0507062
-1.270e-04,0.0505062
-1.269e-04,0.0506094
-1.267e-04,0.0505469
-1.266e-04,0.0505
-1.264e-04,0.0504812
-1.262e-04,0.0504375
-1.261e-04,0.0501906
-1.259e-04,0.050275
-1.258e-04,0.0502625
-1.256e-04,0.0502844
-1.254e-04,0.0503781
-1.253e-04,0.05025
-1.251e-04,0.0503094
-1.250e-04,0.050175
-1.248e-04,0.0500781
-1.246e-04,0.0497812
-1.245e-04,0.0499656
-1.243e-04,0.0498844
-1.242e-04,0.0499312
-1.240e-04,0.0498469
-1.238e-04,0.0499219
-1.237e-04,0.0499062
-1.235e-04,0.0498312
-1.234e-04,0.0497437
-1.232e-04,0.049925
-1.230e-04,0.049675
-1.229e-04,0.049625
-1.227e-04,0.0497625
-1.226e-04,0.0497187
-1.224e-04,0.0496875
-1.222e-04,0.0497687
-1.221e-04,0.0497281
-1.219e-04,0.0496031
-1.218e-04,0.0496344
-1.216e-04,0.0495937
-1.214e-04,0.0495594
-1.213e-04,0.0496656
-1.211e-04,0.0496312
-1.210e-04,0.0496031
-1.208e-04,0.0493312
-1.206e-04,0.0493562
-1.205e-04,0.0494625
-1.203e-04,0.0494969
-1.202e-04,0.0494406
-1.200e-04,0.0493437
-1.198e-04,0.0493031
-1.197e-04,0.0493875
-1.195e-04,0.0492187
-1.194e-04,0.0491937
-1.192e-04,0.0492969
-1.190e-04,0.0491812
-1.189e-04,0.049125
-1.187e-04,0.0492656
-1.186e-04,0.0491094
-1.184e-04,0.0490969
-1.182e-04,0.0489656
-1.181e-04,0.0489719
-1.179e-04,0.0489406
-1.178e-04,0.0490187
-1.176e-04,0.0488844
-1.174e-04,0.0486906
-1.173e-04,0.0488437
-1.171e-04,0.0487531
-1.170e-04,0.04875
-1.168e-04,0.0487937
-1.166e-04,0.0486906
-1.165e-04,0.0487781
-1.163e-04,0.0487344
-1.162e-04,0.0487312
-1.160e-04,0.0488094
-1.158e-04,0.0486625
-1.157e-04,0.0487812
-1.155e-04,0.0488031
-1.154e-04,0.0486125
-1.152e-04,0.0486594
-1.150e-04,0.0486312
-1.149e-04,0.048725
-1.147e-04,0.0485125
-1.146e-04,0.0485312
-1.144e-04,0.0486344
-1.142e-04,0.0485812
-1.141e-04,0.0485281
-1.139e-04,0.0483562
-1.138e-04,0.0484375
-1.136e-04,0.0484656
-1.134e-04,0.0483125
-1.133e-04,0.0483125
-1.131e-04,0.0483687
-1.130e-04,0.0483531
-1.128e-04,0.0482562
-1.126e-04,0.0482875
-1.125e-04,0.0484437
-1.123e-04,0.0482625
-1.122e-04,0.0480844
-1.120e-04,0.0481906
-1.118e-04,0.0481437
-1.117e-04,0.0482875
-1.115e-04,0.0481312
-1.114e-04,0.0482062
-1.112e-04,0.0481187
-1.110e-04,0.0482781
-1.109e-04,0.0483656
-1.107e-04,0.0481531
-1.106e-04,0.0483781
-1.104e-04,0.0483687
-1.102e-04,0.0481531
-1.101e-04,0.0482531
-1.099e-04,0.04805
-1.098e-04,0.0481281
-1.096e-04,0.0480406
-1.094e-04,0.0479719
-1.093e-04,0.0479594
-1.091e-04,0.048075
-1.090e-04,0.0480406
-1.088e-04,0.0480219
-1.086e-04,0.0480625
-1.085e-04,0.0479937
-1.083e-04,0.0480062
-1.082e-04,0.0481094
-1.080e-04,0.0480406
-1.078e-04,0.0480906
-1.077e-04,0.0481062
-1.075e-04,0.0481125
-1.074e-04,0.0480219
-1.072e-04,0.0478875
-1.070e-04,0.0480406
-1.069e-04,0.0480844
-1.067e-04,0.0481781
-1.066e-04,0.0481344
-1.064e-04,0.0482906
-1.062e-04,0.048
-1.061e-04,0.0480062
-1.059e-04,0.0480562
-1.058e-04,0.0482562
-1.056e-04,0.048175
-1.054e-04,0.0481719
-1.053e-04,0.04825
-1.051e-04,0.0480562
-1.050e-04,0.0482
-1.048e-04,0.0481375
-1.046e-04,0.0480531
-1.045e-04,0.0480937
-1.043e-04,0.0479469
-1.042e-04,0.04805
-1.040e-04,0.04805
-1.038e-04,0.0479687
-1.037e-04,0.0481187
-1.035e-04,0.0479437
-1.034e-04,0.0482344
-1.032e-04,0.0480437
-1.030e-04,0.0477906
-1.029e-04,0.0479094
-1.027e-04,0.0479125
-1.026e-04,0.0478594
-1.024e-04,0.0478969
-1.022e-04,0.04795
-1.021e-04,0.0479875
-1.019e-04,0.0479969
-1.018e-04,0.0479156
-1.016e-04,0.0478375
-1.014e-04,0.0478437
-1.013e-04,0.0477687
-1.011e-04,0.0477875
-1.010e-04,0.0479062
-1.008e-04,0.0479031
-1.006e-04,0.0477125
-1.005e-04,0.0479062
-1.003e-04,0.047825
-1.002e-04,0.0476594
-1.000e-04,0.0476781
-9.984e-05,0.0476375
-9.968e-05,0.0476344
-9.952e-05,0.0476906
-9.936e-05,0.0477656
-9.920e-05,0.0476406
-9.904e-05,0.0475031
-9.888e-05,0.0476562
-9.872e-05,0.0478156
-9.856e-05,0.047775
-9.840e-05,0.047575
-9.824e-05,0.0477156
-9.808e-05,0.0474594
-9.792e-05,0.0475781
-9.776e-05,0.0475562
-9.760e-05,0.0475656
-9.744e-05,0.0476969
-9.728e-05,0.0478125
-9.712e-05,0.0476312
-9.696e-05,0.0476219
-9.680e-05,0.0475375
-9.664e-05,0.0475344
-9.648e-05,0.0475531
-9.632e-05,0.0474406
-9.616e-05,0.0476094
-9.600e-05,0.0474875
-9.584e-05,0.0475812
-9.568e-05,0.0475906
-9.552e-05,0.0475562
-9.536e-05,0.0476875
-9.520e-05,0.0476656
-9.504e-05,0.0476656
-9.488e-05,0.0476656
-9.472e-05,0.0475687
-9.456e-05,0.0475437
-9.440e-05,0.047475
-9.424e-05,0.0475812
-9.408e-05,0.0476625
-9.392e-05,0.0475937
-9.376e-05,0.0476187
-9.360e-05,0.0476969
-9.344e-05,0.0477062
-9.328e-05,0.0477312
-9.312e-05,0.0475094
-9.296e-05,0.0474594
-9.280e-05,0.0474937
-9.264e-05,0.0475125
-9.248e-05,0.0474062
-9.232e-05,0.0475437
-9.216e-05,0.0475937
-9.200e-05,0.0475125
-9.184e-05,0.0475031
-9.168e-05,0.0475094
-9.152e-05,0.0475219
-9.136e-05,0.047425
-9.120e-05,0.0475406
-9.104e-05,0.047475
-9.088e-05,0.0473844
-9.072e-05,0.0473094
-9.056e-05,0.0472844
-9.040e-05,0.047375
-9.024e-05,0.0475094
-9.008e-05,0.0472906
-8.992e-05,0.0473719
-8.976e-05,0.0473344
-8.960e-05,0.0473094
-8.944e-05,0.0472875
-8.928e-05,0.0472437
-8.912e-05,0.0473187
-8.896e-05,0.0473375
-8.880e-05,0.0474594
-8.864e-05,0.0473375
-8.848e-05,0.0472906
-8.832e-05,0.0473937
-8.816e-05,0.04715
-8.800e-05,0.0471531
-8.784e-05,0.0473219
-8.768e-05,0.0472125
-8.752e-05,0.0472375
-8.736e-05,0.0470125
-8.720e-05,0.0470719
-8.704e-05,0.0471437
-8.688e-05,0.0471719
-8.672e-05,0.04725
-8.656e-05,0.0471125
-8.640e-05,0.0473125
-8.624e-05,0.0471812
-8.608e-05,0.0471937
-8.592e-05,0.0470281
-8.576e-05,0.0470687
-8.560e-05,0.0470406
-8.544e-05,0.0470531
-8.528e-05,0.0471469
-8.512e-05,0.0470969
-8.496e-05,0.0470687
-8.480e-05,0.0470125
-8.464e-05,0.0469219
-8.448e-05,0.0469687
-8.432e-05,0.0469781
-8.416e-05,0.0469875
-8.400e-05,0.0470281
-8.384e-05,0.0468375
-8.368e-05,0.0469062
-8.352e-05,0.0470031
-8.336e-05,0.0469187
-8.320e-05,0.0471531
-8.304e-05,0.0470844
-8.288e-05,0.0471594
-8.272e-05,0.0470844
-8.256e-05,0.0468344
-8.240e-05,0.0467719
-8.224e-05,0.0469781
-8.208e-05,0.0469531
-8.192e-05,0.046775
-8.176e-05,0.046775
-8.160e-05,0.0469
-8.144e-05,0.046975
-8.128e-05,0.0468219
-8.112e-05,0.0468406
-8.096e-05,0.0467062
-8.080e-05,0.0467625
-8.064e-05,0.0469125
-8.048e-05,0.0467594
-8.032e-05,0.0466437
-8.016e-05,0.0466625
-8.000e-05,0.0466531
-7.984e-05,0.0465437
-7.968e-05,0.0466844
-7.952e-05,0.0468344
-7.936e-05,0.0467594
-7.920e-05,0.046725
-7.904e-05,0.046725
-7.888e-05,0.0465031
-7.872e-05,0.0468937
-7.856e-05,0.0466625
-7.840e-05,0.0467219
-7.824e-05,0.0466969
-7.808e-05,0.0467719
-7.792e-05,0.04675
-7.776e-05,0.0467937
-7.760e-05,0.046675
-7.744e-05,0.0469281
-7.728e-05,0.0469687
-7.712e-05,0.0467937
-7.696e-05,0.0468125
-7.680e-05,0.0469375
-7.664e-05,0.0469687
-7.648e-05,0.0468687
-7.632e-05,0.0467406
-7.616e-05,0.0468781
-7.600e-05,0.0468375
-7.584e-05,0.0468594
-7.568e-05,0.0469562
-7.552e-05,0.0470531
-7.536e-05,0.0468687
-7.520e-05,0.0467844
-7.504e-05,0.0468094
-7.488e-05,0.0468937
-7.472e-05,0.0468219
-7.456e-05,0.0468
-7.440e-05,0.0470187
-7.424e-05,0.0469687
-7.408e-05,0.0470656
-7.392e-05,0.0469
-7.376e-05,0.0470187
-7.360e-05,0.0469219
-7.344e-05,0.0469562
-7.328e-05,0.0468937
-7.312e-05,0.0468937
-7.296e-05,0.0466125
-7.280e-05,0.0469812
-7.264e-05,0.0470719
-7.248e-05,0.0469312
-7.232e-05,0.0470406
-7.216e-05,0.0470094
-7.200e-05,0.0471531
-7.184e-05,0.0472
-7.168e-05,0.0470906
-7.152e-05,0.0471219
-7.136e-05,0.0471187
-7.120e-05,0.0470562
-7.104e-05,0.0470937
-7.088e-05,0.0472562
-7.072e-05,0.0472406
-7.056e-05,0.0473156
-7.040e-05,0.04715
-7.024e-05,0.047125
-7.008e-05,0.0471031
-6.992e-05,0.0471719
-6.976e-05,0.0472469
-6.960e-05,0.0468594
-6.944e-05,0.0469781
-6.928e-05,0.0470156
-6.912e-05,0.0470687
-6.896e-05,0.0470594
-6.880e-05,0.0471312
-6.864e-05,0.0470469
-6.848e-05,0.0469281
-6.832e-05,0.0471156
-6.816e-05,0.0469375
-6.800e-05,0.0469906
-6.784e-05,0.0468531
-6.768e-05,0.0468125
-6.752e-05,0.0467281
-6.736e-05,0.0468562
-6.720e-05,0.0466812
-6.704e-05,0.0467281
-6.688e-05,0.0467969
-6.672e-05,0.0465937
-6.656e-05,0.0466875
-6.640e-05,0.0465906
-6.624e-05,0.046475
-6.608e-05,0.0463094
-6.592e-05,0.0463
-6.576e-05,0.0464406
-6.560e-05,0.0463937
-6.544e-05,0.0462594
-6.528e-05,0.0462031
-6.512e-05,0.04615
-6.496e-05,0.0461156
-6.480e-05,0.0460094
-6.464e-05,0.0457781
-6.448e-05,0.0457687
-6.432e-05,0.0457937
-6.416e-05,0.0456656
-6.400e-05,0.0455469
-6.384e-05,0.0454562
-6.368e-05,0.0453031
-6.352e-05,0.0452625
-6.336e-05,0.0450094
-6.320e-05,0.0447687
-6.304e-05,0.0447125
-6.288e-05,0.0447031
-6.272e-05,0.0445406
-6.256e-05,0.0443
-6.240e-05,0.0443031
-6.224e-05,0.0441187
-6.208e-05,0.0441219
-6.192e-05,0.0441437
-6.176e-05,0.0438062
-6.160e-05,0.0436531
-6.144e-05,0.0433875
-6.128e-05,0.0432719
-6.112e-05,0.0431719
-6.096e-05,0.0428906
-6.080e-05,0.0429219
-6.064e-05,0.0427844
-6.048e-05,0.0426812
-6.032e-05,0.0424719
-6.016e-05,0.04235
-6.000e-05,0.0420312
-5.984e-05,0.0419219
-5.968e-05,0.0416937
-5.952e-05,0.041475
-5.936e-05,0.0414812
-5.920e-05,0.041325
-5.904e-05,0.0413
-5.888e-05,0.0413094
-5.872e-05,0.0411156
-5.856e-05,0.0410219
-5.840e-05,0.0407375
-5.824e-05,0.0406562
-5.808e-05,0.0404469
-5.792e-05,0.0402562
-5.776e-05,0.0400531
-5.760e-05,0.0400437
-5.744e-05,0.0400187
-5.728e-05,0.039775
-5.712e-05,0.0397344
-5.696e-05,0.0396187
-5.680e-05,0.0395125
-5.664e-05,0.0393531
-5.648e-05,0.0392562
-5.632e-05,0.0390281
-5.616e-05,0.0389344
-5.600e-05,0.0387
-5.584e-05,0.0387312
-5.568e-05,0.0385812
-5.552e-05,0.0383969
-5.536e-05,0.0384031
-5.520e-05,0.0382469
-5.504e-05,0.038275
-5.488e-05,0.0381312
-5.472e-05,0.0380719
-5.456e-05,0.0379531
-5.440e-05,0.037725
-5.424e-05,0.0377156
-5.408e-05,0.0376844
-5.392e-05,0.0376812
-5.376e-05,0.0376687
-5.360e-05,0.0375312
-5.344e-05,0.0373687
-5.328e-05,0.0373344
-5.312e-05,0.0372219
-5.296e-05,0.0372969
-5.280e-05,0.036975
-5.264e-05,0.0369625
-5.248e-05,0.0369344
-5.232e-05,0.0369
-5.216e-05,0.0367
-5.200e-05,0.0368156
-5.184e-05,0.0367406
-5.168e-05,0.0367469
-5.152e-05,0.0366656
-5.136e-05,0.0366437
-5.120e-05,0.0366594
-5.104e-05,0.0364625
-5.088e-05,0.0363094
-5.072e-05,0.0364875
-5.056e-05,0.0365187
-5.040e-05,0.0365656
-5.024e-05,0.0363719
-5.008e-05,0.0364656
-4.992e-05,0.0363406
-4.976e-05,0.0364281
-4.960e-05,0.0363187
-4.944e-05,0.0361656
-4.928e-05,0.0362281
-4.912e-05,0.0362937
-4.896e-05,0.0362406
-4.880e-05,0.0361812
-4.864e-05,0.0361062
-4.848e-05,0.0360094
-4.832e-05,0.0361781
-4.816e-05,0.0360812
-4.800e-05,0.0361406
-4.784e-05,0.0360312
-4.768e-05,0.0362375
-4.752e-05,0.0361125
-4.736e-05,0.0359562
-4.720e-05,0.0359437
-4.704e-05,0.0361406
-4.688e-05,0.0358906
-4.672e-05,0.0359687
-4.656e-05,0.0360406
-4.640e-05,0.0361531
-4.624e-05,0.0361844
-4.608e-05,0.0361156
-4.592e-05,0.0359781
-4.576e-05,0.0359656
-4.560e-05,0.0360625
-4.544e-05,0.0358312
-4.528e-05,0.0359
-4.512e-05,0.0359312
-4.496e-05,0.0361375
-4.480e-05,0.0360719
-4.464e-05,0.0360437
-4.448e-05,0.0361125
-4.432e-05,0.0361187
-4.416e-05,0.0362562
-4.400e-05,0.0362125
-4.384e-05,0.036025
-4.368e-05,0.0359844
-4.352e-05,0.0360812
-4.336e-05,0.0359687
-4.320e-05,0.0360625
-4.304e-05,0.0360781
-4.288e-05,0.0360781
-4.272e-05,0.0360219
-4.256e-05,0.0359969
-4.240e-05,0.0361281
-4.224e-05,0.0360187
-4.208e-05,0.0362344
-4.192e-05,0.0360719
-4.176e-05,0.0361719
-4.160e-05,0.0358187
-4.144e-05,0.0359906
-4.128e-05,0.0359906
-4.112e-05,0.035875
-4.096e-05,0.0359656
-4.080e-05,0.0362094
-4.064e-05,0.0361281
-4.048e-05,0.0361875
-4.032e-05,0.0360969
-4.016e-05,0.0359937
-4.000e-05,0.0360406
-3.984e-05,0.0359656
-3.968e-05,0.0359937
-3.952e-05,0.03625
-3.936e-05,0.0360187
-3.920e-05,0.0361531
-3.904e-05,0.0361844
-3.888e-05,0.0361281
-3.872e-05,0.0362156
-3.856e-05,0.0359969
-3.840e-05,0.0360375
-3.824e-05,0.0359875
-3.808e-05,0.0358875
-3.792e-05,0.03595
-3.776e-05,0.0360375
-3.760e-05,0.0360219
-3.744e-05,0.0360281
-3.728e-05,0.036125
-3.712e-05,0.0361531
-3.696e-05,0.0360719
-3.680e-05,0.0360344
-3.664e-05,0.0359875
-3.648e-05,0.0359906
-3.632e-05,0.0359906
-3.616e-05,0.0359875
-3.600e-05,0.0359937
-3.584e-05,0.0360219
-3.568e-05,0.0358562
-3.552e-05,0.0361156
-3.536e-05,0.0361406
-3.520e-05,0.0358812
-3.504e-05,0.0359031
-3.488e-05,0.0358375
-3.472e-05,0.0359344
-3.456e-05,0.0358562
-3.440e-05,0.0359906
-3.424e-05,0.0359687
-3.408e-05,0.0358375
-3.392e-05,0.0359406
-3.376e-05,0.0359281
-3.360e-05,0.0359062
-3.344e-05,0.0360281
-3.328e-05,0.0359625
-3.312e-05,0.0359906
-3.296e-05,0.0358812
-3.280e-05,0.0359625
-3.264e-05,0.0359562
-3.248e-05,0.0358687
-3.232e-05,0.0358844
-3.216e-05,0.0359219
-3.200e-05,0.0360094
-3.184e-05,0.0359781
-3.168e-05,0.0359406
-3.152e-05,0.0358781
-3.136e-05,0.0359
-3.120e-05,0.0358094
-3.104e-05,0.0358562
-3.088e-05,0.0359
-3.072e-05,0.0358562
-3.056e-05,0.035975
-3.040e-05,0.0359469
-3.024e-05,0.0359937
-3.008e-05,0.0359
-2.992e-05,0.0358031
-2.976e-05,0.0356656
-2.960e-05,0.0360062
-2.944e-05,0.0359062
-2.928e-05,0.0358531
-2.912e-05,0.03585
-2.896e-05,0.0357187
-2.880e-05,0.0358594
-2.864e-05,0.0357187
-2.848e-05,0.0358031
-2.832e-05,0.0358
-2.816e-05,0.0357937
-2.800e-05,0.0357469
-2.784e-05,0.0358031
-2.768e-05,0.0356594
-2.752e-05,0.0360312
-2.736e-05,0.0358969
-2.720e-05,0.0358781
-2.704e-05,0.0358219
-2.688e-05,0.0359344
-2.672e-05,0.0358594
-2.656e-05,0.0357656
-2.640e-05,0.0359969
-2.624e-05,0.0359156
-2.608e-05,0.035925
-2.592e-05,0.0359562
-2.576e-05,0.035875
-2.560e-05,0.0357344
-2.544e-05,0.0356906
-2.528e-05,0.0357062
-2.512e-05,0.0357312
-2.496e-05,0.0358125
-2.480e-05,0.035775
-2.464e-05,0.0357344
-2.448e-05,0.0355687
-2.432e-05,0.0356031
-2.416e-05,0.0358219
-2.400e-05,0.0357906
-2.384e-05,0.0357062
-2.368e-05,0.0357469
-2.352e-05,0.0358531
-2.336e-05,0.0357219
-2.320e-05,0.0357031
-2.304e-05,0.0357656
-2.288e-05,0.0358719
-2.272e-05,0.0356531
-2.256e-05,0.0358062
-2.240e-05,0.0359562
-2.224e-05,0.0358
-2.208e-05,0.0358562
-2.192e-05,0.035675
-2.176e-05,0.0357469
-2.160e-05,0.0357656
-2.144e-05,0.0356656
-2.128e-05,0.0357406
-2.112e-05,0.0357625
-2.096e-05,0.0358094
-2.080e-05,0.03575
-2.064e-05,0.0357594
-2.048e-05,0.0359531
-2.032e-05,0.0356937
-2.016e-05,0.0359469
-2.000e-05,0.0357469
-1.984e-05,0.03575
-1.968e-05,0.0356812
-1.952e-05,0.0357281
-1.936e-05,0.0358125
-1.920e-05,0.0358812
-1.904e-05,0.03585
-1.888e-05,0.0357344
-1.872e-05,0.0357094
-1.856e-05,0.0357656
-1.840e-05,0.0357469
-1.824e-05,0.0357187
-1.808e-05,0.0358375
-1.792e-05,0.0357312
-1.776e-05,0.0356344
-1.760e-05,0.0358312
-1.744e-05,0.0356094
-1.728e-05,0.0355437
-1.712e-05,0.0357125
-1.696e-05,0.0358062
-1.680e-05,0.0357562
-1.664e-05,0.0357625
-1.648e-05,0.0357312
-1.632e-05,0.0356156
-1.616e-05,0.0357656
-1.600e-05,0.0356844
-1.584e-05,0.0356687
-1.568e-05,0.0356562
