spettroscopia/haynes-shockley/code/data/dconst/run7.CSV

Model,TBS1102C
Firmware Version,v2015-08-04-prequal4ch70_v1.3

Point Format,Y
Horizontal Units,S
Horizontal Scale,2e-05
Sample Interval,1.6e-07
Filter Frequency,2e+08
Record Length,2000
Gating,0.0% to 100.0%
Probe Attenuation,1
Vertical Units,V
Vertical Offset,0
Vertical Scale,0.02
Label,
TIME,CH1
-1.664e-04,0.0002125
-1.662e-04,0.000378125
-1.661e-04,0.00025
-1.659e-04,0.000278125
-1.658e-04,0.0004125
-1.656e-04,0.000353125
-1.654e-04,0.000215625
-1.653e-04,0.0003125
-1.651e-04,0.000253125
-1.650e-04,0.0001375
-1.648e-04,0.000146875
-1.646e-04,0.0004
-1.645e-04,0.00028125
-1.643e-04,0.000246875
-1.642e-04,0.000378125
-1.640e-04,0.000275
-1.638e-04,0.000328125
-1.637e-04,0.0002
-1.635e-04,0.0003375
-1.634e-04,0.00035625
-1.632e-04,0.000275
-1.630e-04,0.000278125
-1.629e-04,0.000221875
-1.627e-04,0.00026875
-1.626e-04,0.000240625
-1.624e-04,0.000265625
-1.622e-04,0.000303125
-1.621e-04,0.00019375
-1.619e-04,6.5625e-05
-1.618e-04,0.000196875
-1.616e-04,0.00025625
-1.614e-04,0.000509375
-1.613e-04,0.000478125
-1.611e-04,0.00048125
-1.610e-04,0.000353125
-1.608e-04,0.000415625
-1.606e-04,0.000284375
-1.605e-04,0.000296875
-1.603e-04,0.00020625
-1.602e-04,0.000425
-1.600e-04,0.00045
-1.598e-04,0.00035625
-1.597e-04,0.0003875
-1.595e-04,0.00029375
-1.594e-04,0.00024375
-1.592e-04,0.000321875
-1.590e-04,0.000334375
-1.589e-04,0.000321875
-1.587e-04,0.0003625
-1.586e-04,0.000365625
-1.584e-04,0.000309375
-1.582e-04,0.000384375
-1.581e-04,0.000428125
-1.579e-04,0.000446875
-1.578e-04,0.0005125
-1.576e-04,0.000415625
-1.574e-04,0.000353125
-1.573e-04,0.000378125
-1.571e-04,0.00025625
-1.570e-04,2.5e-05
-1.568e-04,9.6875e-05
-1.566e-04,0.000221875
-1.565e-04,0.000228125
-1.563e-04,0.000278125
-1.562e-04,0.000309375
-1.560e-04,0.000159375
-1.558e-04,0.000209375
-1.557e-04,0.0001875
-1.555e-04,0.0003
-1.554e-04,0.000384375
-1.552e-04,0.000328125
-1.550e-04,0.0004
-1.549e-04,0.00036875
-1.547e-04,0.00040625
-1.546e-04,0.00023125
-1.544e-04,0.000125
-1.542e-04,0.0002625
-1.541e-04,0.00015
-1.539e-04,0.0004
-1.538e-04,0.00039375
-1.536e-04,0.00033125
-1.534e-04,0.000296875
-1.533e-04,0.000296875
-1.531e-04,0.000278125
-1.530e-04,0.000296875
-1.528e-04,0.0003
-1.526e-04,0.000353125
-1.525e-04,0.0001875
-1.523e-04,0.00020625
-1.522e-04,0.000265625
-1.520e-04,-4.375e-05
-1.518e-04,0.0004375
-1.517e-04,0.000209375
-1.515e-04,0.00029375
-1.514e-04,-0.00023125
-1.512e-04,-0.000865625
-1.510e-04,-0.00108437
-1.509e-04,-0.0026875
-1.507e-04,0.0174281
-1.506e-04,0.0674312
-1.504e-04,0.0808469
-1.502e-04,0.0808
-1.501e-04,0.0808
-1.499e-04,0.0808
-1.498e-04,0.0808
-1.496e-04,0.0808
-1.494e-04,0.0808
-1.493e-04,0.0808
-1.491e-04,0.0808469
-1.490e-04,0.0808
-1.488e-04,0.0808
-1.486e-04,0.0808
-1.485e-04,0.0779875
-1.483e-04,0.0556812
-1.482e-04,0.0404125
-1.480e-04,0.0356219
-1.478e-04,0.0368969
-1.477e-04,0.0410781
-1.475e-04,0.0442844
-1.474e-04,0.0457
-1.472e-04,0.0455281
-1.470e-04,0.0443156
-1.469e-04,0.0426594
-1.467e-04,0.0411531
-1.466e-04,0.0403344
-1.464e-04,0.0400844
-1.462e-04,0.0402781
-1.461e-04,0.0405
-1.459e-04,0.0408
-1.458e-04,0.0411594
-1.456e-04,0.0414875
-1.454e-04,0.0415812
-1.453e-04,0.0415875
-1.451e-04,0.0416625
-1.450e-04,0.0418187
-1.448e-04,0.0418062
-1.446e-04,0.0419031
-1.445e-04,0.0419219
-1.443e-04,0.042125
-1.442e-04,0.0420125
-1.440e-04,0.0422937
-1.438e-04,0.0421156
-1.437e-04,0.0420406
-1.435e-04,0.0420062
-1.434e-04,0.0418625
-1.432e-04,0.0417062
-1.430e-04,0.041825
-1.429e-04,0.0416344
-1.427e-04,0.04165
-1.426e-04,0.0415875
-1.424e-04,0.0416312
-1.422e-04,0.0415
-1.421e-04,0.0415906
-1.419e-04,0.0415656
-1.418e-04,0.0416281
-1.416e-04,0.0414781
-1.414e-04,0.0415219
-1.413e-04,0.0413344
-1.411e-04,0.0413156
-1.410e-04,0.0413219
-1.408e-04,0.0412437
-1.406e-04,0.0413031
-1.405e-04,0.0414687
-1.403e-04,0.0413969
-1.402e-04,0.0416437
-1.400e-04,0.0415844
-1.398e-04,0.0417875
-1.397e-04,0.042025
-1.395e-04,0.0420094
-1.394e-04,0.0420969
-1.392e-04,0.0422094
-1.390e-04,0.0424031
-1.389e-04,0.0424531
-1.387e-04,0.0426
-1.386e-04,0.0427844
-1.384e-04,0.0428156
-1.382e-04,0.0429281
-1.381e-04,0.0431406
-1.379e-04,0.0432125
-1.378e-04,0.0431219
-1.376e-04,0.0431094
-1.374e-04,0.043275
-1.373e-04,0.04335
-1.371e-04,0.0434937
-1.370e-04,0.0434687
-1.368e-04,0.0437031
-1.366e-04,0.0435687
-1.365e-04,0.0436562
-1.363e-04,0.0436219
-1.362e-04,0.0435844
-1.360e-04,0.0437156
-1.358e-04,0.0436594
-1.357e-04,0.0437562
-1.355e-04,0.0437531
-1.354e-04,0.0437187
-1.352e-04,0.04375
-1.350e-04,0.04375
-1.349e-04,0.0438281
-1.347e-04,0.0437062
-1.346e-04,0.0437156
-1.344e-04,0.0436906
-1.342e-04,0.0435969
-1.341e-04,0.0436625
-1.339e-04,0.0436406
-1.338e-04,0.0436187
-1.336e-04,0.0436687
-1.334e-04,0.0438187
-1.333e-04,0.043625
-1.331e-04,0.0436031
-1.330e-04,0.0435469
-1.328e-04,0.0432469
-1.326e-04,0.0434406
-1.325e-04,0.0431375
-1.323e-04,0.0430812
-1.322e-04,0.0431219
-1.320e-04,0.0430281
-1.318e-04,0.0429875
-1.317e-04,0.0430312
-1.315e-04,0.0429594
-1.314e-04,0.0430562
-1.312e-04,0.0428719
-1.310e-04,0.0427219
-1.309e-04,0.0428062
-1.307e-04,0.0428156
-1.306e-04,0.0427437
-1.304e-04,0.0427187
-1.302e-04,0.0425062
-1.301e-04,0.0425687
-1.299e-04,0.0424281
-1.298e-04,0.0423937
-1.296e-04,0.0422
-1.294e-04,0.0420969
-1.293e-04,0.0419875
-1.291e-04,0.0419187
-1.290e-04,0.0417937
-1.288e-04,0.0416281
-1.286e-04,0.0418094
-1.285e-04,0.0416406
-1.283e-04,0.0415844
-1.282e-04,0.0415
-1.280e-04,0.0415406
-1.278e-04,0.0415062
-1.277e-04,0.0413531
-1.275e-04,0.0413406
-1.274e-04,0.0413156
-1.272e-04,0.0412281
-1.270e-04,0.0412906
-1.269e-04,0.0411094
-1.267e-04,0.0411219
-1.266e-04,0.0410281
-1.264e-04,0.0408156
-1.262e-04,0.0408969
-1.261e-04,0.0409625
-1.259e-04,0.0407906
-1.258e-04,0.0406156
-1.256e-04,0.0405406
-1.254e-04,0.0405937
-1.253e-04,0.0404531
-1.251e-04,0.0404281
-1.250e-04,0.0405156
-1.248e-04,0.0403219
-1.246e-04,0.0403969
-1.245e-04,0.0404625
-1.243e-04,0.0402937
-1.242e-04,0.0402469
-1.240e-04,0.0400094
-1.238e-04,0.0401344
-1.237e-04,0.0399344
-1.235e-04,0.03975
-1.234e-04,0.0397531
-1.232e-04,0.0396156
-1.230e-04,0.0396844
-1.229e-04,0.0394812
-1.227e-04,0.0393937
-1.226e-04,0.0394969
-1.224e-04,0.0393687
-1.222e-04,0.0394562
-1.221e-04,0.0392062
-1.219e-04,0.0392375
-1.218e-04,0.0392156
-1.216e-04,0.0391812
-1.214e-04,0.039225
-1.213e-04,0.0392375
-1.211e-04,0.0392062
-1.210e-04,0.0392062
-1.208e-04,0.0390906
-1.206e-04,0.0389656
-1.205e-04,0.0390094
-1.203e-04,0.0389844
-1.202e-04,0.0390594
-1.200e-04,0.0388281
-1.198e-04,0.0386594
-1.197e-04,0.0386844
-1.195e-04,0.03875
-1.194e-04,0.0386687
-1.192e-04,0.0386812
-1.190e-04,0.0385187
-1.189e-04,0.0386875
-1.187e-04,0.0387562
-1.186e-04,0.0387187
-1.184e-04,0.0387625
-1.182e-04,0.0386125
-1.181e-04,0.038725
-1.179e-04,0.0387625
-1.178e-04,0.0388719
-1.176e-04,0.0388844
-1.174e-04,0.0387125
-1.173e-04,0.0388594
-1.171e-04,0.0388594
-1.170e-04,0.03885
-1.168e-04,0.0390156
-1.166e-04,0.0389719
-1.165e-04,0.0392
-1.163e-04,0.0392625
-1.162e-04,0.0391562
-1.160e-04,0.0391812
-1.158e-04,0.0390469
-1.157e-04,0.0391531
-1.155e-04,0.0391187
-1.154e-04,0.0391
-1.152e-04,0.0392344
-1.150e-04,0.0394437
-1.149e-04,0.0393375
-1.147e-04,0.0392094
-1.146e-04,0.0393125
-1.144e-04,0.039025
-1.142e-04,0.0389625
-1.141e-04,0.0389125
-1.139e-04,0.0387875
-1.138e-04,0.0388312
-1.136e-04,0.0388656
-1.134e-04,0.03885
-1.133e-04,0.0388219
-1.131e-04,0.039025
-1.130e-04,0.0389844
-1.128e-04,0.0388406
-1.126e-04,0.0389125
-1.125e-04,0.038775
-1.123e-04,0.0386719
-1.122e-04,0.0387156
-1.120e-04,0.0385812
-1.118e-04,0.0385469
-1.117e-04,0.0385
-1.115e-04,0.0385187
-1.114e-04,0.0383531
-1.112e-04,0.0382562
-1.110e-04,0.0382625
-1.109e-04,0.0383469
-1.107e-04,0.0381781
-1.106e-04,0.0383031
-1.104e-04,0.0381156
-1.102e-04,0.0380437
-1.101e-04,0.0380875
-1.099e-04,0.0378625
-1.098e-04,0.038025
-1.096e-04,0.037975
-1.094e-04,0.0378469
-1.093e-04,0.0380562
-1.091e-04,0.0380281
-1.090e-04,0.0379531
-1.088e-04,0.0379906
-1.086e-04,0.0379719
-1.085e-04,0.037975
-1.083e-04,0.0378781
-1.082e-04,0.0379687
-1.080e-04,0.0379437
-1.078e-04,0.0378312
-1.077e-04,0.0378094
-1.075e-04,0.0377187
-1.074e-04,0.0377531
-1.072e-04,0.0375625
-1.070e-04,0.0376281
-1.069e-04,0.0378125
-1.067e-04,0.0377156
-1.066e-04,0.0378344
-1.064e-04,0.0376469
-1.062e-04,0.0376406
-1.061e-04,0.0376969
-1.059e-04,0.0378031
-1.058e-04,0.0377406
-1.056e-04,0.0376937
-1.054e-04,0.0376281
-1.053e-04,0.0376406
-1.051e-04,0.0376031
-1.050e-04,0.0376687
-1.048e-04,0.0377437
-1.046e-04,0.0377
-1.045e-04,0.0375062
-1.043e-04,0.0376937
-1.042e-04,0.0375219
-1.040e-04,0.0375125
-1.038e-04,0.0374594
-1.037e-04,0.0373469
-1.035e-04,0.0373625
-1.034e-04,0.0371969
-1.032e-04,0.0372719
-1.030e-04,0.0371281
-1.029e-04,0.0372344
-1.027e-04,0.0372062
-1.026e-04,0.0371969
-1.024e-04,0.0371094
-1.022e-04,0.0371719
-1.021e-04,0.0371281
-1.019e-04,0.0372719
-1.018e-04,0.0370844
-1.016e-04,0.0368875
-1.014e-04,0.0369625
-1.013e-04,0.0370125
-1.011e-04,0.0370094
-1.010e-04,0.0370937
-1.008e-04,0.0371
-1.006e-04,0.0369562
-1.005e-04,0.0371625
-1.003e-04,0.0371125
-1.002e-04,0.0370594
-1.000e-04,0.0371031
-9.984e-05,0.0370937
-9.968e-05,0.0370312
-9.952e-05,0.0369031
-9.936e-05,0.0370719
-9.920e-05,0.0368719
-9.904e-05,0.0368281
-9.888e-05,0.0367594
-9.872e-05,0.0366125
-9.856e-05,0.0366687
-9.840e-05,0.0366312
-9.824e-05,0.0366312
-9.808e-05,0.036825
-9.792e-05,0.0368625
-9.776e-05,0.0368687
-9.760e-05,0.0369656
-9.744e-05,0.0367594
-9.728e-05,0.0368312
-9.712e-05,0.0368844
-9.696e-05,0.0367531
-9.680e-05,0.0367656
-9.664e-05,0.0366187
-9.648e-05,0.0367812
-9.632e-05,0.0368281
-9.616e-05,0.0367062
-9.600e-05,0.0366375
-9.584e-05,0.0368437
-9.568e-05,0.0367594
-9.552e-05,0.0367562
-9.536e-05,0.0367281
-9.520e-05,0.0365906
-9.504e-05,0.0366
-9.488e-05,0.0366437
-9.472e-05,0.0365656
-9.456e-05,0.0365187
-9.440e-05,0.036375
-9.424e-05,0.0364312
-9.408e-05,0.0363719
-9.392e-05,0.0363375
-9.376e-05,0.0365875
-9.360e-05,0.0366406
-9.344e-05,0.0365187
-9.328e-05,0.036425
-9.312e-05,0.0366094
-9.296e-05,0.0364719
-9.280e-05,0.0367125
-9.264e-05,0.0363781
-9.248e-05,0.0365219
-9.232e-05,0.0366719
-9.216e-05,0.0367531
-9.200e-05,0.0364937
-9.184e-05,0.0363969
-9.168e-05,0.0364344
-9.152e-05,0.0365
-9.136e-05,0.0366844
-9.120e-05,0.0366812
-9.104e-05,0.036475
-9.088e-05,0.0365562
-9.072e-05,0.0366375
-9.056e-05,0.0367469
-9.040e-05,0.0367
-9.024e-05,0.0367062
-9.008e-05,0.0366562
-8.992e-05,0.036875
-8.976e-05,0.0368687
-8.960e-05,0.0369344
-8.944e-05,0.0369344
-8.928e-05,0.0369906
-8.912e-05,0.0369969
-8.896e-05,0.0369375
-8.880e-05,0.0371687
-8.864e-05,0.0371562
-8.848e-05,0.0371531
-8.832e-05,0.0370594
-8.816e-05,0.0372437
-8.800e-05,0.0372812
-8.784e-05,0.0372656
-8.768e-05,0.0373281
-8.752e-05,0.0373469
-8.736e-05,0.0373469
-8.720e-05,0.0375969
-8.704e-05,0.0375531
-8.688e-05,0.0373812
-8.672e-05,0.0374469
-8.656e-05,0.0373469
-8.640e-05,0.0373125
-8.624e-05,0.0372937
-8.608e-05,0.0373406
-8.592e-05,0.0372937
-8.576e-05,0.0372719
-8.560e-05,0.0371594
-8.544e-05,0.0370469
-8.528e-05,0.0369719
-8.512e-05,0.0370031
-8.496e-05,0.036675
-8.480e-05,0.0364906
-8.464e-05,0.0363875
-8.448e-05,0.0363281
-8.432e-05,0.0362812
-8.416e-05,0.036025
-8.400e-05,0.0358219
-8.384e-05,0.0357094
-8.368e-05,0.0353969
-8.352e-05,0.0353125
-8.336e-05,0.0348531
-8.320e-05,0.0346812
-8.304e-05,0.0343062
-8.288e-05,0.0343406
-8.272e-05,0.0339906
-8.256e-05,0.0337906
-8.240e-05,0.0333375
-8.224e-05,0.0332375
-8.208e-05,0.0329344
-8.192e-05,0.0324187
-8.176e-05,0.03205
-8.160e-05,0.03185
-8.144e-05,0.0311562
-8.128e-05,0.0310094
-8.112e-05,0.0305625
-8.096e-05,0.0301281
-8.080e-05,0.029825
-8.064e-05,0.0293844
-8.048e-05,0.0290344
-8.032e-05,0.0286
-8.016e-05,0.0280281
-8.000e-05,0.0277094
-7.984e-05,0.0271125
-7.968e-05,0.0267031
-7.952e-05,0.0262719
-7.936e-05,0.0257719
-7.920e-05,0.0253469
-7.904e-05,0.0249219
-7.888e-05,0.0244312
-7.872e-05,0.023925
-7.856e-05,0.0233781
-7.840e-05,0.022675
-7.824e-05,0.0222469
-7.808e-05,0.0218344
-7.792e-05,0.0213625
-7.776e-05,0.0208625
-7.760e-05,0.0205437
-7.744e-05,0.019925
-7.728e-05,0.0193531
-7.712e-05,0.0189594
-7.696e-05,0.0185
-7.680e-05,0.0181
-7.664e-05,0.01775
-7.648e-05,0.0172719
-7.632e-05,0.0169406
-7.616e-05,0.0165125
-7.600e-05,0.0160437
-7.584e-05,0.0156625
-7.568e-05,0.0152437
-7.552e-05,0.0148062
-7.536e-05,0.0143594
-7.520e-05,0.0139937
-7.504e-05,0.0136031
-7.488e-05,0.0131281
-7.472e-05,0.0129531
-7.456e-05,0.0125594
-7.440e-05,0.0122875
-7.424e-05,0.0119281
-7.408e-05,0.0113937
-7.392e-05,0.0112781
-7.376e-05,0.0110156
-7.360e-05,0.0108687
-7.344e-05,0.0105562
-7.328e-05,0.0102219
-7.312e-05,0.01025
-7.296e-05,0.00981875
-7.280e-05,0.009625
-7.264e-05,0.0094125
-7.248e-05,0.00923125
-7.232e-05,0.00900625
-7.216e-05,0.00892812
-7.200e-05,0.00870937
-7.184e-05,0.00868125
-7.168e-05,0.008475
-7.152e-05,0.00830312
-7.136e-05,0.00814375
-7.120e-05,0.00800625
-7.104e-05,0.0079375
-7.088e-05,0.0078125
-7.072e-05,0.00760937
-7.056e-05,0.00762187
-7.040e-05,0.00755
-7.024e-05,0.00754687
-7.008e-05,0.00748125
-6.992e-05,0.0076375
-6.976e-05,0.00727812
-6.960e-05,0.00724687
-6.944e-05,0.00716562
-6.928e-05,0.00704062
-6.912e-05,0.00704375
-6.896e-05,0.00697187
-6.880e-05,0.0068625
-6.864e-05,0.00688437
-6.848e-05,0.00688437
-6.832e-05,0.00684687
-6.816e-05,0.00675312
-6.800e-05,0.00694375
-6.784e-05,0.00684687
-6.768e-05,0.00672187
-6.752e-05,0.00682187
-6.736e-05,0.00674375
-6.720e-05,0.00668437
-6.704e-05,0.00665
-6.688e-05,0.00662812
-6.672e-05,0.00663125
-6.656e-05,0.00679062
-6.640e-05,0.00657812
-6.624e-05,0.00657187
-6.608e-05,0.0065875
-6.592e-05,0.00662812
-6.576e-05,0.00668125
-6.560e-05,0.00671875
-6.544e-05,0.00656562
-6.528e-05,0.00665312
-6.512e-05,0.00669687
-6.496e-05,0.00665937
-6.480e-05,0.00668125
-6.464e-05,0.00663437
-6.448e-05,0.00665
-6.432e-05,0.00670312
-6.416e-05,0.00665312
-6.400e-05,0.00672812
-6.384e-05,0.006725
-6.368e-05,0.00659687
-6.352e-05,0.00652187
-6.336e-05,0.00664062
-6.320e-05,0.0065875
-6.304e-05,0.00672812
-6.288e-05,0.00683125
-6.272e-05,0.00669062
-6.256e-05,0.00666562
-6.240e-05,0.00688125
-6.224e-05,0.00681562
-6.208e-05,0.00694062
-6.192e-05,0.00676562
-6.176e-05,0.00689062
-6.160e-05,0.00673437
-6.144e-05,0.00676875
-6.128e-05,0.00677812
-6.112e-05,0.0067125
-6.096e-05,0.006875
-6.080e-05,0.00675937
-6.064e-05,0.00680625
-6.048e-05,0.00694062
-6.032e-05,0.00685
-6.016e-05,0.00675937
-6.000e-05,0.006825
-5.984e-05,0.00677187
-5.968e-05,0.0067375
-5.952e-05,0.00658125
-5.936e-05,0.0066875
-5.920e-05,0.00675312
-5.904e-05,0.00665312
-5.888e-05,0.00665
-5.872e-05,0.0065125
-5.856e-05,0.00660625
-5.840e-05,0.00644687
-5.824e-05,0.00644062
-5.808e-05,0.00651562
-5.792e-05,0.00668125
-5.776e-05,0.0066875
-5.760e-05,0.00665625
-5.744e-05,0.00674062
-5.728e-05,0.00658125
-5.712e-05,0.00659062
-5.696e-05,0.00642187
-5.680e-05,0.00635312
-5.664e-05,0.006375
-5.648e-05,0.00633125
-5.632e-05,0.00650312
-5.616e-05,0.00659687
-5.600e-05,0.00658437
-5.584e-05,0.00644062
-5.568e-05,0.00645937
-5.552e-05,0.00653437
-5.536e-05,0.00643125
-5.520e-05,0.00650312
-5.504e-05,0.00655625
-5.488e-05,0.00663437
-5.472e-05,0.00651875
-5.456e-05,0.00662187
-5.440e-05,0.00670625
-5.424e-05,0.00686875
-5.408e-05,0.00667812
-5.392e-05,0.00672812
-5.376e-05,0.00663437
-5.360e-05,0.00675625
-5.344e-05,0.00664687
-5.328e-05,0.00645
-5.312e-05,0.00658437
-5.296e-05,0.006575
-5.280e-05,0.00649687
-5.264e-05,0.00644687
-5.248e-05,0.0065125
-5.232e-05,0.00649062
-5.216e-05,0.00645937
-5.200e-05,0.00647812
-5.184e-05,0.00637812
-5.168e-05,0.00661562
-5.152e-05,0.0065625
-5.136e-05,0.00631875
-5.120e-05,0.00619687
-5.104e-05,0.00614062
-5.088e-05,0.00631562
-5.072e-05,0.006175
-5.056e-05,0.00635312
-5.040e-05,0.00645
-5.024e-05,0.0061625
-5.008e-05,0.0064125
-4.992e-05,0.00630625
-4.976e-05,0.00629375
-4.960e-05,0.0062625
-4.944e-05,0.00626562
-4.928e-05,0.00630937
-4.912e-05,0.00639375
-4.896e-05,0.00630937
-4.880e-05,0.00627812
-4.864e-05,0.0063875
-4.848e-05,0.0063
-4.832e-05,0.00635937
-4.816e-05,0.0062875
-4.800e-05,0.00649687
-4.784e-05,0.00635
-4.768e-05,0.00651562
-4.752e-05,0.00639687
-4.736e-05,0.00646562
-4.720e-05,0.00625937
-4.704e-05,0.0064625
-4.688e-05,0.00635625
-4.672e-05,0.00642187
-4.656e-05,0.00643437
-4.640e-05,0.006275
-4.624e-05,0.0062375
-4.608e-05,0.006225
-4.592e-05,0.00629375
-4.576e-05,0.00626875
-4.560e-05,0.0061875
-4.544e-05,0.00606562
-4.528e-05,0.00614062
-4.512e-05,0.00620937
-4.496e-05,0.00617812
-4.480e-05,0.00615937
-4.464e-05,0.00633437
-4.448e-05,0.00618437
-4.432e-05,0.00621562
-4.416e-05,0.00608125
-4.400e-05,0.00611875
-4.384e-05,0.0059875
-4.368e-05,0.006025
-4.352e-05,0.00579687
-4.336e-05,0.00596562
-4.320e-05,0.00589375
-4.304e-05,0.00581562
-4.288e-05,0.00573125
-4.272e-05,0.00579375
-4.256e-05,0.0057625
-4.240e-05,0.00582812
-4.224e-05,0.00589687
-4.208e-05,0.00561875
-4.192e-05,0.0057375
-4.176e-05,0.00567812
-4.160e-05,0.00577187
-4.144e-05,0.00578437
-4.128e-05,0.00573437
-4.112e-05,0.00576562
-4.096e-05,0.00597812
-4.080e-05,0.00585
-4.064e-05,0.0057375
-4.048e-05,0.0060125
-4.032e-05,0.0057
-4.016e-05,0.0057625
-4.000e-05,0.00588125
-3.984e-05,0.00604062
-3.968e-05,0.00584375
-3.952e-05,0.00620937
-3.936e-05,0.00608125
-3.920e-05,0.00600625
-3.904e-05,0.00593437
-3.888e-05,0.00596562
-3.872e-05,0.0059125
-3.856e-05,0.005975
-3.840e-05,0.006175
-3.824e-05,0.006025
-3.808e-05,0.00601562
-3.792e-05,0.00606562
-3.776e-05,0.006175
-3.760e-05,0.00633125
-3.744e-05,0.00607187
-3.728e-05,0.00604062
-3.712e-05,0.00590312
-3.696e-05,0.00595312
-3.680e-05,0.00594375
-3.664e-05,0.00588437
-3.648e-05,0.00592812
-3.632e-05,0.00592812
-3.616e-05,0.0058125
-3.600e-05,0.0057875
-3.584e-05,0.00570937
-3.568e-05,0.00585937
-3.552e-05,0.005825
-3.536e-05,0.005825
-3.520e-05,0.00572187
-3.504e-05,0.00586562
-3.488e-05,0.00592187
-3.472e-05,0.00579062
-3.456e-05,0.00589375
-3.440e-05,0.00565937
-3.424e-05,0.00577812
-3.408e-05,0.00559687
-3.392e-05,0.0056625
-3.376e-05,0.00570625
-3.360e-05,0.00590312
-3.344e-05,0.005875
-3.328e-05,0.005725
-3.312e-05,0.00580312
-3.296e-05,0.00583125
-3.280e-05,0.005625
-3.264e-05,0.00579375
-3.248e-05,0.00578125
-3.232e-05,0.0054125
-3.216e-05,0.00564062
-3.200e-05,0.00559687
-3.184e-05,0.005525
-3.168e-05,0.00578437
-3.152e-05,0.00558437
-3.136e-05,0.00577187
-3.120e-05,0.0057875
-3.104e-05,0.00579062
-3.088e-05,0.005675
-3.072e-05,0.005725
-3.056e-05,0.00579687
-3.040e-05,0.0056625
-3.024e-05,0.0056125
-3.008e-05,0.00575625
-2.992e-05,0.00573125
-2.976e-05,0.0056375
-2.960e-05,0.00568125
-2.944e-05,0.005775
-2.928e-05,0.0059
-2.912e-05,0.00579687
-2.896e-05,0.00561562
-2.880e-05,0.00568125
-2.864e-05,0.0056625
-2.848e-05,0.00563437
-2.832e-05,0.00569062
-2.816e-05,0.00553437
-2.800e-05,0.00559375
-2.784e-05,0.00563125
-2.768e-05,0.0056625
-2.752e-05,0.00566875
-2.736e-05,0.0057
-2.720e-05,0.00575937
-2.704e-05,0.00559062
-2.688e-05,0.00565312
-2.672e-05,0.00568437
-2.656e-05,0.00555937
-2.640e-05,0.00575312
-2.624e-05,0.00574375
-2.608e-05,0.0056
-2.592e-05,0.00550625
-2.576e-05,0.00564062
-2.560e-05,0.00550312
-2.544e-05,0.0053625
-2.528e-05,0.00550937
-2.512e-05,0.00548437
-2.496e-05,0.00543125
-2.480e-05,0.00547812
-2.464e-05,0.00540625
-2.448e-05,0.00542187
-2.432e-05,0.00552812
-2.416e-05,0.00541562
-2.400e-05,0.0052375
-2.384e-05,0.0053125
-2.368e-05,0.00534375
-2.352e-05,0.00535937
-2.336e-05,0.005375
-2.320e-05,0.0052125
-2.304e-05,0.00518125
-2.288e-05,0.00533125
-2.272e-05,0.005525
-2.256e-05,0.00540625
-2.240e-05,0.00526875
-2.224e-05,0.00531875
-2.208e-05,0.00541562
-2.192e-05,0.00525625
-2.176e-05,0.00527187
-2.160e-05,0.00520937
-2.144e-05,0.00532187
-2.128e-05,0.0054625
-2.112e-05,0.0053375
-2.096e-05,0.00540625
-2.080e-05,0.00538437
-2.064e-05,0.00530312
-2.048e-05,0.005375
-2.032e-05,0.00525
-2.016e-05,0.00546562
-2.000e-05,0.00530937
-1.984e-05,0.00540625
-1.968e-05,0.00533437
-1.952e-05,0.005425
-1.936e-05,0.00544687
-1.920e-05,0.00548437
-1.904e-05,0.00533125
-1.888e-05,0.00546875
-1.872e-05,0.00547187
-1.856e-05,0.00543437
-1.840e-05,0.00524687
-1.824e-05,0.00526875
-1.808e-05,0.00514062
-1.792e-05,0.00536562
-1.776e-05,0.00524375
