elettronica/esperienza_07__shaper/oscilloscopio/prima_presa_dati/2.3 - compensazione verifica 10t/F0003CH1.CSV

Record Length,2.500000e+03,,  -0.000072000000,   0.00000,
Sample Interval,2.000000e-07,,  -0.000071800000,   0.00000,
Trigger Point,3.600000000000e+02,,  -0.000071600000,   0.00000,
,,,  -0.000071400000,   0.00000,
,,,  -0.000071200000,   0.00000,
,,,  -0.000071000000,   0.00000,
Source,CH1,,  -0.000070800000,   0.00000,
Vertical Units,V,,  -0.000070600000,   0.00000,
Vertical Scale,1.000000e-01,,  -0.000070400000,   0.00000,
Vertical Offset,-1.520000e-01,,  -0.000070200000,   0.00000,
Horizontal Units,s,,  -0.000070000000,   0.00000,
Horizontal Scale,5.000000e-05,,  -0.000069800000,   0.00000,
Pt Fmt,Y,,  -0.000069600000,   0.00000,
Yzero,0.000000e+00,,  -0.000069400000,   0.00000,
Probe Atten,1.000000e+01,,  -0.000069200000,   0.00000,
Model Number,TBS1102B-EDU,,  -0.000069000000,   0.00000,
Serial Number,C021597,,  -0.000068800000,   0.00000,
Firmware Version,FV:v4.06,,  -0.000068600000,   0.00000,
,,,-00.000068400000,   0.00000,
,,,-00.000068200000,   0.00000,
,,,-00.000068000000,   0.00000,
,,,-00.000067800000,   0.00000,
,,,-00.000067600000,   0.00000,
,,,-00.000067400000,   0.00000,
,,,-00.000067200000,   0.00000,
,,,-00.000067000000,   0.00000,
,,,-00.000066800000,   0.00000,
,,,-00.000066600000,   0.00000,
,,,-00.000066400000,   0.00000,
,,,-00.000066200000,   0.00000,
,,,-00.000066000000,   0.00000,
,,,-00.000065800000,   0.00000,
,,,-00.000065600000,   0.00000,
,,,-00.000065400000,   0.00000,
,,,-00.000065200000,   0.00000,
,,,-00.000065000000,   0.00000,
,,,-00.000064800000,   0.00000,
,,,-00.000064600000,   0.00000,
,,,-00.000064400000,   0.00000,
,,,-00.000064200000,   0.00000,
,,,-00.000064000000,   0.00000,
,,,-00.000063800000,   0.00000,
,,,-00.000063600000,   0.00000,
,,,-00.000063400000,   0.00000,
,,,-00.000063200000,   0.00000,
,,,-00.000063000000,   0.00000,
,,,-00.000062800000,   0.00000,
,,,-00.000062600000,   0.00000,
,,,-00.000062400000,   0.00000,
,,,-00.000062200000,   0.00000,
,,,-00.000062000000,   0.00000,
,,,-00.000061800000,   0.00000,
,,,-00.000061600000,   0.00000,
,,,-00.000061400000,   0.00000,
,,,-00.000061200000,   0.00000,
,,,-00.000061000000,   0.00000,
,,,-00.000060800000,   0.00000,
,,,-00.000060600000,   0.00000,
,,,-00.000060400000,   0.00000,
,,,-00.000060200000,   0.00000,
,,,-00.000060000000,   0.00000,
,,,-00.000059800000,   0.00000,
,,,-00.000059600000,   0.00000,
,,,-00.000059400000,   0.00000,
,,,-00.000059200000,   0.00000,
,,,-00.000059000000,   0.00000,
,,,-00.000058800000,   0.00000,
,,,-00.000058600000,   0.00000,
,,,-00.000058400000,   0.00000,
,,,-00.000058200000,   0.00000,
,,,-00.000058000000,   0.00000,
,,,-00.000057800000,   0.00000,
,,,-00.000057600000,   0.00000,
,,,-00.000057400000,   0.00000,
,,,-00.000057200000,   0.00000,
,,,-00.000057000000,   0.00000,
,,,-00.000056800000,   0.00000,
,,,-00.000056600000,   0.00000,
,,,-00.000056400000,   0.00000,
,,,-00.000056200000,   0.00000,
,,,-00.000056000000,   0.00000,
,,,-00.000055800000,   0.00000,
,,,-00.000055600000,   0.00000,
,,,-00.000055400000,   0.00000,
,,,-00.000055200000,   0.00000,
,,,-00.000055000000,   0.00000,
,,,-00.000054800000,   0.00000,
,,,-00.000054600000,   0.00000,
,,,-00.000054400000,   0.00000,
,,,-00.000054200000,   0.00000,
,,,-00.000054000000,   0.00000,
,,,-00.000053800000,   0.00000,
,,,-00.000053600000,   0.00000,
,,,-00.000053400000,   0.00000,
,,,-00.000053200000,   0.00000,
,,,-00.000053000000,   0.00000,
,,,-00.000052800000,   0.00000,
,,,-00.000052600000,   0.00000,
,,,-00.000052400000,   0.00000,
,,,-00.000052200000,   0.00000,
,,,-00.000052000000,   0.00000,
,,,-00.000051800000,   0.00000,
,,,-00.000051600000,   0.00000,
,,,-00.000051400000,   0.00000,
,,,-00.000051200000,   0.00000,
,,,-00.000051000000,   0.00000,
,,,-00.000050800000,   0.00000,
,,,-00.000050600000,   0.00000,
,,,-00.000050400000,   0.00000,
,,,-00.000050200000,   0.00000,
,,,-00.000050000000,   0.00000,
,,,-00.000049800000,   0.00000,
,,,-00.000049600000,   0.00000,
,,,-00.000049400000,   0.00000,
,,,-00.000049200000,   0.00000,
,,,-00.000049000000,   0.00000,
,,,-00.000048800000,   0.00000,
,,,-00.000048600000,   0.00000,
,,,-00.000048400000,   0.00000,
,,,-00.000048200000,   0.00000,
,,,-00.000048000000,   0.00000,
,,,-00.000047800000,   0.00000,
,,,-00.000047600000,   0.00000,
,,,-00.000047400000,   0.00000,
,,,-00.000047200000,   0.00000,
,,,-00.000047000000,   0.00000,
,,,-00.000046800000,   0.00000,
,,,-00.000046600000,   0.00000,
,,,-00.000046400000,   0.00000,
,,,-00.000046200000,   0.00000,
,,,-00.000046000000,   0.00000,
,,,-00.000045800000,   0.00000,
,,,-00.000045600000,   0.00000,
,,,-00.000045400000,   0.00000,
,,,-00.000045200000,   0.00000,
,,,-00.000045000000,   0.00000,
,,,-00.000044800000,   0.00000,
,,,-00.000044600000,   0.00000,
,,,-00.000044400000,   0.00000,
,,,-00.000044200000,   0.00000,
,,,-00.000044000000,   0.00000,
,,,-00.000043800000,   0.00000,
,,,-00.000043600000,   0.00000,
,,,-00.000043400000,   0.00000,
,,,-00.000043200000,   0.00000,
,,,-00.000043000000,   0.00000,
,,,-00.000042800000,   0.00000,
,,,-00.000042600000,   0.00000,
,,,-00.000042400000,   0.00000,
,,,-00.000042200000,   0.00000,
,,,-00.000042000000,   0.00000,
,,,-00.000041800000,   0.00000,
,,,-00.000041600000,   0.00000,
,,,-00.000041400000,   0.00000,
,,,-00.000041200000,   0.00000,
,,,-00.000041000000,   0.00000,
,,,-00.000040800000,   0.00000,
,,,-00.000040600000,   0.00000,
,,,-00.000040400000,   0.00000,
,,,-00.000040200000,   0.00000,
,,,-00.000040000000,   0.00000,
,,,-00.000039800000,   0.00000,
,,,-00.000039600000,   0.00000,
,,,-00.000039400000,   0.00000,
,,,-00.000039200000,   0.00000,
,,,-00.000039000000,   0.00000,
,,,-00.000038800000,   0.00000,
,,,-00.000038600000,   0.00000,
,,,-00.000038400000,   0.00000,
,,,-00.000038200000,   0.00000,
,,,-00.000038000000,   0.00000,
,,,-00.000037800000,   0.00000,
,,,-00.000037600000,   0.00000,
,,,-00.000037400000,   0.00000,
,,,-00.000037200000,   0.00000,
,,,-00.000037000000,   0.00000,
,,,-00.000036800000,   0.00000,
,,,-00.000036600000,   0.00000,
,,,-00.000036400000,   0.00000,
,,,-00.000036200000,   0.00000,
,,,-00.000036000000,   0.00000,
,,,-00.000035800000,   0.00000,
,,,-00.000035600000,   0.00000,
,,,-00.000035400000,   0.00000,
,,,-00.000035200000,   0.00000,
,,,-00.000035000000,   0.00000,
,,,-00.000034800000,   0.00000,
,,,-00.000034600000,   0.00000,
,,,-00.000034400000,   0.00000,
,,,-00.000034200000,   0.00000,
,,,-00.000034000000,   0.00000,
,,,-00.000033800000,   0.00000,
,,,-00.000033600000,   0.00000,
,,,-00.000033400000,   0.00000,
,,,-00.000033200000,   0.00000,
,,,-00.000033000000,   0.00000,
,,,-00.000032800000,   0.00000,
,,,-00.000032600000,   0.00000,
,,,-00.000032400000,   0.00000,
,,,-00.000032200000,   0.00000,
,,,-00.000032000000,   0.00000,
,,,-00.000031800000,   0.00000,
,,,-00.000031600000,   0.00000,
,,,-00.000031400000,   0.00000,
,,,-00.000031200000,   0.00000,
,,,-00.000031000000,   0.00000,
,,,-00.000030800000,   0.00000,
,,,-00.000030600000,   0.00000,
,,,-00.000030400000,   0.00000,
,,,-00.000030200000,   0.00000,
,,,-00.000030000000,   0.00000,
,,,-00.000029800000,   0.00000,
,,,-00.000029600000,   0.00000,
,,,-00.000029400000,   0.00000,
,,,-00.000029200000,   0.00000,
,,,-00.000029000000,   0.00000,
,,,-00.000028800000,   0.00000,
,,,-00.000028600000,   0.00000,
,,,-00.000028400000,   0.00000,
,,,-00.000028200000,   0.00000,
,,,-00.000028000000,   0.00000,
,,,-00.000027800000,   0.00000,
,,,-00.000027600000,   0.00000,
,,,-00.000027400000,   0.00000,
,,,-00.000027200000,   0.00000,
,,,-00.000027000000,   0.00000,
,,,-00.000026800000,   0.00000,
,,,-00.000026600000,   0.00000,
,,,-00.000026400000,   0.00000,
,,,-00.000026200000,   0.00000,
,,,-00.000026000000,   0.00000,
,,,-00.000025800000,   0.00000,
,,,-00.000025600000,   0.00000,
,,,-00.000025400000,   0.00000,
,,,-00.000025200000,   0.00000,
,,,-00.000025000000,   0.00000,
,,,-00.000024800000,   0.00000,
,,,-00.000024600000,   0.00000,
,,,-00.000024400000,   0.00000,
,,,-00.000024200000,   0.00000,
,,,-00.000024000000,   0.00000,
,,,-00.000023800000,   0.00000,
,,,-00.000023600000,   0.00000,
,,,-00.000023400000,   0.00000,
,,,-00.000023200000,   0.00000,
,,,-00.000023000000,   0.00000,
,,,-00.000022800000,   0.00000,
,,,-00.000022600000,   0.00000,
,,,-00.000022400000,   0.00000,
,,,-00.000022200000,   0.00000,
,,,-00.000022000000,   0.00000,
,,,-00.000021800000,   0.00000,
,,,-00.000021600000,   0.00000,
,,,-00.000021400000,   0.00000,
,,,-00.000021200000,   0.00000,
,,,-00.000021000000,   0.00000,
,,,-00.000020800000,   0.00000,
,,,-00.000020600000,   0.00000,
,,,-00.000020400000,   0.00000,
,,,-00.000020200000,   0.00000,
,,,-00.000020000000,   0.00000,
,,,-00.000019800000,   0.00000,
,,,-00.000019600000,   0.00000,
,,,-00.000019400000,   0.00000,
,,,-00.000019200000,   0.00000,
,,,-00.000019000000,   0.00000,
,,,-00.000018800000,   0.00000,
,,,-00.000018600000,   0.00000,
,,,-00.000018400000,   0.00000,
,,,-00.000018200000,   0.00000,
,,,-00.000018000000,   0.00000,
,,,-00.000017800000,   0.00000,
,,,-00.000017600000,   0.00000,
,,,-00.000017400000,   0.00000,
,,,-00.000017200000,   0.00000,
,,,-00.000017000000,   0.00000,
,,,-00.000016800000,   0.00000,
,,,-00.000016600000,   0.00000,
,,,-00.000016400000,   0.00000,
,,,-00.000016200000,   0.00000,
,,,-00.000016000000,   0.00000,
,,,-00.000015800000,   0.00000,
,,,-00.000015600000,   0.00000,
,,,-00.000015400000,   0.00000,
,,,-00.000015200000,   0.00000,
,,,-00.000015000000,   0.00000,
,,,-00.000014800000,   0.00000,
,,,-00.000014600000,   0.00000,
,,,-00.000014400000,   0.00000,
,,,-00.000014200000,   0.00000,
,,,-00.000014000000,   0.00000,
,,,-00.000013800000,   0.00000,
,,,-00.000013600000,   0.00000,
,,,-00.000013400000,   0.00000,
,,,-00.000013200000,   0.00000,
,,,-00.000013000000,   0.00000,
,,,-00.000012800000,   0.00000,
,,,-00.000012600000,   0.00000,
,,,-00.000012400000,   0.00000,
,,,-00.000012200000,   0.00000,
,,,-00.000012000000,   0.00000,
,,,-00.000011800000,   0.00000,
,,,-00.000011600000,   0.00000,
,,,-00.000011400000,   0.00000,
,,,-00.000011200000,   0.00000,
,,,-00.000011000000,   0.00000,
,,,-00.000010800000,   0.00000,
,,,-00.000010600000,   0.00000,
,,,-00.000010400000,   0.00000,
,,,-00.000010200000,   0.00000,
,,,-00.000010000000,   0.00000,
,,,-00.000009800000,   0.00000,
,,,-00.000009600000,   0.00000,
,,,-00.000009400000,   0.00000,
,,,-00.000009200000,   0.00000,
,,,-00.000009000000,   0.00000,
,,,-00.000008800000,   0.00000,
,,,-00.000008600000,   0.00000,
,,,-00.000008400000,   0.00000,
,,,-00.000008200000,   0.00000,
,,,-00.000008000000,   0.00000,
,,,-00.000007800000,   0.00000,
,,,-00.000007600000,   0.00000,
,,,-00.000007400000,   0.00000,
,,,-00.000007200000,   0.00000,
,,,-00.000007000000,   0.00000,
,,,-00.000006800000,   0.00000,
,,,-00.000006600000,   0.00000,
,,,-00.000006400000,   0.00000,
,,,-00.000006200000,   0.00000,
,,,-00.000006000000,   0.00000,
,,,-00.000005800000,   0.00000,
,,,-00.000005600000,   0.00000,
,,,-00.000005400000,   0.00000,
,,,-00.000005200000,   0.00000,
,,,-00.000005000000,   0.00000,
,,,-00.000004800000,   0.00400,
,,,-00.000004600000,   0.00400,
,,,-00.000004400000,   0.00400,
,,,-00.000004200000,   0.00800,
,,,-00.000004000000,   0.00800,
,,,-00.000003800000,   0.00800,
,,,-00.000003600000,   0.01200,
,,,-00.000003400000,   0.01200,
,,,-00.000003200000,   0.01600,
,,,-00.000003000000,   0.01600,
,,,-00.000002800000,   0.02000,
,,,-00.000002600000,   0.02000,
,,,-00.000002400000,   0.02400,
,,,-00.000002200000,   0.02400,
,,,-00.000002000000,   0.02800,
,,,-00.000001800000,   0.03200,
,,,-00.000001600000,   0.03200,
,,,-00.000001400000,   0.03600,
,,,-00.000001200000,   0.04000,
,,,-00.000001000000,   0.04400,
,,,-00.000000800000,   0.04400,
,,,-00.000000600000,   0.04800,
,,,-00.000000400000,   0.05200,
,,,-00.000000200000,   0.05600,
,,,-00.000000000000,   0.05600,
,,,00.000000200000,   0.06000,
,,,00.000000400000,   0.06400,
,,,00.000000600000,   0.06800,
,,,00.000000800000,   0.07200,
,,,00.000001000000,   0.07600,
,,,00.000001200000,   0.08000,
,,,00.000001400000,   0.08400,
,,,00.000001600000,   0.08800,
,,,00.000001800000,   0.08800,
,,,00.000002000000,   0.09200,
,,,00.000002200000,   0.09600,
,,,00.000002400000,   0.10000,
,,,00.000002600000,   0.10400,
,,,00.000002800000,   0.10800,
,,,00.000003000000,   0.11200,
,,,00.000003200000,   0.11600,
,,,00.000003400000,   0.12000,
,,,00.000003600000,   0.12400,
,,,00.000003800000,   0.12800,
,,,00.000004000000,   0.13200,
,,,00.000004200000,   0.13600,
,,,00.000004400000,   0.14000,
,,,00.000004600000,   0.14400,
,,,00.000004800000,   0.14800,
,,,00.000005000000,   0.15200,
,,,00.000005200000,   0.16000,
,,,00.000005400000,   0.16400,
,,,00.000005600000,   0.16800,
,,,00.000005800000,   0.17200,
,,,00.000006000000,   0.17600,
,,,00.000006200000,   0.18000,
,,,00.000006400000,   0.18400,
,,,00.000006600000,   0.18800,
,,,00.000006800000,   0.19200,
,,,00.000007000000,   0.19600,
,,,00.000007200000,   0.20000,
,,,00.000007400000,   0.20400,
,,,00.000007600000,   0.20800,
,,,00.000007800000,   0.21200,
,,,00.000008000000,   0.21600,
,,,00.000008200000,   0.22400,
,,,00.000008400000,   0.22800,
,,,00.000008600000,   0.23200,
,,,00.000008800000,   0.23600,
,,,00.000009000000,   0.24000,
,,,00.000009200000,   0.24400,
,,,00.000009400000,   0.24800,
,,,00.000009600000,   0.25200,
,,,00.000009800000,   0.25600,
,,,00.000010000000,   0.26000,
,,,00.000010200000,   0.26400,
,,,00.000010400000,   0.27200,
,,,00.000010600000,   0.27600,
,,,00.000010800000,   0.28000,
,,,00.000011000000,   0.28400,
,,,00.000011200000,   0.28800,
,,,00.000011400000,   0.29200,
,,,00.000011600000,   0.29600,
,,,00.000011800000,   0.30000,
,,,00.000012000000,   0.30400,
,,,00.000012200000,   0.30800,
,,,00.000012400000,   0.31200,
,,,00.000012600000,   0.31600,
,,,00.000012800000,   0.32000,
,,,00.000013000000,   0.32800,
,,,00.000013200000,   0.33200,
,,,00.000013400000,   0.33600,
,,,00.000013600000,   0.34000,
,,,00.000013800000,   0.34400,
,,,00.000014000000,   0.34800,
,,,00.000014200000,   0.35200,
,,,00.000014400000,   0.35600,
,,,00.000014600000,   0.36000,
,,,00.000014800000,   0.36400,
,,,00.000015000000,   0.36400,
,,,00.000015200000,   0.36800,
,,,00.000015400000,   0.37200,
,,,00.000015600000,   0.37600,
,,,00.000015800000,   0.37600,
,,,00.000016000000,   0.38000,
,,,00.000016200000,   0.38400,
,,,00.000016400000,   0.38400,
,,,00.000016600000,   0.38800,
,,,00.000016800000,   0.38800,
,,,00.000017000000,   0.39200,
,,,00.000017200000,   0.39200,
,,,00.000017400000,   0.39200,
,,,00.000017600000,   0.39600,
,,,00.000017800000,   0.39600,
,,,00.000018000000,   0.40000,
,,,00.000018200000,   0.40000,
,,,00.000018400000,   0.40000,
,,,00.000018600000,   0.40000,
,,,00.000018800000,   0.40400,
,,,00.000019000000,   0.40400,
,,,00.000019200000,   0.40400,
,,,00.000019400000,   0.40400,
,,,00.000019600000,   0.40400,
,,,00.000019800000,   0.40800,
,,,00.000020000000,   0.40800,
,,,00.000020200000,   0.40800,
,,,00.000020400000,   0.40800,
,,,00.000020600000,   0.40800,
,,,00.000020800000,   0.40800,
,,,00.000021000000,   0.40800,
,,,00.000021200000,   0.40800,
,,,00.000021400000,   0.40800,
,,,00.000021600000,   0.40800,
,,,00.000021800000,   0.40800,
,,,00.000022000000,   0.40800,
,,,00.000022200000,   0.40800,
,,,00.000022400000,   0.40800,
,,,00.000022600000,   0.40800,
,,,00.000022800000,   0.40400,
,,,00.000023000000,   0.40400,
,,,00.000023200000,   0.40400,
,,,00.000023400000,   0.40400,
,,,00.000023600000,   0.40400,
,,,00.000023800000,   0.40400,
,,,00.000024000000,   0.40000,
,,,00.000024200000,   0.40000,
,,,00.000024400000,   0.40000,
,,,00.000024600000,   0.40000,
,,,00.000024800000,   0.40000,
,,,00.000025000000,   0.39600,
,,,00.000025200000,   0.39600,
,,,00.000025400000,   0.39600,
,,,00.000025600000,   0.39600,
,,,00.000025800000,   0.39200,
,,,00.000026000000,   0.39200,
,,,00.000026200000,   0.39200,
,,,00.000026400000,   0.38800,
,,,00.000026600000,   0.38800,
,,,00.000026800000,   0.38800,
,,,00.000027000000,   0.38400,
,,,00.000027200000,   0.38400,
,,,00.000027400000,   0.38400,
,,,00.000027600000,   0.38000,
,,,00.000027800000,   0.38000,
,,,00.000028000000,   0.38000,
,,,00.000028200000,   0.37600,
,,,00.000028400000,   0.37600,
,,,00.000028600000,   0.37200,
,,,00.000028800000,   0.37200,
,,,00.000029000000,   0.37200,
,,,00.000029200000,   0.36800,
,,,00.000029400000,   0.36800,
,,,00.000029600000,   0.36400,
,,,00.000029800000,   0.36400,
,,,00.000030000000,   0.36000,
,,,00.000030200000,   0.36000,
,,,00.000030400000,   0.36000,
,,,00.000030600000,   0.35600,
,,,00.000030800000,   0.35600,
,,,00.000031000000,   0.35200,
,,,00.000031200000,   0.35200,
,,,00.000031400000,   0.35200,
,,,00.000031600000,   0.34800,
,,,00.000031800000,   0.34800,
,,,00.000032000000,   0.34400,
,,,00.000032200000,   0.34000,
,,,00.000032400000,   0.34000,
,,,00.000032600000,   0.34000,
,,,00.000032800000,   0.33600,
,,,00.000033000000,   0.33600,
,,,00.000033200000,   0.33200,
,,,00.000033400000,   0.33200,
,,,00.000033600000,   0.32800,
,,,00.000033800000,   0.32800,
,,,00.000034000000,   0.32400,
,,,00.000034200000,   0.32400,
,,,00.000034400000,   0.32000,
,,,00.000034600000,   0.32000,
,,,00.000034800000,   0.31600,
,,,00.000035000000,   0.31600,
,,,00.000035200000,   0.31200,
,,,00.000035400000,   0.31200,
,,,00.000035600000,   0.31200,
,,,00.000035800000,   0.30800,
,,,00.000036000000,   0.30400,
,,,00.000036200000,   0.30400,
,,,00.000036400000,   0.30000,
,,,00.000036600000,   0.30000,
,,,00.000036800000,   0.29600,
,,,00.000037000000,   0.29600,
,,,00.000037200000,   0.29200,
,,,00.000037400000,   0.29200,
,,,00.000037600000,   0.29200,
,,,00.000037800000,   0.28800,
,,,00.000038000000,   0.28800,
,,,00.000038200000,   0.28400,
,,,00.000038400000,   0.28400,
,,,00.000038600000,   0.28000,
,,,00.000038800000,   0.28000,
,,,00.000039000000,   0.27600,
,,,00.000039200000,   0.27600,
,,,00.000039400000,   0.27200,
,,,00.000039600000,   0.27200,
,,,00.000039800000,   0.26800,
,,,00.000040000000,   0.26800,
,,,00.000040200000,   0.26400,
,,,00.000040400000,   0.26400,
,,,00.000040600000,   0.26000,
,,,00.000040800000,   0.26000,
,,,00.000041000000,   0.25600,
,,,00.000041200000,   0.25600,
,,,00.000041400000,   0.25200,
,,,00.000041600000,   0.25200,
,,,00.000041800000,   0.24800,
,,,00.000042000000,   0.24800,
,,,00.000042200000,   0.24800,
,,,00.000042400000,   0.24400,
,,,00.000042600000,   0.24400,
,,,00.000042800000,   0.24000,
,,,00.000043000000,   0.24000,
,,,00.000043200000,   0.23600,
,,,00.000043400000,   0.23600,
,,,00.000043600000,   0.23200,
,,,00.000043800000,   0.23200,
,,,00.000044000000,   0.22800,
,,,00.000044200000,   0.22800,
,,,00.000044400000,   0.22800,
,,,00.000044600000,   0.22400,
,,,00.000044800000,   0.22400,
,,,00.000045000000,   0.22000,
,,,00.000045200000,   0.22000,
,,,00.000045400000,   0.21600,
,,,00.000045600000,   0.21600,
,,,00.000045800000,   0.21200,
,,,00.000046000000,   0.21200,
,,,00.000046200000,   0.21200,
,,,00.000046400000,   0.20800,
,,,00.000046600000,   0.20800,
,,,00.000046800000,   0.20400,
,,,00.000047000000,   0.20400,
,,,00.000047200000,   0.20400,
,,,00.000047400000,   0.20000,
,,,00.000047600000,   0.20000,
,,,00.000047800000,   0.19600,
,,,00.000048000000,   0.19600,
,,,00.000048200000,   0.19200,
,,,00.000048400000,   0.19200,
,,,00.000048600000,   0.18800,
,,,00.000048800000,   0.18800,
,,,00.000049000000,   0.18800,
,,,00.000049200000,   0.18400,
,,,00.000049400000,   0.18400,
,,,00.000049600000,   0.18400,
,,,00.000049800000,   0.18000,
,,,00.000050000000,   0.18000,
,,,00.000050200000,   0.17600,
,,,00.000050400000,   0.17600,
,,,00.000050600000,   0.17600,
,,,00.000050800000,   0.17200,
,,,00.000051000000,   0.17200,
,,,00.000051200000,   0.16800,
,,,00.000051400000,   0.16800,
,,,00.000051600000,   0.16800,
,,,00.000051800000,   0.16400,
,,,00.000052000000,   0.16400,
,,,00.000052200000,   0.16400,
