spettroscopia/haynes-shockley/presa-dati-1-dconst/run5/TEK00000.CSV

Model,TBS1102C
Firmware Version,v2015-08-04-prequal4ch70_v1.3

Point Format,Y
Horizontal Units,S
Horizontal Scale,2e-05
Sample Interval,1.6e-07
Filter Frequency,2e+08
Record Length,2000
Gating,0.0% to 100.0%
Probe Attenuation,1
Vertical Units,V
Vertical Offset,0
Vertical Scale,0.02
Label,
TIME,CH1
-1.664e-04,0.000215625
-1.662e-04,0.00015
-1.661e-04,0.000315625
-1.659e-04,0.000390625
-1.658e-04,0.000303125
-1.656e-04,0.000203125
-1.654e-04,0.0001875
-1.653e-04,0.000275
-1.651e-04,0.00010625
-1.650e-04,0.000196875
-1.648e-04,0.000315625
-1.646e-04,0.000190625
-1.645e-04,0.000353125
-1.643e-04,0.0002875
-1.642e-04,0.00025
-1.640e-04,0.0002125
-1.638e-04,7.8125e-05
-1.637e-04,0.000378125
-1.635e-04,0.000271875
-1.634e-04,0.00035625
-1.632e-04,0.0003
-1.630e-04,0.0002375
-1.629e-04,0.0003125
-1.627e-04,0.000440625
-1.626e-04,0.000315625
-1.624e-04,6.25e-06
-1.622e-04,-3.125e-05
-1.621e-04,5.625e-05
-1.619e-04,0.000246875
-1.618e-04,0.000209375
-1.616e-04,0.000246875
-1.614e-04,0.00044375
-1.613e-04,0.00035625
-1.611e-04,0.0003375
-1.610e-04,0.00023125
-1.608e-04,0.00025625
-1.606e-04,0.000171875
-1.605e-04,0.00033125
-1.603e-04,0.0002625
-1.602e-04,0.00015625
-1.600e-04,0.000309375
-1.598e-04,0.000228125
-1.597e-04,0.000225
-1.595e-04,0.00028125
-1.594e-04,0.00028125
-1.592e-04,0.000209375
-1.590e-04,0.000196875
-1.589e-04,0.000278125
-1.587e-04,0.00018125
-1.586e-04,0.000146875
-1.584e-04,0.00020625
-1.582e-04,0.0005125
-1.581e-04,0.000528125
-1.579e-04,0.00055625
-1.578e-04,0.00026875
-1.576e-04,0.0002375
-1.574e-04,0.00021875
-1.573e-04,-1.5625e-05
-1.571e-04,1.5625e-05
-1.570e-04,0.00013125
-1.568e-04,0.00014375
-1.566e-04,0.000303125
-1.565e-04,0.00014375
-1.563e-04,0.000159375
-1.562e-04,0.000346875
-1.560e-04,0.0004125
-1.558e-04,0.000225
-1.557e-04,0.000221875
-1.555e-04,0.00031875
-1.554e-04,0.00011875
-1.552e-04,8.75e-05
-1.550e-04,0.0002375
-1.549e-04,0.000278125
-1.547e-04,0.000275
-1.546e-04,0.00035
-1.544e-04,0.00016875
-1.542e-04,0.0002875
-1.541e-04,0.00020625
-1.539e-04,0.000140625
-1.538e-04,0.000109375
-1.536e-04,0.00025
-1.534e-04,0.000225
-1.533e-04,0.0002375
-1.531e-04,0.000165625
-1.530e-04,0.000290625
-1.528e-04,0.000253125
-1.526e-04,0.000171875
-1.525e-04,0.000125
-1.523e-04,0.00029375
-1.522e-04,0.0001625
-1.520e-04,0.000165625
-1.518e-04,-0.000171875
-1.517e-04,-0.000825
-1.515e-04,-0.00141562
-1.514e-04,-0.00214375
-1.512e-04,-0.001
-1.510e-04,0.0323844
-1.509e-04,0.0751844
-1.507e-04,0.0808
-1.506e-04,0.0808
-1.504e-04,0.0808
-1.502e-04,0.0808
-1.501e-04,0.0808
-1.499e-04,0.0808
-1.498e-04,0.0808
-1.496e-04,0.0808
-1.494e-04,0.0808
-1.493e-04,0.0808
-1.491e-04,0.07795
-1.490e-04,0.0527687
-1.488e-04,0.0314125
-1.486e-04,0.0206844
-1.485e-04,0.0195406
-1.483e-04,0.0232562
-1.482e-04,0.0281844
-1.480e-04,0.0315375
-1.478e-04,0.0328875
-1.477e-04,0.0324781
-1.475e-04,0.0309125
-1.474e-04,0.029025
-1.472e-04,0.0274156
-1.470e-04,0.0264062
-1.469e-04,0.0256594
-1.467e-04,0.0255062
-1.466e-04,0.0252656
-1.464e-04,0.0251969
-1.462e-04,0.025425
-1.461e-04,0.0252312
-1.459e-04,0.0251844
-1.458e-04,0.025125
-1.456e-04,0.0249187
-1.454e-04,0.0250562
-1.453e-04,0.0252125
-1.451e-04,0.025175
-1.450e-04,0.0252125
-1.448e-04,0.0253437
-1.446e-04,0.0253844
-1.445e-04,0.0256344
-1.443e-04,0.0256031
-1.442e-04,0.02565
-1.440e-04,0.0256031
-1.438e-04,0.0258156
-1.437e-04,0.0257344
-1.435e-04,0.0259312
-1.434e-04,0.0257969
-1.432e-04,0.0258312
-1.430e-04,0.0258656
-1.429e-04,0.0260187
-1.427e-04,0.0260281
-1.426e-04,0.0258812
-1.424e-04,0.0260062
-1.422e-04,0.0258906
-1.421e-04,0.0260906
-1.419e-04,0.026075
-1.418e-04,0.0258875
-1.416e-04,0.0260406
-1.414e-04,0.0260344
-1.413e-04,0.026
-1.411e-04,0.0258344
-1.410e-04,0.0257844
-1.408e-04,0.0257344
-1.406e-04,0.0256812
-1.405e-04,0.0256062
-1.403e-04,0.0257062
-1.402e-04,0.025625
-1.400e-04,0.0255781
-1.398e-04,0.0255406
-1.397e-04,0.0256937
-1.395e-04,0.0257906
-1.394e-04,0.0255562
-1.392e-04,0.0255844
-1.390e-04,0.0256062
-1.389e-04,0.0254219
-1.387e-04,0.025575
-1.386e-04,0.0254437
-1.384e-04,0.0256094
-1.382e-04,0.0255031
-1.381e-04,0.0256031
-1.379e-04,0.0257344
-1.378e-04,0.0257937
-1.376e-04,0.0257281
-1.374e-04,0.0258156
-1.373e-04,0.0258094
-1.371e-04,0.0258719
-1.370e-04,0.0257781
-1.368e-04,0.0259
-1.366e-04,0.0259125
-1.365e-04,0.0261187
-1.363e-04,0.0261469
-1.362e-04,0.0261625
-1.360e-04,0.0262906
-1.358e-04,0.0261969
-1.357e-04,0.0264375
-1.355e-04,0.0263594
-1.354e-04,0.0263656
-1.352e-04,0.026375
-1.350e-04,0.0262969
-1.349e-04,0.0266219
-1.347e-04,0.0265062
-1.346e-04,0.0268125
-1.344e-04,0.0266219
-1.342e-04,0.0267094
-1.341e-04,0.0266781
-1.339e-04,0.0265875
-1.338e-04,0.0268875
-1.336e-04,0.0267562
-1.334e-04,0.0267625
-1.333e-04,0.0267406
-1.331e-04,0.0267344
-1.330e-04,0.0268375
-1.328e-04,0.0267969
-1.326e-04,0.0267937
-1.325e-04,0.0269375
-1.323e-04,0.0267656
-1.322e-04,0.0269531
-1.320e-04,0.0268937
-1.318e-04,0.026775
-1.317e-04,0.0267594
-1.315e-04,0.027
-1.314e-04,0.0268312
-1.312e-04,0.0267719
-1.310e-04,0.0266906
-1.309e-04,0.0266875
-1.307e-04,0.0267
-1.306e-04,0.0266
-1.304e-04,0.0266187
-1.302e-04,0.0266187
-1.301e-04,0.026725
-1.299e-04,0.0268
-1.298e-04,0.026775
-1.296e-04,0.0266969
-1.294e-04,0.0266687
-1.293e-04,0.0266562
-1.291e-04,0.0267562
-1.290e-04,0.0265875
-1.288e-04,0.0267281
-1.286e-04,0.0266687
-1.285e-04,0.0265187
-1.283e-04,0.026675
-1.282e-04,0.0265906
-1.280e-04,0.0266375
-1.278e-04,0.0266344
-1.277e-04,0.0266625
-1.275e-04,0.0265781
-1.274e-04,0.0264719
-1.272e-04,0.0264
-1.270e-04,0.0265969
-1.269e-04,0.0263344
-1.267e-04,0.0265656
-1.266e-04,0.0266437
-1.264e-04,0.0264031
-1.262e-04,0.0263281
-1.261e-04,0.0263906
-1.259e-04,0.0263062
-1.258e-04,0.0263812
-1.256e-04,0.0262281
-1.254e-04,0.0264031
-1.253e-04,0.0264312
-1.251e-04,0.0264812
-1.250e-04,0.0263375
-1.248e-04,0.0263781
-1.246e-04,0.0262906
-1.245e-04,0.0262125
-1.243e-04,0.0259562
-1.242e-04,0.0259969
-1.240e-04,0.0259812
-1.238e-04,0.0260094
-1.237e-04,0.025875
-1.235e-04,0.025825
-1.234e-04,0.0259687
-1.232e-04,0.0258906
-1.230e-04,0.0257594
-1.229e-04,0.0258656
-1.227e-04,0.0258531
-1.226e-04,0.0257437
-1.224e-04,0.0258937
-1.222e-04,0.0256562
-1.221e-04,0.0255531
-1.219e-04,0.0258
-1.218e-04,0.0255219
-1.216e-04,0.0256031
-1.214e-04,0.0256969
-1.213e-04,0.0258125
-1.211e-04,0.0255531
-1.210e-04,0.0256875
-1.208e-04,0.0256719
-1.206e-04,0.0253969
-1.205e-04,0.0254156
-1.203e-04,0.0256031
-1.202e-04,0.0254719
-1.200e-04,0.0253375
-1.198e-04,0.0255062
-1.197e-04,0.0255094
-1.195e-04,0.0254312
-1.194e-04,0.0253531
-1.192e-04,0.0254187
-1.190e-04,0.0252344
-1.189e-04,0.0252344
-1.187e-04,0.0253375
-1.186e-04,0.0252719
-1.184e-04,0.0254344
-1.182e-04,0.0252312
-1.181e-04,0.0252875
-1.179e-04,0.0251812
-1.178e-04,0.0252406
-1.176e-04,0.0251219
-1.174e-04,0.0250437
-1.173e-04,0.0250094
-1.171e-04,0.0250219
-1.170e-04,0.0249437
-1.168e-04,0.024925
-1.166e-04,0.0248406
-1.165e-04,0.0249375
-1.163e-04,0.0248406
-1.162e-04,0.0249906
-1.160e-04,0.0248437
-1.158e-04,0.0248406
-1.157e-04,0.0248375
-1.155e-04,0.0248187
-1.154e-04,0.02455
-1.152e-04,0.024625
-1.150e-04,0.0247531
-1.149e-04,0.0245719
-1.147e-04,0.0247344
-1.146e-04,0.0246312
-1.144e-04,0.024475
-1.142e-04,0.02455
-1.141e-04,0.024425
-1.139e-04,0.0245844
-1.138e-04,0.0243812
-1.136e-04,0.0244094
-1.134e-04,0.0245094
-1.133e-04,0.0243625
-1.131e-04,0.0244562
-1.130e-04,0.024375
-1.128e-04,0.0243969
-1.126e-04,0.0243375
-1.125e-04,0.0242687
-1.123e-04,0.0243812
-1.122e-04,0.0243281
-1.120e-04,0.0241062
-1.118e-04,0.0242219
-1.117e-04,0.0242844
-1.115e-04,0.0242656
-1.114e-04,0.0245
-1.112e-04,0.0242719
-1.110e-04,0.0242437
-1.109e-04,0.0242844
-1.107e-04,0.0240875
-1.106e-04,0.0242312
-1.104e-04,0.0241937
-1.102e-04,0.0241906
-1.101e-04,0.02445
-1.099e-04,0.0243437
-1.098e-04,0.0242062
-1.096e-04,0.0243406
-1.094e-04,0.0244
-1.093e-04,0.0242656
-1.091e-04,0.0242625
-1.090e-04,0.0242719
-1.088e-04,0.0242094
-1.086e-04,0.0242469
-1.085e-04,0.0243437
-1.083e-04,0.024175
-1.082e-04,0.0242281
-1.080e-04,0.0242844
-1.078e-04,0.0241281
-1.077e-04,0.0242062
-1.075e-04,0.0241781
-1.074e-04,0.0242406
-1.072e-04,0.0240875
-1.070e-04,0.0242187
-1.069e-04,0.0240875
-1.067e-04,0.024225
-1.066e-04,0.0240375
-1.064e-04,0.0240812
-1.062e-04,0.0242062
-1.061e-04,0.02415
-1.059e-04,0.0241062
-1.058e-04,0.0241281
-1.056e-04,0.0241156
-1.054e-04,0.0240844
-1.053e-04,0.0240469
-1.051e-04,0.0242375
-1.050e-04,0.0240937
-1.048e-04,0.0240437
-1.046e-04,0.0239094
-1.045e-04,0.0239656
-1.043e-04,0.0239531
-1.042e-04,0.0239875
-1.040e-04,0.0240469
-1.038e-04,0.0240937
-1.037e-04,0.0240062
-1.035e-04,0.0238625
-1.034e-04,0.0238719
-1.032e-04,0.0239094
-1.030e-04,0.0239469
-1.029e-04,0.023875
-1.027e-04,0.0240031
-1.026e-04,0.0238312
-1.024e-04,0.0238594
-1.022e-04,0.02395
-1.021e-04,0.0237969
-1.019e-04,0.0239531
-1.018e-04,0.0237875
-1.016e-04,0.0237625
-1.014e-04,0.0238406
-1.013e-04,0.0237094
-1.011e-04,0.0236469
-1.010e-04,0.0237156
-1.008e-04,0.0236812
-1.006e-04,0.0237219
-1.005e-04,0.0237094
-1.003e-04,0.0237125
-1.002e-04,0.0237625
-1.000e-04,0.0236687
-9.984e-05,0.0235344
-9.968e-05,0.0235969
-9.952e-05,0.0237031
-9.936e-05,0.02355
-9.920e-05,0.0234562
-9.904e-05,0.0234281
-9.888e-05,0.0235562
-9.872e-05,0.0234656
-9.856e-05,0.0234281
-9.840e-05,0.0234906
-9.824e-05,0.0234312
-9.808e-05,0.0233187
-9.792e-05,0.0234844
-9.776e-05,0.0234906
-9.760e-05,0.023425
-9.744e-05,0.0232844
-9.728e-05,0.0234
-9.712e-05,0.0233375
-9.696e-05,0.0232469
-9.680e-05,0.0233312
-9.664e-05,0.02345
-9.648e-05,0.0232812
-9.632e-05,0.0233469
-9.616e-05,0.0232031
-9.600e-05,0.023325
-9.584e-05,0.023275
-9.568e-05,0.0232781
-9.552e-05,0.0232812
-9.536e-05,0.0232937
-9.520e-05,0.0233469
-9.504e-05,0.0232844
-9.488e-05,0.0233031
-9.472e-05,0.0233375
-9.456e-05,0.0232625
-9.440e-05,0.023075
-9.424e-05,0.0232
-9.408e-05,0.0231437
-9.392e-05,0.0234812
-9.376e-05,0.0231156
-9.360e-05,0.0230875
-9.344e-05,0.0232062
-9.328e-05,0.0230719
-9.312e-05,0.0231156
-9.296e-05,0.0230937
-9.280e-05,0.0231812
-9.264e-05,0.0229406
-9.248e-05,0.0230125
-9.232e-05,0.0230781
-9.216e-05,0.0231687
-9.200e-05,0.0230187
-9.184e-05,0.0231094
-9.168e-05,0.0230156
-9.152e-05,0.0229906
-9.136e-05,0.0229781
-9.120e-05,0.0229781
-9.104e-05,0.0229656
-9.088e-05,0.0230812
-9.072e-05,0.0229781
-9.056e-05,0.0231156
-9.040e-05,0.0229469
-9.024e-05,0.0231094
-9.008e-05,0.0230406
-8.992e-05,0.023
-8.976e-05,0.0230781
-8.960e-05,0.0229156
-8.944e-05,0.0228344
-8.928e-05,0.0229469
-8.912e-05,0.0229969
-8.896e-05,0.0229906
-8.880e-05,0.0230844
-8.864e-05,0.0229812
-8.848e-05,0.0229625
-8.832e-05,0.0228125
-8.816e-05,0.022925
-8.800e-05,0.0229562
-8.784e-05,0.0228875
-8.768e-05,0.022975
-8.752e-05,0.0229906
-8.736e-05,0.0227844
-8.720e-05,0.0227469
-8.704e-05,0.022875
-8.688e-05,0.0229625
-8.672e-05,0.0229156
-8.656e-05,0.0229656
-8.640e-05,0.0229406
-8.624e-05,0.0227344
-8.608e-05,0.0228875
-8.592e-05,0.0229781
-8.576e-05,0.0229187
-8.560e-05,0.0229656
-8.544e-05,0.0228219
-8.528e-05,0.0227812
-8.512e-05,0.0228812
-8.496e-05,0.0227656
-8.480e-05,0.0227187
-8.464e-05,0.0225719
-8.448e-05,0.0226969
-8.432e-05,0.0228531
-8.416e-05,0.02275
-8.400e-05,0.0226062
-8.384e-05,0.022775
-8.368e-05,0.0228344
-8.352e-05,0.0228156
-8.336e-05,0.0228156
-8.320e-05,0.0227656
-8.304e-05,0.0226937
-8.288e-05,0.0225719
-8.272e-05,0.0226875
-8.256e-05,0.0224969
-8.240e-05,0.0227281
-8.224e-05,0.0227281
-8.208e-05,0.0227719
-8.192e-05,0.0228094
-8.176e-05,0.02275
-8.160e-05,0.0226625
-8.144e-05,0.0226656
-8.128e-05,0.0225
-8.112e-05,0.0226219
-8.096e-05,0.022475
-8.080e-05,0.0225406
-8.064e-05,0.0225406
-8.048e-05,0.022525
-8.032e-05,0.0227312
-8.016e-05,0.0225969
-8.000e-05,0.0226
-7.984e-05,0.0225719
-7.968e-05,0.022675
-7.952e-05,0.0225375
-7.936e-05,0.0224531
-7.920e-05,0.022475
-7.904e-05,0.0224531
-7.888e-05,0.0225906
-7.872e-05,0.0226406
-7.856e-05,0.0227594
-7.840e-05,0.0226187
-7.824e-05,0.0226562
-7.808e-05,0.0226344
-7.792e-05,0.022675
-7.776e-05,0.0224844
-7.760e-05,0.0224719
-7.744e-05,0.0224875
-7.728e-05,0.0224844
-7.712e-05,0.0224312
-7.696e-05,0.0224594
-7.680e-05,0.0225562
-7.664e-05,0.02265
-7.648e-05,0.0225781
-7.632e-05,0.0224594
-7.616e-05,0.0224625
-7.600e-05,0.0225
-7.584e-05,0.0225687
-7.568e-05,0.0225719
-7.552e-05,0.0226031
-7.536e-05,0.0226875
-7.520e-05,0.0226937
-7.504e-05,0.0227125
-7.488e-05,0.0227062
-7.472e-05,0.0226031
-7.456e-05,0.0226344
-7.440e-05,0.0225906
-7.424e-05,0.0225844
-7.408e-05,0.0225875
-7.392e-05,0.0223937
-7.376e-05,0.0225719
-7.360e-05,0.0225375
-7.344e-05,0.0227531
-7.328e-05,0.0225312
-7.312e-05,0.0226937
-7.296e-05,0.0227281
-7.280e-05,0.0228375
-7.264e-05,0.0226781
-7.248e-05,0.0226781
-7.232e-05,0.0225625
-7.216e-05,0.0225844
-7.200e-05,0.0226406
-7.184e-05,0.0227969
-7.168e-05,0.0226969
-7.152e-05,0.0226219
-7.136e-05,0.0227281
-7.120e-05,0.0227531
-7.104e-05,0.0229687
-7.088e-05,0.0227437
-7.072e-05,0.022775
-7.056e-05,0.0229625
-7.040e-05,0.0228219
-7.024e-05,0.0226812
-7.008e-05,0.022825
-6.992e-05,0.0229219
-6.976e-05,0.0227594
-6.960e-05,0.0228281
-6.944e-05,0.0227719
-6.928e-05,0.0226906
-6.912e-05,0.0228
-6.896e-05,0.0226406
-6.880e-05,0.0228312
-6.864e-05,0.022775
-6.848e-05,0.0228781
-6.832e-05,0.0227844
-6.816e-05,0.0227906
-6.800e-05,0.0228875
-6.784e-05,0.022675
-6.768e-05,0.0227344
-6.752e-05,0.0226187
-6.736e-05,0.02285
-6.720e-05,0.0227281
-6.704e-05,0.0227312
-6.688e-05,0.0226656
-6.672e-05,0.0226844
-6.656e-05,0.0226375
-6.640e-05,0.022775
-6.624e-05,0.0225781
-6.608e-05,0.0225312
-6.592e-05,0.0224031
-6.576e-05,0.0223625
-6.560e-05,0.0224125
-6.544e-05,0.0223469
-6.528e-05,0.0223562
-6.512e-05,0.0225062
-6.496e-05,0.0224312
-6.480e-05,0.0221594
-6.464e-05,0.0221344
-6.448e-05,0.0220094
-6.432e-05,0.0220437
-6.416e-05,0.0218375
-6.400e-05,0.0218844
-6.384e-05,0.0216844
-6.368e-05,0.0216625
-6.352e-05,0.0215719
-6.336e-05,0.0215187
-6.320e-05,0.0214062
-6.304e-05,0.0212875
-6.288e-05,0.0211812
-6.272e-05,0.0211937
-6.256e-05,0.0210062
-6.240e-05,0.0209344
-6.224e-05,0.0207687
-6.208e-05,0.0206
-6.192e-05,0.0204219
-6.176e-05,0.0203875
-6.160e-05,0.0202781
-6.144e-05,0.0201094
-6.128e-05,0.02
-6.112e-05,0.0198281
-6.096e-05,0.01965
-6.080e-05,0.0196594
-6.064e-05,0.0194437
-6.048e-05,0.0193906
-6.032e-05,0.0193219
-6.016e-05,0.0190656
-6.000e-05,0.0189281
-5.984e-05,0.0189406
-5.968e-05,0.0187406
-5.952e-05,0.0184687
-5.936e-05,0.0184
-5.920e-05,0.0182406
-5.904e-05,0.0180656
-5.888e-05,0.017925
-5.872e-05,0.0178031
-5.856e-05,0.0176031
-5.840e-05,0.0174625
-5.824e-05,0.0174031
-5.808e-05,0.0173156
-5.792e-05,0.0172531
-5.776e-05,0.0170219
-5.760e-05,0.0168437
-5.744e-05,0.0167094
-5.728e-05,0.0164656
-5.712e-05,0.0161969
-5.696e-05,0.0162187
-5.680e-05,0.0161469
-5.664e-05,0.01615
-5.648e-05,0.0158687
-5.632e-05,0.0157094
-5.616e-05,0.0156156
-5.600e-05,0.0154531
-5.584e-05,0.015525
-5.568e-05,0.0151375
-5.552e-05,0.0151469
-5.536e-05,0.015025
-5.520e-05,0.015025
-5.504e-05,0.0149344
-5.488e-05,0.0147906
-5.472e-05,0.0145562
-5.456e-05,0.0145969
-5.440e-05,0.01445
-5.424e-05,0.0142656
-5.408e-05,0.0141937
-5.392e-05,0.0140625
-5.376e-05,0.0139437
-5.360e-05,0.013975
-5.344e-05,0.0139531
-5.328e-05,0.0138094
-5.312e-05,0.0138844
-5.296e-05,0.0137219
-5.280e-05,0.0137469
-5.264e-05,0.0135562
-5.248e-05,0.0136437
-5.232e-05,0.0133656
-5.216e-05,0.0132219
-5.200e-05,0.0132781
-5.184e-05,0.0131812
-5.168e-05,0.0130344
-5.152e-05,0.0131406
-5.136e-05,0.0130781
-5.120e-05,0.0128781
-5.104e-05,0.0128687
-5.088e-05,0.0126625
-5.072e-05,0.0127375
-5.056e-05,0.0127062
-5.040e-05,0.0126
-5.024e-05,0.0127187
-5.008e-05,0.0125812
-4.992e-05,0.0124469
-4.976e-05,0.0125344
-4.960e-05,0.0123531
-4.944e-05,0.0122562
-4.928e-05,0.0123312
-4.912e-05,0.0124094
-4.896e-05,0.0122594
-4.880e-05,0.0123
-4.864e-05,0.0121437
-4.848e-05,0.0124281
-4.832e-05,0.0122062
-4.816e-05,0.0122156
-4.800e-05,0.0121094
-4.784e-05,0.0122187
-4.768e-05,0.0121312
-4.752e-05,0.0122406
-4.736e-05,0.0121437
-4.720e-05,0.0124031
-4.704e-05,0.0125031
-4.688e-05,0.0123031
-4.672e-05,0.01225
-4.656e-05,0.012275
-4.640e-05,0.0122875
-4.624e-05,0.0123156
-4.608e-05,0.0123156
-4.592e-05,0.0121031
-4.576e-05,0.0121156
-4.560e-05,0.0121906
-4.544e-05,0.0120906
-4.528e-05,0.0120375
-4.512e-05,0.0121781
-4.496e-05,0.0120937
-4.480e-05,0.0119437
-4.464e-05,0.0121031
-4.448e-05,0.0121969
-4.432e-05,0.0120687
-4.416e-05,0.01205
-4.400e-05,0.0121219
-4.384e-05,0.0121375
-4.368e-05,0.0121187
-4.352e-05,0.0120469
-4.336e-05,0.012075
-4.320e-05,0.0121875
-4.304e-05,0.0121875
-4.288e-05,0.0122156
-4.272e-05,0.0121562
-4.256e-05,0.01205
-4.240e-05,0.0120875
-4.224e-05,0.0121344
-4.208e-05,0.0121937
-4.192e-05,0.0121281
-4.176e-05,0.012
-4.160e-05,0.0120906
-4.144e-05,0.0120281
-4.128e-05,0.0119875
-4.112e-05,0.0120469
-4.096e-05,0.0120156
-4.080e-05,0.0120937
-4.064e-05,0.0120219
-4.048e-05,0.0121687
-4.032e-05,0.0121094
-4.016e-05,0.0119312
-4.000e-05,0.0119906
-3.984e-05,0.0120031
-3.968e-05,0.0119437
-3.952e-05,0.0118906
-3.936e-05,0.0118281
-3.920e-05,0.0120187
-3.904e-05,0.0120187
-3.888e-05,0.0119281
-3.872e-05,0.0120094
-3.856e-05,0.0122375
-3.840e-05,0.0120875
-3.824e-05,0.0120531
-3.808e-05,0.0120875
-3.792e-05,0.0120531
-3.776e-05,0.0121406
-3.760e-05,0.0121406
-3.744e-05,0.0121437
-3.728e-05,0.0121437
-3.712e-05,0.0121875
-3.696e-05,0.0121562
-3.680e-05,0.0120562
-3.664e-05,0.0122094
-3.648e-05,0.0121219
-3.632e-05,0.0121937
-3.616e-05,0.0122625
-3.600e-05,0.0121125
-3.584e-05,0.0121687
-3.568e-05,0.0121437
-3.552e-05,0.0120844
-3.536e-05,0.0121125
-3.520e-05,0.0121312
-3.504e-05,0.0120719
-3.488e-05,0.012225
-3.472e-05,0.0121656
-3.456e-05,0.0121656
-3.440e-05,0.0119187
-3.424e-05,0.0120969
-3.408e-05,0.0121437
-3.392e-05,0.0120062
-3.376e-05,0.0121094
-3.360e-05,0.01205
-3.344e-05,0.0120125
-3.328e-05,0.0121281
-3.312e-05,0.0119875
-3.296e-05,0.0121437
-3.280e-05,0.0121656
-3.264e-05,0.0122344
-3.248e-05,0.0120781
-3.232e-05,0.0119844
-3.216e-05,0.0121594
-3.200e-05,0.0119187
-3.184e-05,0.0120719
-3.168e-05,0.0120344
-3.152e-05,0.0120844
-3.136e-05,0.0120531
-3.120e-05,0.0120812
-3.104e-05,0.0119031
-3.088e-05,0.0119594
-3.072e-05,0.0119594
-3.056e-05,0.0121062
-3.040e-05,0.0120531
-3.024e-05,0.0120469
-3.008e-05,0.0119312
-2.992e-05,0.0119125
-2.976e-05,0.0118875
-2.960e-05,0.012
-2.944e-05,0.0120625
-2.928e-05,0.0122469
-2.912e-05,0.0120469
-2.896e-05,0.0120469
-2.880e-05,0.0122094
-2.864e-05,0.0120094
-2.848e-05,0.0120094
-2.832e-05,0.01215
-2.816e-05,0.0121031
-2.800e-05,0.0120875
-2.784e-05,0.0121812
-2.768e-05,0.0119594
-2.752e-05,0.012125
-2.736e-05,0.0122656
-2.720e-05,0.0119781
-2.704e-05,0.012075
-2.688e-05,0.0118812
-2.672e-05,0.0118687
-2.656e-05,0.0118906
-2.640e-05,0.0119031
-2.624e-05,0.0117406
-2.608e-05,0.0119312
-2.592e-05,0.0117906
-2.576e-05,0.01185
-2.560e-05,0.0118156
-2.544e-05,0.0117312
-2.528e-05,0.0118844
-2.512e-05,0.0121875
-2.496e-05,0.0120219
-2.480e-05,0.0118625
-2.464e-05,0.011825
-2.448e-05,0.0120562
-2.432e-05,0.0118781
-2.416e-05,0.0120281
-2.400e-05,0.0119219
-2.384e-05,0.0120937
-2.368e-05,0.0120031
-2.352e-05,0.0120094
-2.336e-05,0.0120375
-2.320e-05,0.0120625
-2.304e-05,0.0120344
-2.288e-05,0.0120969
-2.272e-05,0.0117844
-2.256e-05,0.0119375
-2.240e-05,0.0119625
-2.224e-05,0.0120281
-2.208e-05,0.0119687
-2.192e-05,0.0119625
-2.176e-05,0.0121406
-2.160e-05,0.0119469
-2.144e-05,0.0120281
-2.128e-05,0.0118969
-2.112e-05,0.0119562
-2.096e-05,0.0121
-2.080e-05,0.0120625
-2.064e-05,0.0120469
-2.048e-05,0.0122281
-2.032e-05,0.0120781
-2.016e-05,0.0122375
-2.000e-05,0.0120594
-1.984e-05,0.0121844
-1.968e-05,0.0121906
-1.952e-05,0.01205
-1.936e-05,0.0120469
-1.920e-05,0.0120156
-1.904e-05,0.0121781
-1.888e-05,0.011975
-1.872e-05,0.0120875
-1.856e-05,0.0120437
-1.840e-05,0.0119469
-1.824e-05,0.0120531
-1.808e-05,0.0119687
-1.792e-05,0.0121031
-1.776e-05,0.0120094
-1.760e-05,0.0120156
-1.744e-05,0.0118875
-1.728e-05,0.0119906
-1.712e-05,0.0120344
-1.696e-05,0.011825
-1.680e-05,0.01185
-1.664e-05,0.0118125
-1.648e-05,0.0118656
-1.632e-05,0.0119969
-1.616e-05,0.0119437
-1.600e-05,0.0118375
-1.584e-05,0.0118344
-1.568e-05,0.0119062
-1.552e-05,0.012125
