elettronica/esperienza_1/oscilloscopio/RC tempo - scarica 2/F0001CH1.CSV

Record Length,2.500000e+03,,   0.009950000000,   4.96000,
Sample Interval,1.000000e-06,,   0.009951000000,   4.96000,
Trigger Point,-9.950000000000e+03,,   0.009952000000,   4.96000,
,,,   0.009953000000,   4.96000,
,,,   0.009954000000,   4.96000,
,,,   0.009955000000,   4.96000,
Source,CH1,,   0.009956000000,   4.96000,
Vertical Units,V,,   0.009957000000,   4.96000,
Vertical Scale,1.000000e+00,,   0.009958000000,   4.96000,
Vertical Offset,-2.040000e+00,,   0.009959000000,   4.96000,
Horizontal Units,s,,   0.009960000000,   4.96000,
Horizontal Scale,2.500000e-04,,   0.009961000000,   4.96000,
Pt Fmt,Y,,   0.009962000000,   4.96000,
Yzero,0.000000e+00,,   0.009963000000,   4.96000,
Probe Atten,1.000000e+01,,   0.009964000000,   4.96000,
Model Number,TBS1102B-EDU,,   0.009965000000,   4.96000,
Serial Number,C021597,,   0.009966000000,   4.96000,
Firmware Version,FV:v4.06,,   0.009967000000,   4.96000,
,,,0.009968000000,   4.96000,
,,,0.009969000000,   4.96000,
,,,0.009970000000,   4.96000,
,,,0.009971000000,   4.96000,
,,,0.009972000000,   4.96000,
,,,0.009973000000,   4.96000,
,,,0.009974000000,   4.96000,
,,,0.009975000000,   4.96000,
,,,0.009976000000,   4.96000,
,,,0.009977000000,   4.96000,
,,,0.009978000000,   4.96000,
,,,0.009979000000,   4.96000,
,,,0.009980000000,   4.96000,
,,,0.009981000000,   4.96000,
,,,0.009982000000,   4.96000,
,,,0.009983000000,   4.96000,
,,,0.009984000000,   4.96000,
,,,0.009985000000,   4.96000,
,,,0.009986000000,   4.96000,
,,,0.009987000000,   4.96000,
,,,0.009988000000,   4.96000,
,,,0.009989000000,   4.96000,
,,,0.009990000000,   4.96000,
,,,0.009991000000,   4.96000,
,,,0.009992000000,   4.96000,
,,,0.009993000000,   4.96000,
,,,0.009994000000,   4.96000,
,,,0.009995000000,   4.96000,
,,,0.009996000000,   4.96000,
,,,0.009997000000,   4.96000,
,,,0.009998000000,   4.96000,
,,,0.009999000000,   4.96000,
,,,0.010000000000,   4.96000,
,,,0.010001000000,   4.92000,
,,,0.010002000000,   4.92000,
,,,0.010003000000,   4.92000,
,,,0.010004000000,   4.92000,
,,,0.010005000000,   4.92000,
,,,0.010006000000,   4.88000,
,,,0.010007000000,   4.88000,
,,,0.010008000000,   4.88000,
,,,0.010009000000,   4.88000,
,,,0.010010000000,   4.84000,
,,,0.010011000000,   4.84000,
,,,0.010012000000,   4.84000,
,,,0.010013000000,   4.84000,
,,,0.010014000000,   4.84000,
,,,0.010015000000,   4.80000,
,,,0.010016000000,   4.80000,
,,,0.010017000000,   4.80000,
,,,0.010018000000,   4.80000,
,,,0.010019000000,   4.76000,
,,,0.010020000000,   4.76000,
,,,0.010021000000,   4.76000,
,,,0.010022000000,   4.76000,
,,,0.010023000000,   4.76000,
,,,0.010024000000,   4.72000,
,,,0.010025000000,   4.72000,
,,,0.010026000000,   4.72000,
,,,0.010027000000,   4.72000,
,,,0.010028000000,   4.68000,
,,,0.010029000000,   4.68000,
,,,0.010030000000,   4.68000,
,,,0.010031000000,   4.68000,
,,,0.010032000000,   4.64000,
,,,0.010033000000,   4.64000,
,,,0.010034000000,   4.64000,
,,,0.010035000000,   4.64000,
,,,0.010036000000,   4.64000,
,,,0.010037000000,   4.60000,
,,,0.010038000000,   4.60000,
,,,0.010039000000,   4.60000,
,,,0.010040000000,   4.60000,
,,,0.010041000000,   4.56000,
,,,0.010042000000,   4.56000,
,,,0.010043000000,   4.56000,
,,,0.010044000000,   4.56000,
,,,0.010045000000,   4.56000,
,,,0.010046000000,   4.52000,
,,,0.010047000000,   4.52000,
,,,0.010048000000,   4.52000,
,,,0.010049000000,   4.52000,
,,,0.010050000000,   4.52000,
,,,0.010051000000,   4.52000,
,,,0.010052000000,   4.48000,
,,,0.010053000000,   4.48000,
,,,0.010054000000,   4.48000,
,,,0.010055000000,   4.48000,
,,,0.010056000000,   4.48000,
,,,0.010057000000,   4.44000,
,,,0.010058000000,   4.44000,
,,,0.010059000000,   4.44000,
,,,0.010060000000,   4.44000,
,,,0.010061000000,   4.44000,
,,,0.010062000000,   4.44000,
,,,0.010063000000,   4.40000,
,,,0.010064000000,   4.40000,
,,,0.010065000000,   4.40000,
,,,0.010066000000,   4.40000,
,,,0.010067000000,   4.40000,
,,,0.010068000000,   4.36000,
,,,0.010069000000,   4.36000,
,,,0.010070000000,   4.36000,
,,,0.010071000000,   4.36000,
,,,0.010072000000,   4.36000,
,,,0.010073000000,   4.32000,
,,,0.010074000000,   4.32000,
,,,0.010075000000,   4.32000,
,,,0.010076000000,   4.32000,
,,,0.010077000000,   4.28000,
,,,0.010078000000,   4.28000,
,,,0.010079000000,   4.28000,
,,,0.010080000000,   4.28000,
,,,0.010081000000,   4.28000,
,,,0.010082000000,   4.24000,
,,,0.010083000000,   4.24000,
,,,0.010084000000,   4.24000,
,,,0.010085000000,   4.24000,
,,,0.010086000000,   4.24000,
,,,0.010087000000,   4.20000,
,,,0.010088000000,   4.20000,
,,,0.010089000000,   4.20000,
,,,0.010090000000,   4.20000,
,,,0.010091000000,   4.20000,
,,,0.010092000000,   4.16000,
,,,0.010093000000,   4.16000,
,,,0.010094000000,   4.16000,
,,,0.010095000000,   4.16000,
,,,0.010096000000,   4.16000,
,,,0.010097000000,   4.12000,
,,,0.010098000000,   4.12000,
,,,0.010099000000,   4.12000,
,,,0.010100000000,   4.12000,
,,,0.010101000000,   4.12000,
,,,0.010102000000,   4.12000,
,,,0.010103000000,   4.12000,
,,,0.010104000000,   4.08000,
,,,0.010105000000,   4.08000,
,,,0.010106000000,   4.08000,
,,,0.010107000000,   4.08000,
,,,0.010108000000,   4.08000,
,,,0.010109000000,   4.04000,
,,,0.010110000000,   4.04000,
,,,0.010111000000,   4.04000,
,,,0.010112000000,   4.04000,
,,,0.010113000000,   4.04000,
,,,0.010114000000,   4.00000,
,,,0.010115000000,   4.00000,
,,,0.010116000000,   4.00000,
,,,0.010117000000,   4.00000,
,,,0.010118000000,   4.00000,
,,,0.010119000000,   3.96000,
,,,0.010120000000,   3.96000,
,,,0.010121000000,   3.96000,
,,,0.010122000000,   3.96000,
,,,0.010123000000,   3.96000,
,,,0.010124000000,   3.96000,
,,,0.010125000000,   3.92000,
,,,0.010126000000,   3.92000,
,,,0.010127000000,   3.92000,
,,,0.010128000000,   3.92000,
,,,0.010129000000,   3.92000,
,,,0.010130000000,   3.88000,
,,,0.010131000000,   3.88000,
,,,0.010132000000,   3.88000,
,,,0.010133000000,   3.88000,
,,,0.010134000000,   3.88000,
,,,0.010135000000,   3.88000,
,,,0.010136000000,   3.84000,
,,,0.010137000000,   3.84000,
,,,0.010138000000,   3.84000,
,,,0.010139000000,   3.84000,
,,,0.010140000000,   3.84000,
,,,0.010141000000,   3.80000,
,,,0.010142000000,   3.80000,
,,,0.010143000000,   3.80000,
,,,0.010144000000,   3.80000,
,,,0.010145000000,   3.80000,
,,,0.010146000000,   3.80000,
,,,0.010147000000,   3.76000,
,,,0.010148000000,   3.76000,
,,,0.010149000000,   3.76000,
,,,0.010150000000,   3.76000,
,,,0.010151000000,   3.76000,
,,,0.010152000000,   3.72000,
,,,0.010153000000,   3.72000,
,,,0.010154000000,   3.72000,
,,,0.010155000000,   3.72000,
,,,0.010156000000,   3.72000,
,,,0.010157000000,   3.72000,
,,,0.010158000000,   3.72000,
,,,0.010159000000,   3.72000,
,,,0.010160000000,   3.68000,
,,,0.010161000000,   3.68000,
,,,0.010162000000,   3.68000,
,,,0.010163000000,   3.68000,
,,,0.010164000000,   3.68000,
,,,0.010165000000,   3.64000,
,,,0.010166000000,   3.64000,
,,,0.010167000000,   3.64000,
,,,0.010168000000,   3.64000,
,,,0.010169000000,   3.64000,
,,,0.010170000000,   3.64000,
,,,0.010171000000,   3.60000,
,,,0.010172000000,   3.60000,
,,,0.010173000000,   3.60000,
,,,0.010174000000,   3.60000,
,,,0.010175000000,   3.60000,
,,,0.010176000000,   3.60000,
,,,0.010177000000,   3.56000,
,,,0.010178000000,   3.56000,
,,,0.010179000000,   3.56000,
,,,0.010180000000,   3.56000,
,,,0.010181000000,   3.56000,
,,,0.010182000000,   3.56000,
,,,0.010183000000,   3.52000,
,,,0.010184000000,   3.52000,
,,,0.010185000000,   3.52000,
,,,0.010186000000,   3.52000,
,,,0.010187000000,   3.52000,
,,,0.010188000000,   3.52000,
,,,0.010189000000,   3.48000,
,,,0.010190000000,   3.48000,
,,,0.010191000000,   3.48000,
,,,0.010192000000,   3.48000,
,,,0.010193000000,   3.48000,
,,,0.010194000000,   3.48000,
,,,0.010195000000,   3.44000,
,,,0.010196000000,   3.44000,
,,,0.010197000000,   3.44000,
,,,0.010198000000,   3.44000,
,,,0.010199000000,   3.44000,
,,,0.010200000000,   3.44000,
,,,0.010201000000,   3.40000,
,,,0.010202000000,   3.40000,
,,,0.010203000000,   3.40000,
,,,0.010204000000,   3.40000,
,,,0.010205000000,   3.40000,
,,,0.010206000000,   3.40000,
,,,0.010207000000,   3.40000,
,,,0.010208000000,   3.36000,
,,,0.010209000000,   3.36000,
,,,0.010210000000,   3.36000,
,,,0.010211000000,   3.36000,
,,,0.010212000000,   3.36000,
,,,0.010213000000,   3.36000,
,,,0.010214000000,   3.36000,
,,,0.010215000000,   3.32000,
,,,0.010216000000,   3.32000,
,,,0.010217000000,   3.32000,
,,,0.010218000000,   3.32000,
,,,0.010219000000,   3.32000,
,,,0.010220000000,   3.32000,
,,,0.010221000000,   3.32000,
,,,0.010222000000,   3.28000,
,,,0.010223000000,   3.28000,
,,,0.010224000000,   3.28000,
,,,0.010225000000,   3.28000,
,,,0.010226000000,   3.28000,
,,,0.010227000000,   3.28000,
,,,0.010228000000,   3.24000,
,,,0.010229000000,   3.24000,
,,,0.010230000000,   3.24000,
,,,0.010231000000,   3.24000,
,,,0.010232000000,   3.24000,
,,,0.010233000000,   3.24000,
,,,0.010234000000,   3.20000,
,,,0.010235000000,   3.20000,
,,,0.010236000000,   3.20000,
,,,0.010237000000,   3.20000,
,,,0.010238000000,   3.20000,
,,,0.010239000000,   3.20000,
,,,0.010240000000,   3.20000,
,,,0.010241000000,   3.16000,
,,,0.010242000000,   3.16000,
,,,0.010243000000,   3.16000,
,,,0.010244000000,   3.16000,
,,,0.010245000000,   3.16000,
,,,0.010246000000,   3.16000,
,,,0.010247000000,   3.16000,
,,,0.010248000000,   3.12000,
,,,0.010249000000,   3.12000,
,,,0.010250000000,   3.12000,
,,,0.010251000000,   3.12000,
,,,0.010252000000,   3.12000,
,,,0.010253000000,   3.12000,
,,,0.010254000000,   3.12000,
,,,0.010255000000,   3.08000,
,,,0.010256000000,   3.08000,
,,,0.010257000000,   3.08000,
,,,0.010258000000,   3.08000,
,,,0.010259000000,   3.08000,
,,,0.010260000000,   3.08000,
,,,0.010261000000,   3.08000,
,,,0.010262000000,   3.04000,
,,,0.010263000000,   3.04000,
,,,0.010264000000,   3.04000,
,,,0.010265000000,   3.04000,
,,,0.010266000000,   3.04000,
,,,0.010267000000,   3.04000,
,,,0.010268000000,   3.04000,
,,,0.010269000000,   3.00000,
,,,0.010270000000,   3.00000,
,,,0.010271000000,   3.00000,
,,,0.010272000000,   3.00000,
,,,0.010273000000,   3.00000,
,,,0.010274000000,   3.00000,
,,,0.010275000000,   3.00000,
,,,0.010276000000,   2.96000,
,,,0.010277000000,   2.96000,
,,,0.010278000000,   2.96000,
,,,0.010279000000,   2.96000,
,,,0.010280000000,   2.96000,
,,,0.010281000000,   2.96000,
,,,0.010282000000,   2.96000,
,,,0.010283000000,   2.92000,
,,,0.010284000000,   2.92000,
,,,0.010285000000,   2.92000,
,,,0.010286000000,   2.92000,
,,,0.010287000000,   2.92000,
,,,0.010288000000,   2.92000,
,,,0.010289000000,   2.92000,
,,,0.010290000000,   2.92000,
,,,0.010291000000,   2.92000,
,,,0.010292000000,   2.92000,
,,,0.010293000000,   2.92000,
,,,0.010294000000,   2.92000,
,,,0.010295000000,   2.88000,
,,,0.010296000000,   2.88000,
,,,0.010297000000,   2.88000,
,,,0.010298000000,   2.88000,
,,,0.010299000000,   2.88000,
,,,0.010300000000,   2.88000,
,,,0.010301000000,   2.88000,
,,,0.010302000000,   2.84000,
,,,0.010303000000,   2.84000,
,,,0.010304000000,   2.84000,
,,,0.010305000000,   2.84000,
,,,0.010306000000,   2.84000,
,,,0.010307000000,   2.84000,
,,,0.010308000000,   2.84000,
,,,0.010309000000,   2.84000,
,,,0.010310000000,   2.80000,
,,,0.010311000000,   2.80000,
,,,0.010312000000,   2.80000,
,,,0.010313000000,   2.80000,
,,,0.010314000000,   2.80000,
,,,0.010315000000,   2.80000,
,,,0.010316000000,   2.80000,
,,,0.010317000000,   2.76000,
,,,0.010318000000,   2.76000,
,,,0.010319000000,   2.76000,
,,,0.010320000000,   2.76000,
,,,0.010321000000,   2.76000,
,,,0.010322000000,   2.76000,
,,,0.010323000000,   2.76000,
,,,0.010324000000,   2.76000,
,,,0.010325000000,   2.72000,
,,,0.010326000000,   2.72000,
,,,0.010327000000,   2.72000,
,,,0.010328000000,   2.72000,
,,,0.010329000000,   2.72000,
,,,0.010330000000,   2.72000,
,,,0.010331000000,   2.72000,
,,,0.010332000000,   2.72000,
,,,0.010333000000,   2.68000,
,,,0.010334000000,   2.68000,
,,,0.010335000000,   2.68000,
,,,0.010336000000,   2.68000,
,,,0.010337000000,   2.68000,
,,,0.010338000000,   2.68000,
,,,0.010339000000,   2.68000,
,,,0.010340000000,   2.68000,
,,,0.010341000000,   2.64000,
,,,0.010342000000,   2.64000,
,,,0.010343000000,   2.64000,
,,,0.010344000000,   2.64000,
,,,0.010345000000,   2.64000,
,,,0.010346000000,   2.64000,
,,,0.010347000000,   2.64000,
,,,0.010348000000,   2.64000,
,,,0.010349000000,   2.60000,
,,,0.010350000000,   2.60000,
,,,0.010351000000,   2.60000,
,,,0.010352000000,   2.60000,
,,,0.010353000000,   2.60000,
,,,0.010354000000,   2.60000,
,,,0.010355000000,   2.60000,
,,,0.010356000000,   2.60000,
,,,0.010357000000,   2.56000,
,,,0.010358000000,   2.56000,
,,,0.010359000000,   2.56000,
,,,0.010360000000,   2.56000,
,,,0.010361000000,   2.56000,
,,,0.010362000000,   2.56000,
,,,0.010363000000,   2.56000,
,,,0.010364000000,   2.56000,
,,,0.010365000000,   2.56000,
,,,0.010366000000,   2.56000,
,,,0.010367000000,   2.52000,
,,,0.010368000000,   2.52000,
,,,0.010369000000,   2.52000,
,,,0.010370000000,   2.52000,
,,,0.010371000000,   2.52000,
,,,0.010372000000,   2.52000,
,,,0.010373000000,   2.52000,
,,,0.010374000000,   2.52000,
,,,0.010375000000,   2.52000,
,,,0.010376000000,   2.48000,
,,,0.010377000000,   2.48000,
,,,0.010378000000,   2.48000,
,,,0.010379000000,   2.48000,
,,,0.010380000000,   2.48000,
,,,0.010381000000,   2.48000,
,,,0.010382000000,   2.48000,
,,,0.010383000000,   2.48000,
,,,0.010384000000,   2.44000,
,,,0.010385000000,   2.44000,
,,,0.010386000000,   2.44000,
,,,0.010387000000,   2.44000,
,,,0.010388000000,   2.44000,
,,,0.010389000000,   2.44000,
,,,0.010390000000,   2.44000,
,,,0.010391000000,   2.44000,
,,,0.010392000000,   2.44000,
,,,0.010393000000,   2.40000,
,,,0.010394000000,   2.40000,
,,,0.010395000000,   2.40000,
,,,0.010396000000,   2.40000,
,,,0.010397000000,   2.40000,
,,,0.010398000000,   2.40000,
,,,0.010399000000,   2.40000,
,,,0.010400000000,   2.40000,
,,,0.010401000000,   2.40000,
,,,0.010402000000,   2.36000,
,,,0.010403000000,   2.36000,
,,,0.010404000000,   2.36000,
,,,0.010405000000,   2.36000,
,,,0.010406000000,   2.36000,
,,,0.010407000000,   2.36000,
,,,0.010408000000,   2.36000,
,,,0.010409000000,   2.36000,
,,,0.010410000000,   2.36000,
,,,0.010411000000,   2.32000,
,,,0.010412000000,   2.32000,
,,,0.010413000000,   2.32000,
,,,0.010414000000,   2.32000,
,,,0.010415000000,   2.32000,
,,,0.010416000000,   2.32000,
,,,0.010417000000,   2.32000,
,,,0.010418000000,   2.32000,
,,,0.010419000000,   2.32000,
,,,0.010420000000,   2.28000,
,,,0.010421000000,   2.28000,
,,,0.010422000000,   2.28000,
,,,0.010423000000,   2.28000,
,,,0.010424000000,   2.28000,
,,,0.010425000000,   2.28000,
,,,0.010426000000,   2.28000,
,,,0.010427000000,   2.28000,
,,,0.010428000000,   2.28000,
,,,0.010429000000,   2.28000,
,,,0.010430000000,   2.24000,
,,,0.010431000000,   2.24000,
,,,0.010432000000,   2.24000,
,,,0.010433000000,   2.24000,
,,,0.010434000000,   2.24000,
,,,0.010435000000,   2.24000,
,,,0.010436000000,   2.24000,
,,,0.010437000000,   2.24000,
,,,0.010438000000,   2.24000,
,,,0.010439000000,   2.20000,
,,,0.010440000000,   2.20000,
,,,0.010441000000,   2.20000,
,,,0.010442000000,   2.20000,
,,,0.010443000000,   2.20000,
,,,0.010444000000,   2.20000,
,,,0.010445000000,   2.20000,
,,,0.010446000000,   2.20000,
,,,0.010447000000,   2.20000,
,,,0.010448000000,   2.20000,
,,,0.010449000000,   2.16000,
,,,0.010450000000,   2.16000,
,,,0.010451000000,   2.16000,
,,,0.010452000000,   2.16000,
,,,0.010453000000,   2.16000,
,,,0.010454000000,   2.16000,
,,,0.010455000000,   2.16000,
,,,0.010456000000,   2.16000,
,,,0.010457000000,   2.16000,
,,,0.010458000000,   2.16000,
,,,0.010459000000,   2.16000,
,,,0.010460000000,   2.16000,
,,,0.010461000000,   2.16000,
,,,0.010462000000,   2.12000,
,,,0.010463000000,   2.12000,
,,,0.010464000000,   2.12000,
,,,0.010465000000,   2.12000,
,,,0.010466000000,   2.12000,
,,,0.010467000000,   2.12000,
,,,0.010468000000,   2.12000,
,,,0.010469000000,   2.12000,
,,,0.010470000000,   2.12000,
,,,0.010471000000,   2.12000,
,,,0.010472000000,   2.08000,
,,,0.010473000000,   2.08000,
,,,0.010474000000,   2.08000,
,,,0.010475000000,   2.08000,
,,,0.010476000000,   2.08000,
,,,0.010477000000,   2.08000,
,,,0.010478000000,   2.08000,
,,,0.010479000000,   2.08000,
,,,0.010480000000,   2.08000,
,,,0.010481000000,   2.08000,
,,,0.010482000000,   2.04000,
,,,0.010483000000,   2.04000,
,,,0.010484000000,   2.04000,
,,,0.010485000000,   2.04000,
,,,0.010486000000,   2.04000,
,,,0.010487000000,   2.04000,
,,,0.010488000000,   2.04000,
,,,0.010489000000,   2.04000,
,,,0.010490000000,   2.04000,
,,,0.010491000000,   2.04000,
,,,0.010492000000,   2.04000,
,,,0.010493000000,   2.00000,
,,,0.010494000000,   2.00000,
,,,0.010495000000,   2.00000,
,,,0.010496000000,   2.00000,
,,,0.010497000000,   2.00000,
,,,0.010498000000,   2.00000,
,,,0.010499000000,   2.00000,
,,,0.010500000000,   2.00000,
,,,0.010501000000,   2.00000,
,,,0.010502000000,   2.00000,
,,,0.010503000000,   1.96000,
,,,0.010504000000,   1.96000,
,,,0.010505000000,   1.96000,
,,,0.010506000000,   1.96000,
,,,0.010507000000,   1.96000,
,,,0.010508000000,   1.96000,
,,,0.010509000000,   1.96000,
,,,0.010510000000,   1.96000,
,,,0.010511000000,   1.96000,
,,,0.010512000000,   1.96000,
,,,0.010513000000,   1.96000,
,,,0.010514000000,   1.92000,
,,,0.010515000000,   1.92000,
,,,0.010516000000,   1.92000,
,,,0.010517000000,   1.92000,
,,,0.010518000000,   1.92000,
,,,0.010519000000,   1.92000,
,,,0.010520000000,   1.92000,
,,,0.010521000000,   1.92000,
,,,0.010522000000,   1.92000,
,,,0.010523000000,   1.92000,
,,,0.010524000000,   1.92000,
,,,0.010525000000,   1.88000,
,,,0.010526000000,   1.88000,
,,,0.010527000000,   1.88000,
,,,0.010528000000,   1.88000,
,,,0.010529000000,   1.88000,
,,,0.010530000000,   1.88000,
,,,0.010531000000,   1.88000,
,,,0.010532000000,   1.88000,
,,,0.010533000000,   1.88000,
,,,0.010534000000,   1.88000,
,,,0.010535000000,   1.88000,
,,,0.010536000000,   1.84000,
,,,0.010537000000,   1.84000,
,,,0.010538000000,   1.84000,
,,,0.010539000000,   1.84000,
,,,0.010540000000,   1.84000,
,,,0.010541000000,   1.84000,
,,,0.010542000000,   1.84000,
,,,0.010543000000,   1.84000,
,,,0.010544000000,   1.84000,
,,,0.010545000000,   1.84000,
,,,0.010546000000,   1.84000,
,,,0.010547000000,   1.84000,
,,,0.010548000000,   1.80000,
,,,0.010549000000,   1.80000,
,,,0.010550000000,   1.80000,
,,,0.010551000000,   1.80000,
,,,0.010552000000,   1.80000,
,,,0.010553000000,   1.80000,
,,,0.010554000000,   1.80000,
,,,0.010555000000,   1.80000,
,,,0.010556000000,   1.80000,
,,,0.010557000000,   1.80000,
,,,0.010558000000,   1.80000,
,,,0.010559000000,   1.80000,
,,,0.010560000000,   1.76000,
,,,0.010561000000,   1.76000,
,,,0.010562000000,   1.76000,
,,,0.010563000000,   1.76000,
,,,0.010564000000,   1.76000,
,,,0.010565000000,   1.76000,
,,,0.010566000000,   1.76000,
,,,0.010567000000,   1.76000,
,,,0.010568000000,   1.76000,
,,,0.010569000000,   1.76000,
,,,0.010570000000,   1.76000,
,,,0.010571000000,   1.76000,
,,,0.010572000000,   1.76000,
,,,0.010573000000,   1.72000,
,,,0.010574000000,   1.72000,
,,,0.010575000000,   1.72000,
,,,0.010576000000,   1.72000,
,,,0.010577000000,   1.72000,
,,,0.010578000000,   1.72000,
,,,0.010579000000,   1.72000,
,,,0.010580000000,   1.72000,
,,,0.010581000000,   1.72000,
,,,0.010582000000,   1.72000,
,,,0.010583000000,   1.72000,
,,,0.010584000000,   1.72000,
,,,0.010585000000,   1.68000,
,,,0.010586000000,   1.68000,
,,,0.010587000000,   1.68000,
,,,0.010588000000,   1.68000,
,,,0.010589000000,   1.68000,
,,,0.010590000000,   1.68000,
,,,0.010591000000,   1.68000,
,,,0.010592000000,   1.68000,
,,,0.010593000000,   1.68000,
,,,0.010594000000,   1.68000,
,,,0.010595000000,   1.68000,
,,,0.010596000000,   1.68000,
,,,0.010597000000,   1.68000,
,,,0.010598000000,   1.64000,
,,,0.010599000000,   1.64000,
,,,0.010600000000,   1.64000,
,,,0.010601000000,   1.64000,
,,,0.010602000000,   1.64000,
,,,0.010603000000,   1.64000,
